%!PS-Adobe-2.0 EPSF-2.0
%%Title: spectrum.eps
%%Creator: gnuplot 5.0 patchlevel 3
%%CreationDate: Fri Jan 20 19:51:48 2017
%%DocumentFonts: (atend)
%%BoundingBox: 50 50 410 302
%%EndComments
%%BeginProlog
/gnudict 256 dict def
gnudict begin
%
% The following true/false flags may be edited by hand if desired.
% The unit line width and grayscale image gamma correction may also be changed.
%
/Color true def
/Blacktext false def
/Solid false def
/Dashlength 1 def
/Landscape false def
/Level1 false def
/Level3 false def
/Rounded false def
/ClipToBoundingBox false def
/SuppressPDFMark false def
/TransparentPatterns false def
/gnulinewidth 5.000 def
/userlinewidth gnulinewidth def
/Gamma 1.0 def
/BackgroundColor {-1.000 -1.000 -1.000} def
%
/vshift -46 def
/dl1 {
  10.0 Dashlength userlinewidth gnulinewidth div mul mul mul
  Rounded { currentlinewidth 0.75 mul sub dup 0 le { pop 0.01 } if } if
} def
/dl2 {
  10.0 Dashlength userlinewidth gnulinewidth div mul mul mul
  Rounded { currentlinewidth 0.75 mul add } if
} def
/hpt_ 31.5 def
/vpt_ 31.5 def
/hpt hpt_ def
/vpt vpt_ def
/doclip {
  ClipToBoundingBox {
    newpath 50 50 moveto 410 50 lineto 410 302 lineto 50 302 lineto closepath
    clip
  } if
} def
%
% Gnuplot Prolog Version 5.1 (Oct 2015)
%
%/SuppressPDFMark true def
%
/M {moveto} bind def
/L {lineto} bind def
/R {rmoveto} bind def
/V {rlineto} bind def
/N {newpath moveto} bind def
/Z {closepath} bind def
/C {setrgbcolor} bind def
/f {rlineto fill} bind def
/g {setgray} bind def
/Gshow {show} def   % May be redefined later in the file to support UTF-8
/vpt2 vpt 2 mul def
/hpt2 hpt 2 mul def
/Lshow {currentpoint stroke M 0 vshift R 
	Blacktext {gsave 0 setgray textshow grestore} {textshow} ifelse} def
/Rshow {currentpoint stroke M dup stringwidth pop neg vshift R
	Blacktext {gsave 0 setgray textshow grestore} {textshow} ifelse} def
/Cshow {currentpoint stroke M dup stringwidth pop -2 div vshift R 
	Blacktext {gsave 0 setgray textshow grestore} {textshow} ifelse} def
/UP {dup vpt_ mul /vpt exch def hpt_ mul /hpt exch def
  /hpt2 hpt 2 mul def /vpt2 vpt 2 mul def} def
/DL {Color {setrgbcolor Solid {pop []} if 0 setdash}
 {pop pop pop 0 setgray Solid {pop []} if 0 setdash} ifelse} def
/BL {stroke userlinewidth 2 mul setlinewidth
	Rounded {1 setlinejoin 1 setlinecap} if} def
/AL {stroke userlinewidth 2 div setlinewidth
	Rounded {1 setlinejoin 1 setlinecap} if} def
/UL {dup gnulinewidth mul /userlinewidth exch def
	dup 1 lt {pop 1} if 10 mul /udl exch def} def
/PL {stroke userlinewidth setlinewidth
	Rounded {1 setlinejoin 1 setlinecap} if} def
3.8 setmiterlimit
% Classic Line colors (version 5.0)
/LCw {1 1 1} def
/LCb {0 0 0} def
/LCa {0 0 0} def
/LC0 {1 0 0} def
/LC1 {0 1 0} def
/LC2 {0 0 1} def
/LC3 {1 0 1} def
/LC4 {0 1 1} def
/LC5 {1 1 0} def
/LC6 {0 0 0} def
/LC7 {1 0.3 0} def
/LC8 {0.5 0.5 0.5} def
% Default dash patterns (version 5.0)
/LTB {BL [] LCb DL} def
/LTw {PL [] 1 setgray} def
/LTb {PL [] LCb DL} def
/LTa {AL [1 udl mul 2 udl mul] 0 setdash LCa setrgbcolor} def
/LT0 {PL [] LC0 DL} def
/LT1 {PL [2 dl1 3 dl2] LC1 DL} def
/LT2 {PL [1 dl1 1.5 dl2] LC2 DL} def
/LT3 {PL [6 dl1 2 dl2 1 dl1 2 dl2] LC3 DL} def
/LT4 {PL [1 dl1 2 dl2 6 dl1 2 dl2 1 dl1 2 dl2] LC4 DL} def
/LT5 {PL [4 dl1 2 dl2] LC5 DL} def
/LT6 {PL [1.5 dl1 1.5 dl2 1.5 dl1 1.5 dl2 1.5 dl1 6 dl2] LC6 DL} def
/LT7 {PL [3 dl1 3 dl2 1 dl1 3 dl2] LC7 DL} def
/LT8 {PL [2 dl1 2 dl2 2 dl1 6 dl2] LC8 DL} def
/SL {[] 0 setdash} def
/Pnt {stroke [] 0 setdash gsave 1 setlinecap M 0 0 V stroke grestore} def
/Dia {stroke [] 0 setdash 2 copy vpt add M
  hpt neg vpt neg V hpt vpt neg V
  hpt vpt V hpt neg vpt V closepath stroke
  Pnt} def
/Pls {stroke [] 0 setdash vpt sub M 0 vpt2 V
  currentpoint stroke M
  hpt neg vpt neg R hpt2 0 V stroke
 } def
/Box {stroke [] 0 setdash 2 copy exch hpt sub exch vpt add M
  0 vpt2 neg V hpt2 0 V 0 vpt2 V
  hpt2 neg 0 V closepath stroke
  Pnt} def
/Crs {stroke [] 0 setdash exch hpt sub exch vpt add M
  hpt2 vpt2 neg V currentpoint stroke M
  hpt2 neg 0 R hpt2 vpt2 V stroke} def
/TriU {stroke [] 0 setdash 2 copy vpt 1.12 mul add M
  hpt neg vpt -1.62 mul V
  hpt 2 mul 0 V
  hpt neg vpt 1.62 mul V closepath stroke
  Pnt} def
/Star {2 copy Pls Crs} def
/BoxF {stroke [] 0 setdash exch hpt sub exch vpt add M
  0 vpt2 neg V hpt2 0 V 0 vpt2 V
  hpt2 neg 0 V closepath fill} def
/TriUF {stroke [] 0 setdash vpt 1.12 mul add M
  hpt neg vpt -1.62 mul V
  hpt 2 mul 0 V
  hpt neg vpt 1.62 mul V closepath fill} def
/TriD {stroke [] 0 setdash 2 copy vpt 1.12 mul sub M
  hpt neg vpt 1.62 mul V
  hpt 2 mul 0 V
  hpt neg vpt -1.62 mul V closepath stroke
  Pnt} def
/TriDF {stroke [] 0 setdash vpt 1.12 mul sub M
  hpt neg vpt 1.62 mul V
  hpt 2 mul 0 V
  hpt neg vpt -1.62 mul V closepath fill} def
/DiaF {stroke [] 0 setdash vpt add M
  hpt neg vpt neg V hpt vpt neg V
  hpt vpt V hpt neg vpt V closepath fill} def
/Pent {stroke [] 0 setdash 2 copy gsave
  translate 0 hpt M 4 {72 rotate 0 hpt L} repeat
  closepath stroke grestore Pnt} def
/PentF {stroke [] 0 setdash gsave
  translate 0 hpt M 4 {72 rotate 0 hpt L} repeat
  closepath fill grestore} def
/Circle {stroke [] 0 setdash 2 copy
  hpt 0 360 arc stroke Pnt} def
/CircleF {stroke [] 0 setdash hpt 0 360 arc fill} def
/C0 {BL [] 0 setdash 2 copy moveto vpt 90 450 arc} bind def
/C1 {BL [] 0 setdash 2 copy moveto
	2 copy vpt 0 90 arc closepath fill
	vpt 0 360 arc closepath} bind def
/C2 {BL [] 0 setdash 2 copy moveto
	2 copy vpt 90 180 arc closepath fill
	vpt 0 360 arc closepath} bind def
/C3 {BL [] 0 setdash 2 copy moveto
	2 copy vpt 0 180 arc closepath fill
	vpt 0 360 arc closepath} bind def
/C4 {BL [] 0 setdash 2 copy moveto
	2 copy vpt 180 270 arc closepath fill
	vpt 0 360 arc closepath} bind def
/C5 {BL [] 0 setdash 2 copy moveto
	2 copy vpt 0 90 arc
	2 copy moveto
	2 copy vpt 180 270 arc closepath fill
	vpt 0 360 arc} bind def
/C6 {BL [] 0 setdash 2 copy moveto
	2 copy vpt 90 270 arc closepath fill
	vpt 0 360 arc closepath} bind def
/C7 {BL [] 0 setdash 2 copy moveto
	2 copy vpt 0 270 arc closepath fill
	vpt 0 360 arc closepath} bind def
/C8 {BL [] 0 setdash 2 copy moveto
	2 copy vpt 270 360 arc closepath fill
	vpt 0 360 arc closepath} bind def
/C9 {BL [] 0 setdash 2 copy moveto
	2 copy vpt 270 450 arc closepath fill
	vpt 0 360 arc closepath} bind def
/C10 {BL [] 0 setdash 2 copy 2 copy moveto vpt 270 360 arc closepath fill
	2 copy moveto
	2 copy vpt 90 180 arc closepath fill
	vpt 0 360 arc closepath} bind def
/C11 {BL [] 0 setdash 2 copy moveto
	2 copy vpt 0 180 arc closepath fill
	2 copy moveto
	2 copy vpt 270 360 arc closepath fill
	vpt 0 360 arc closepath} bind def
/C12 {BL [] 0 setdash 2 copy moveto
	2 copy vpt 180 360 arc closepath fill
	vpt 0 360 arc closepath} bind def
/C13 {BL [] 0 setdash 2 copy moveto
	2 copy vpt 0 90 arc closepath fill
	2 copy moveto
	2 copy vpt 180 360 arc closepath fill
	vpt 0 360 arc closepath} bind def
/C14 {BL [] 0 setdash 2 copy moveto
	2 copy vpt 90 360 arc closepath fill
	vpt 0 360 arc} bind def
/C15 {BL [] 0 setdash 2 copy vpt 0 360 arc closepath fill
	vpt 0 360 arc closepath} bind def
/Rec {newpath 4 2 roll moveto 1 index 0 rlineto 0 exch rlineto
	neg 0 rlineto closepath} bind def
/Square {dup Rec} bind def
/Bsquare {vpt sub exch vpt sub exch vpt2 Square} bind def
/S0 {BL [] 0 setdash 2 copy moveto 0 vpt rlineto BL Bsquare} bind def
/S1 {BL [] 0 setdash 2 copy vpt Square fill Bsquare} bind def
/S2 {BL [] 0 setdash 2 copy exch vpt sub exch vpt Square fill Bsquare} bind def
/S3 {BL [] 0 setdash 2 copy exch vpt sub exch vpt2 vpt Rec fill Bsquare} bind def
/S4 {BL [] 0 setdash 2 copy exch vpt sub exch vpt sub vpt Square fill Bsquare} bind def
/S5 {BL [] 0 setdash 2 copy 2 copy vpt Square fill
	exch vpt sub exch vpt sub vpt Square fill Bsquare} bind def
/S6 {BL [] 0 setdash 2 copy exch vpt sub exch vpt sub vpt vpt2 Rec fill Bsquare} bind def
/S7 {BL [] 0 setdash 2 copy exch vpt sub exch vpt sub vpt vpt2 Rec fill
	2 copy vpt Square fill Bsquare} bind def
/S8 {BL [] 0 setdash 2 copy vpt sub vpt Square fill Bsquare} bind def
/S9 {BL [] 0 setdash 2 copy vpt sub vpt vpt2 Rec fill Bsquare} bind def
/S10 {BL [] 0 setdash 2 copy vpt sub vpt Square fill 2 copy exch vpt sub exch vpt Square fill
	Bsquare} bind def
/S11 {BL [] 0 setdash 2 copy vpt sub vpt Square fill 2 copy exch vpt sub exch vpt2 vpt Rec fill
	Bsquare} bind def
/S12 {BL [] 0 setdash 2 copy exch vpt sub exch vpt sub vpt2 vpt Rec fill Bsquare} bind def
/S13 {BL [] 0 setdash 2 copy exch vpt sub exch vpt sub vpt2 vpt Rec fill
	2 copy vpt Square fill Bsquare} bind def
/S14 {BL [] 0 setdash 2 copy exch vpt sub exch vpt sub vpt2 vpt Rec fill
	2 copy exch vpt sub exch vpt Square fill Bsquare} bind def
/S15 {BL [] 0 setdash 2 copy Bsquare fill Bsquare} bind def
/D0 {gsave translate 45 rotate 0 0 S0 stroke grestore} bind def
/D1 {gsave translate 45 rotate 0 0 S1 stroke grestore} bind def
/D2 {gsave translate 45 rotate 0 0 S2 stroke grestore} bind def
/D3 {gsave translate 45 rotate 0 0 S3 stroke grestore} bind def
/D4 {gsave translate 45 rotate 0 0 S4 stroke grestore} bind def
/D5 {gsave translate 45 rotate 0 0 S5 stroke grestore} bind def
/D6 {gsave translate 45 rotate 0 0 S6 stroke grestore} bind def
/D7 {gsave translate 45 rotate 0 0 S7 stroke grestore} bind def
/D8 {gsave translate 45 rotate 0 0 S8 stroke grestore} bind def
/D9 {gsave translate 45 rotate 0 0 S9 stroke grestore} bind def
/D10 {gsave translate 45 rotate 0 0 S10 stroke grestore} bind def
/D11 {gsave translate 45 rotate 0 0 S11 stroke grestore} bind def
/D12 {gsave translate 45 rotate 0 0 S12 stroke grestore} bind def
/D13 {gsave translate 45 rotate 0 0 S13 stroke grestore} bind def
/D14 {gsave translate 45 rotate 0 0 S14 stroke grestore} bind def
/D15 {gsave translate 45 rotate 0 0 S15 stroke grestore} bind def
/DiaE {stroke [] 0 setdash vpt add M
  hpt neg vpt neg V hpt vpt neg V
  hpt vpt V hpt neg vpt V closepath stroke} def
/BoxE {stroke [] 0 setdash exch hpt sub exch vpt add M
  0 vpt2 neg V hpt2 0 V 0 vpt2 V
  hpt2 neg 0 V closepath stroke} def
/TriUE {stroke [] 0 setdash vpt 1.12 mul add M
  hpt neg vpt -1.62 mul V
  hpt 2 mul 0 V
  hpt neg vpt 1.62 mul V closepath stroke} def
/TriDE {stroke [] 0 setdash vpt 1.12 mul sub M
  hpt neg vpt 1.62 mul V
  hpt 2 mul 0 V
  hpt neg vpt -1.62 mul V closepath stroke} def
/PentE {stroke [] 0 setdash gsave
  translate 0 hpt M 4 {72 rotate 0 hpt L} repeat
  closepath stroke grestore} def
/CircE {stroke [] 0 setdash 
  hpt 0 360 arc stroke} def
/Opaque {gsave closepath 1 setgray fill grestore 0 setgray closepath} def
/DiaW {stroke [] 0 setdash vpt add M
  hpt neg vpt neg V hpt vpt neg V
  hpt vpt V hpt neg vpt V Opaque stroke} def
/BoxW {stroke [] 0 setdash exch hpt sub exch vpt add M
  0 vpt2 neg V hpt2 0 V 0 vpt2 V
  hpt2 neg 0 V Opaque stroke} def
/TriUW {stroke [] 0 setdash vpt 1.12 mul add M
  hpt neg vpt -1.62 mul V
  hpt 2 mul 0 V
  hpt neg vpt 1.62 mul V Opaque stroke} def
/TriDW {stroke [] 0 setdash vpt 1.12 mul sub M
  hpt neg vpt 1.62 mul V
  hpt 2 mul 0 V
  hpt neg vpt -1.62 mul V Opaque stroke} def
/PentW {stroke [] 0 setdash gsave
  translate 0 hpt M 4 {72 rotate 0 hpt L} repeat
  Opaque stroke grestore} def
/CircW {stroke [] 0 setdash 
  hpt 0 360 arc Opaque stroke} def
/BoxFill {gsave Rec 1 setgray fill grestore} def
/Density {
  /Fillden exch def
  currentrgbcolor
  /ColB exch def /ColG exch def /ColR exch def
  /ColR ColR Fillden mul Fillden sub 1 add def
  /ColG ColG Fillden mul Fillden sub 1 add def
  /ColB ColB Fillden mul Fillden sub 1 add def
  ColR ColG ColB setrgbcolor} def
/BoxColFill {gsave Rec PolyFill} def
/PolyFill {gsave Density fill grestore grestore} def
/h {rlineto rlineto rlineto gsave closepath fill grestore} bind def
%
% PostScript Level 1 Pattern Fill routine for rectangles
% Usage: x y w h s a XX PatternFill
%	x,y = lower left corner of box to be filled
%	w,h = width and height of box
%	  a = angle in degrees between lines and x-axis
%	 XX = 0/1 for no/yes cross-hatch
%
/PatternFill {gsave /PFa [ 9 2 roll ] def
  PFa 0 get PFa 2 get 2 div add PFa 1 get PFa 3 get 2 div add translate
  PFa 2 get -2 div PFa 3 get -2 div PFa 2 get PFa 3 get Rec
  TransparentPatterns {} {gsave 1 setgray fill grestore} ifelse
  clip
  currentlinewidth 0.5 mul setlinewidth
  /PFs PFa 2 get dup mul PFa 3 get dup mul add sqrt def
  0 0 M PFa 5 get rotate PFs -2 div dup translate
  0 1 PFs PFa 4 get div 1 add floor cvi
	{PFa 4 get mul 0 M 0 PFs V} for
  0 PFa 6 get ne {
	0 1 PFs PFa 4 get div 1 add floor cvi
	{PFa 4 get mul 0 2 1 roll M PFs 0 V} for
 } if
  stroke grestore} def
%
/languagelevel where
 {pop languagelevel} {1} ifelse
dup 2 lt
	{/InterpretLevel1 true def
	 /InterpretLevel3 false def}
	{/InterpretLevel1 Level1 def
	 2 gt
	    {/InterpretLevel3 Level3 def}
	    {/InterpretLevel3 false def}
	 ifelse }
 ifelse
%
% PostScript level 2 pattern fill definitions
%
/Level2PatternFill {
/Tile8x8 {/PaintType 2 /PatternType 1 /TilingType 1 /BBox [0 0 8 8] /XStep 8 /YStep 8}
	bind def
/KeepColor {currentrgbcolor [/Pattern /DeviceRGB] setcolorspace} bind def
<< Tile8x8
 /PaintProc {0.5 setlinewidth pop 0 0 M 8 8 L 0 8 M 8 0 L stroke} 
>> matrix makepattern
/Pat1 exch def
<< Tile8x8
 /PaintProc {0.5 setlinewidth pop 0 0 M 8 8 L 0 8 M 8 0 L stroke
	0 4 M 4 8 L 8 4 L 4 0 L 0 4 L stroke}
>> matrix makepattern
/Pat2 exch def
<< Tile8x8
 /PaintProc {0.5 setlinewidth pop 0 0 M 0 8 L
	8 8 L 8 0 L 0 0 L fill}
>> matrix makepattern
/Pat3 exch def
<< Tile8x8
 /PaintProc {0.5 setlinewidth pop -4 8 M 8 -4 L
	0 12 M 12 0 L stroke}
>> matrix makepattern
/Pat4 exch def
<< Tile8x8
 /PaintProc {0.5 setlinewidth pop -4 0 M 8 12 L
	0 -4 M 12 8 L stroke}
>> matrix makepattern
/Pat5 exch def
<< Tile8x8
 /PaintProc {0.5 setlinewidth pop -2 8 M 4 -4 L
	0 12 M 8 -4 L 4 12 M 10 0 L stroke}
>> matrix makepattern
/Pat6 exch def
<< Tile8x8
 /PaintProc {0.5 setlinewidth pop -2 0 M 4 12 L
	0 -4 M 8 12 L 4 -4 M 10 8 L stroke}
>> matrix makepattern
/Pat7 exch def
<< Tile8x8
 /PaintProc {0.5 setlinewidth pop 8 -2 M -4 4 L
	12 0 M -4 8 L 12 4 M 0 10 L stroke}
>> matrix makepattern
/Pat8 exch def
<< Tile8x8
 /PaintProc {0.5 setlinewidth pop 0 -2 M 12 4 L
	-4 0 M 12 8 L -4 4 M 8 10 L stroke}
>> matrix makepattern
/Pat9 exch def
/Pattern1 {PatternBgnd KeepColor Pat1 setpattern} bind def
/Pattern2 {PatternBgnd KeepColor Pat2 setpattern} bind def
/Pattern3 {PatternBgnd KeepColor Pat3 setpattern} bind def
/Pattern4 {PatternBgnd KeepColor Landscape {Pat5} {Pat4} ifelse setpattern} bind def
/Pattern5 {PatternBgnd KeepColor Landscape {Pat4} {Pat5} ifelse setpattern} bind def
/Pattern6 {PatternBgnd KeepColor Landscape {Pat9} {Pat6} ifelse setpattern} bind def
/Pattern7 {PatternBgnd KeepColor Landscape {Pat8} {Pat7} ifelse setpattern} bind def
} def
%
%
%End of PostScript Level 2 code
%
/PatternBgnd {
  TransparentPatterns {} {gsave 1 setgray fill grestore} ifelse
} def
%
% Substitute for Level 2 pattern fill codes with
% grayscale if Level 2 support is not selected.
%
/Level1PatternFill {
/Pattern1 {0.250 Density} bind def
/Pattern2 {0.500 Density} bind def
/Pattern3 {0.750 Density} bind def
/Pattern4 {0.125 Density} bind def
/Pattern5 {0.375 Density} bind def
/Pattern6 {0.625 Density} bind def
/Pattern7 {0.875 Density} bind def
} def
%
% Now test for support of Level 2 code
%
Level1 {Level1PatternFill} {Level2PatternFill} ifelse
%
/Symbol-Oblique /Symbol findfont [1 0 .167 1 0 0] makefont
dup length dict begin {1 index /FID eq {pop pop} {def} ifelse} forall
currentdict end definefont pop
%
/MFshow {
   { dup 5 get 3 ge
     { 5 get 3 eq {gsave} {grestore} ifelse }
     {dup dup 0 get findfont exch 1 get scalefont setfont
     [ currentpoint ] exch dup 2 get 0 exch R dup 5 get 2 ne {dup dup 6
     get exch 4 get {textshow} {stringwidth pop 0 R} ifelse }if dup 5 get 0 eq
     {dup 3 get {2 get neg 0 exch R pop} {pop aload pop M} ifelse} {dup 5
     get 1 eq {dup 2 get exch dup 3 get exch 6 get stringwidth pop -2 div
     dup 0 R} {dup 6 get stringwidth pop -2 div 0 R 6 get
     textshow 2 index {aload pop M neg 3 -1 roll neg R pop pop} {pop pop pop
     pop aload pop M} ifelse }ifelse }ifelse }
     ifelse }
   forall} def
/Gswidth {dup type /stringtype eq {stringwidth} {pop (n) stringwidth} ifelse} def
/MFwidth {0 exch { dup 5 get 3 ge { 5 get 3 eq { 0 } { pop } ifelse }
 {dup 3 get{dup dup 0 get findfont exch 1 get scalefont setfont
     6 get Gswidth pop add} {pop} ifelse} ifelse} forall} def
/MLshow { currentpoint stroke M
  0 exch R
  Blacktext {gsave 0 setgray MFshow grestore} {MFshow} ifelse } bind def
/MRshow { currentpoint stroke M
  exch dup MFwidth neg 3 -1 roll R
  Blacktext {gsave 0 setgray MFshow grestore} {MFshow} ifelse } bind def
/MCshow { currentpoint stroke M
  exch dup MFwidth -2 div 3 -1 roll R
  Blacktext {gsave 0 setgray MFshow grestore} {MFshow} ifelse } bind def
/XYsave    { [( ) 1 2 true false 3 ()] } bind def
/XYrestore { [( ) 1 2 true false 4 ()] } bind def
Level1 SuppressPDFMark or 
{} {
/SDict 10 dict def
systemdict /pdfmark known not {
  userdict /pdfmark systemdict /cleartomark get put
} if
SDict begin [
  /Title (spectrum.eps)
  /Subject (gnuplot plot)
  /Creator (gnuplot 5.0 patchlevel 3)
  /Author (asahi)
%  /Producer (gnuplot)
%  /Keywords ()
  /CreationDate (Fri Jan 20 19:51:48 2017)
  /DOCINFO pdfmark
end
} ifelse
%
% Support for boxed text - Ethan A Merritt May 2005
%
/InitTextBox { userdict /TBy2 3 -1 roll put userdict /TBx2 3 -1 roll put
           userdict /TBy1 3 -1 roll put userdict /TBx1 3 -1 roll put
	   /Boxing true def } def
/ExtendTextBox { Boxing
    { gsave dup false charpath pathbbox
      dup TBy2 gt {userdict /TBy2 3 -1 roll put} {pop} ifelse
      dup TBx2 gt {userdict /TBx2 3 -1 roll put} {pop} ifelse
      dup TBy1 lt {userdict /TBy1 3 -1 roll put} {pop} ifelse
      dup TBx1 lt {userdict /TBx1 3 -1 roll put} {pop} ifelse
      grestore } if } def
/PopTextBox { newpath TBx1 TBxmargin sub TBy1 TBymargin sub M
               TBx1 TBxmargin sub TBy2 TBymargin add L
	       TBx2 TBxmargin add TBy2 TBymargin add L
	       TBx2 TBxmargin add TBy1 TBymargin sub L closepath } def
/DrawTextBox { PopTextBox stroke /Boxing false def} def
/FillTextBox { gsave PopTextBox 1 1 1 setrgbcolor fill grestore /Boxing false def} def
0 0 0 0 InitTextBox
/TBxmargin 20 def
/TBymargin 20 def
/Boxing false def
/textshow { ExtendTextBox Gshow } def
%
% redundant definitions for compatibility with prologue.ps older than 5.0.2
/LTB {BL [] LCb DL} def
/LTb {PL [] LCb DL} def
end
%%EndProlog
%%Page: 1 1
gnudict begin
gsave
doclip
50 50 translate
0.050 0.050 scale
0 setgray
newpath
(Helvetica) findfont 140 scalefont setfont
BackgroundColor 0 lt 3 1 roll 0 lt exch 0 lt or or not {BackgroundColor C 1.000 0 0 7200.00 5040.00 BoxColFill} if
/Helvetica findfont 140 scalefont setfont
/vshift -46 def
1.000 UL
LTb
LCb setrgbcolor
630 280 M
63 0 V
6254 0 R
-63 0 V
stroke
546 280 M
[ [(Helvetica) 140.0 0.0 true true 0 ( 0)]
] -46.7 MRshow
1.000 UL
LTb
LCb setrgbcolor
630 936 M
63 0 V
6254 0 R
-63 0 V
stroke
546 936 M
[ [(Helvetica) 140.0 0.0 true true 0 ( 1000)]
] -46.7 MRshow
1.000 UL
LTb
LCb setrgbcolor
630 1592 M
63 0 V
6254 0 R
-63 0 V
stroke
546 1592 M
[ [(Helvetica) 140.0 0.0 true true 0 ( 2000)]
] -46.7 MRshow
1.000 UL
LTb
LCb setrgbcolor
630 2248 M
63 0 V
6254 0 R
-63 0 V
stroke
546 2248 M
[ [(Helvetica) 140.0 0.0 true true 0 ( 3000)]
] -46.7 MRshow
1.000 UL
LTb
LCb setrgbcolor
630 2903 M
63 0 V
6254 0 R
-63 0 V
stroke
546 2903 M
[ [(Helvetica) 140.0 0.0 true true 0 ( 4000)]
] -46.7 MRshow
1.000 UL
LTb
LCb setrgbcolor
630 3559 M
63 0 V
6254 0 R
-63 0 V
stroke
546 3559 M
[ [(Helvetica) 140.0 0.0 true true 0 ( 5000)]
] -46.7 MRshow
1.000 UL
LTb
LCb setrgbcolor
630 4215 M
63 0 V
6254 0 R
-63 0 V
stroke
546 4215 M
[ [(Helvetica) 140.0 0.0 true true 0 ( 6000)]
] -46.7 MRshow
1.000 UL
LTb
LCb setrgbcolor
630 4871 M
63 0 V
6254 0 R
-63 0 V
stroke
546 4871 M
[ [(Helvetica) 140.0 0.0 true true 0 ( 7000)]
] -46.7 MRshow
1.000 UL
LTb
LCb setrgbcolor
630 280 M
0 63 V
0 4528 R
0 -63 V
stroke
630 140 M
[ [(Helvetica) 140.0 0.0 true true 0 ( 0)]
] -46.7 MCshow
1.000 UL
LTb
LCb setrgbcolor
1332 280 M
0 63 V
0 4528 R
0 -63 V
stroke
1332 140 M
[ [(Helvetica) 140.0 0.0 true true 0 ( 500)]
] -46.7 MCshow
1.000 UL
LTb
LCb setrgbcolor
2034 280 M
0 63 V
0 4528 R
0 -63 V
stroke
2034 140 M
[ [(Helvetica) 140.0 0.0 true true 0 ( 1000)]
] -46.7 MCshow
1.000 UL
LTb
LCb setrgbcolor
2736 280 M
0 63 V
0 4528 R
0 -63 V
stroke
2736 140 M
[ [(Helvetica) 140.0 0.0 true true 0 ( 1500)]
] -46.7 MCshow
1.000 UL
LTb
LCb setrgbcolor
3438 280 M
0 63 V
0 4528 R
0 -63 V
stroke
3438 140 M
[ [(Helvetica) 140.0 0.0 true true 0 ( 2000)]
] -46.7 MCshow
1.000 UL
LTb
LCb setrgbcolor
4139 280 M
0 63 V
0 4528 R
0 -63 V
stroke
4139 140 M
[ [(Helvetica) 140.0 0.0 true true 0 ( 2500)]
] -46.7 MCshow
1.000 UL
LTb
LCb setrgbcolor
4841 280 M
0 63 V
0 4528 R
0 -63 V
stroke
4841 140 M
[ [(Helvetica) 140.0 0.0 true true 0 ( 3000)]
] -46.7 MCshow
1.000 UL
LTb
LCb setrgbcolor
5543 280 M
0 63 V
0 4528 R
0 -63 V
stroke
5543 140 M
[ [(Helvetica) 140.0 0.0 true true 0 ( 3500)]
] -46.7 MCshow
1.000 UL
LTb
LCb setrgbcolor
6245 280 M
0 63 V
0 4528 R
0 -63 V
stroke
6245 140 M
[ [(Helvetica) 140.0 0.0 true true 0 ( 4000)]
] -46.7 MCshow
1.000 UL
LTb
LCb setrgbcolor
6947 280 M
0 63 V
0 4528 R
0 -63 V
stroke
6947 140 M
[ [(Helvetica) 140.0 0.0 true true 0 ( 4500)]
] -46.7 MCshow
1.000 UL
LTb
LCb setrgbcolor
1.000 UL
LTB
LCb setrgbcolor
630 4871 N
630 280 L
6317 0 V
0 4591 V
-6317 0 V
Z stroke
1.000 UP
1.000 UL
LTb
LCb setrgbcolor
% Begin plot #1
1.000 UP
1.000 UL
LTb
0.58 0.00 0.83 C /Helvetica findfont 140 scalefont setfont
LCb setrgbcolor
6296 4738 M
("spectrum.dat" u 1:4) Rshow
1.000 UP
1.000 UL
LTb
0.58 0.00 0.83 C 630 291 Pls
631 291 Pls
633 292 Pls
634 293 Pls
636 295 Pls
637 297 Pls
638 300 Pls
640 304 Pls
641 308 Pls
643 312 Pls
644 317 Pls
645 323 Pls
647 328 Pls
648 335 Pls
650 342 Pls
651 349 Pls
652 357 Pls
654 365 Pls
655 373 Pls
657 382 Pls
658 392 Pls
659 401 Pls
661 411 Pls
662 422 Pls
664 432 Pls
665 443 Pls
666 454 Pls
668 466 Pls
669 477 Pls
671 489 Pls
672 501 Pls
674 513 Pls
675 526 Pls
676 538 Pls
678 551 Pls
679 563 Pls
681 576 Pls
682 588 Pls
683 601 Pls
685 614 Pls
686 626 Pls
688 639 Pls
689 652 Pls
690 664 Pls
692 676 Pls
693 689 Pls
695 701 Pls
696 713 Pls
697 725 Pls
699 736 Pls
700 748 Pls
702 759 Pls
703 770 Pls
704 780 Pls
706 791 Pls
707 801 Pls
709 811 Pls
710 821 Pls
711 830 Pls
713 839 Pls
714 848 Pls
716 856 Pls
717 864 Pls
718 872 Pls
720 880 Pls
721 887 Pls
723 894 Pls
724 900 Pls
725 907 Pls
727 913 Pls
728 918 Pls
730 924 Pls
731 929 Pls
732 933 Pls
734 938 Pls
735 942 Pls
737 946 Pls
738 950 Pls
739 953 Pls
741 957 Pls
742 960 Pls
744 963 Pls
745 966 Pls
747 968 Pls
748 971 Pls
749 973 Pls
751 976 Pls
752 978 Pls
754 980 Pls
755 982 Pls
756 985 Pls
758 987 Pls
759 989 Pls
761 991 Pls
762 994 Pls
763 996 Pls
765 999 Pls
766 1002 Pls
768 1005 Pls
769 1009 Pls
770 1012 Pls
772 1016 Pls
773 1020 Pls
775 1025 Pls
776 1029 Pls
777 1035 Pls
779 1040 Pls
780 1046 Pls
782 1053 Pls
783 1060 Pls
784 1067 Pls
786 1075 Pls
787 1083 Pls
789 1092 Pls
790 1102 Pls
791 1112 Pls
793 1123 Pls
794 1135 Pls
796 1147 Pls
797 1159 Pls
798 1173 Pls
800 1187 Pls
801 1202 Pls
803 1217 Pls
804 1233 Pls
805 1250 Pls
807 1268 Pls
808 1287 Pls
810 1306 Pls
811 1326 Pls
812 1346 Pls
814 1368 Pls
815 1390 Pls
817 1413 Pls
818 1436 Pls
820 1461 Pls
821 1486 Pls
822 1512 Pls
824 1538 Pls
825 1565 Pls
827 1593 Pls
828 1622 Pls
829 1651 Pls
831 1681 Pls
832 1711 Pls
834 1742 Pls
835 1774 Pls
836 1806 Pls
838 1838 Pls
839 1871 Pls
841 1905 Pls
842 1939 Pls
843 1973 Pls
845 2008 Pls
846 2043 Pls
848 2078 Pls
849 2113 Pls
850 2149 Pls
852 2185 Pls
853 2221 Pls
855 2257 Pls
856 2294 Pls
857 2330 Pls
859 2366 Pls
860 2402 Pls
862 2439 Pls
863 2474 Pls
864 2510 Pls
866 2546 Pls
867 2581 Pls
869 2616 Pls
870 2650 Pls
871 2684 Pls
873 2718 Pls
874 2751 Pls
876 2784 Pls
877 2816 Pls
878 2847 Pls
880 2878 Pls
881 2908 Pls
883 2937 Pls
884 2965 Pls
885 2993 Pls
887 3020 Pls
888 3045 Pls
890 3070 Pls
891 3094 Pls
893 3116 Pls
894 3138 Pls
895 3158 Pls
897 3178 Pls
898 3196 Pls
900 3213 Pls
901 3228 Pls
902 3243 Pls
904 3256 Pls
905 3268 Pls
907 3278 Pls
908 3287 Pls
909 3295 Pls
911 3301 Pls
912 3306 Pls
914 3309 Pls
915 3311 Pls
916 3312 Pls
918 3311 Pls
919 3308 Pls
921 3304 Pls
922 3299 Pls
923 3292 Pls
925 3284 Pls
926 3274 Pls
928 3263 Pls
929 3250 Pls
930 3236 Pls
932 3220 Pls
933 3203 Pls
935 3185 Pls
936 3165 Pls
937 3144 Pls
939 3121 Pls
940 3097 Pls
942 3072 Pls
943 3046 Pls
944 3018 Pls
946 2989 Pls
947 2959 Pls
949 2928 Pls
950 2896 Pls
951 2862 Pls
953 2828 Pls
954 2792 Pls
956 2756 Pls
957 2719 Pls
958 2681 Pls
960 2642 Pls
961 2603 Pls
963 2562 Pls
964 2522 Pls
966 2480 Pls
967 2438 Pls
968 2396 Pls
970 2353 Pls
971 2309 Pls
973 2266 Pls
974 2222 Pls
975 2178 Pls
977 2133 Pls
978 2089 Pls
980 2045 Pls
981 2000 Pls
982 1956 Pls
984 1912 Pls
985 1868 Pls
987 1825 Pls
988 1781 Pls
989 1738 Pls
991 1696 Pls
992 1654 Pls
994 1612 Pls
995 1572 Pls
996 1531 Pls
998 1492 Pls
999 1453 Pls
1001 1415 Pls
1002 1378 Pls
1003 1342 Pls
1005 1307 Pls
1006 1273 Pls
1008 1240 Pls
1009 1208 Pls
1010 1177 Pls
1012 1147 Pls
1013 1118 Pls
1015 1091 Pls
1016 1065 Pls
1017 1041 Pls
1019 1017 Pls
1020 995 Pls
1022 975 Pls
1023 956 Pls
1024 938 Pls
1026 922 Pls
1027 908 Pls
1029 895 Pls
1030 883 Pls
1031 873 Pls
1033 865 Pls
1034 858 Pls
1036 852 Pls
1037 849 Pls
1038 847 Pls
1040 846 Pls
1041 847 Pls
1043 850 Pls
1044 854 Pls
1046 859 Pls
1047 867 Pls
1048 875 Pls
1050 886 Pls
1051 897 Pls
1053 911 Pls
1054 925 Pls
1055 941 Pls
1057 959 Pls
1058 978 Pls
1060 998 Pls
1061 1019 Pls
1062 1042 Pls
1064 1066 Pls
1065 1091 Pls
1067 1118 Pls
1068 1145 Pls
1069 1174 Pls
1071 1203 Pls
1072 1234 Pls
1074 1266 Pls
1075 1298 Pls
1076 1331 Pls
1078 1366 Pls
1079 1400 Pls
1081 1436 Pls
1082 1472 Pls
1083 1509 Pls
1085 1546 Pls
1086 1584 Pls
1088 1622 Pls
1089 1661 Pls
1090 1700 Pls
1092 1739 Pls
1093 1779 Pls
1095 1818 Pls
1096 1858 Pls
1097 1897 Pls
1099 1937 Pls
1100 1977 Pls
1102 2016 Pls
1103 2055 Pls
1104 2094 Pls
1106 2133 Pls
1107 2171 Pls
1109 2209 Pls
1110 2247 Pls
1111 2284 Pls
1113 2320 Pls
1114 2356 Pls
1116 2391 Pls
1117 2425 Pls
1119 2459 Pls
1120 2492 Pls
1121 2524 Pls
1123 2555 Pls
1124 2585 Pls
1126 2614 Pls
1127 2642 Pls
1128 2670 Pls
1130 2696 Pls
1131 2720 Pls
1133 2744 Pls
1134 2767 Pls
1135 2788 Pls
1137 2808 Pls
1138 2827 Pls
1140 2845 Pls
1141 2861 Pls
1142 2876 Pls
1144 2889 Pls
1145 2901 Pls
1147 2912 Pls
1148 2922 Pls
1149 2930 Pls
1151 2936 Pls
1152 2941 Pls
1154 2945 Pls
1155 2947 Pls
1156 2948 Pls
1158 2948 Pls
1159 2946 Pls
1161 2942 Pls
1162 2938 Pls
1163 2931 Pls
1165 2924 Pls
1166 2915 Pls
1168 2904 Pls
1169 2893 Pls
1170 2880 Pls
1172 2865 Pls
1173 2849 Pls
1175 2832 Pls
1176 2814 Pls
1177 2795 Pls
1179 2774 Pls
1180 2752 Pls
1182 2729 Pls
1183 2705 Pls
1184 2680 Pls
1186 2654 Pls
1187 2626 Pls
1189 2598 Pls
1190 2569 Pls
1192 2539 Pls
1193 2508 Pls
1194 2476 Pls
1196 2443 Pls
1197 2409 Pls
1199 2375 Pls
1200 2340 Pls
1201 2305 Pls
1203 2269 Pls
1204 2232 Pls
1206 2195 Pls
1207 2157 Pls
1208 2119 Pls
1210 2080 Pls
1211 2041 Pls
1213 2002 Pls
1214 1962 Pls
1215 1923 Pls
1217 1883 Pls
1218 1843 Pls
1220 1802 Pls
1221 1762 Pls
1222 1722 Pls
1224 1682 Pls
1225 1641 Pls
1227 1601 Pls
1228 1561 Pls
1229 1522 Pls
1231 1482 Pls
1232 1443 Pls
1234 1404 Pls
1235 1365 Pls
1236 1326 Pls
1238 1288 Pls
1239 1251 Pls
1241 1214 Pls
1242 1177 Pls
1243 1141 Pls
1245 1105 Pls
1246 1070 Pls
1248 1036 Pls
1249 1002 Pls
1250 969 Pls
1252 936 Pls
1253 904 Pls
1255 873 Pls
1256 843 Pls
1257 813 Pls
1259 784 Pls
1260 756 Pls
1262 729 Pls
1263 702 Pls
1265 676 Pls
1266 652 Pls
1267 627 Pls
1269 604 Pls
1270 582 Pls
1272 560 Pls
1273 540 Pls
1274 520 Pls
1276 501 Pls
1277 483 Pls
1279 466 Pls
1280 450 Pls
1281 435 Pls
1283 420 Pls
1284 407 Pls
1286 394 Pls
1287 382 Pls
1288 372 Pls
1290 362 Pls
1291 352 Pls
1293 344 Pls
1294 337 Pls
1295 330 Pls
1297 324 Pls
1298 319 Pls
1300 315 Pls
1301 311 Pls
1302 309 Pls
1304 307 Pls
1305 306 Pls
1307 305 Pls
1308 306 Pls
1309 307 Pls
1311 309 Pls
1312 311 Pls
1314 314 Pls
1315 318 Pls
1316 322 Pls
1318 327 Pls
1319 333 Pls
1321 339 Pls
1322 346 Pls
1323 353 Pls
1325 361 Pls
1326 370 Pls
1328 378 Pls
1329 388 Pls
1330 398 Pls
1332 408 Pls
1333 419 Pls
1335 430 Pls
1336 441 Pls
1338 453 Pls
1339 466 Pls
1340 478 Pls
1342 491 Pls
1343 504 Pls
1345 518 Pls
1346 532 Pls
1347 546 Pls
1349 561 Pls
1350 575 Pls
1352 590 Pls
1353 605 Pls
1354 621 Pls
1356 636 Pls
1357 652 Pls
1359 668 Pls
1360 684 Pls
1361 700 Pls
1363 716 Pls
1364 732 Pls
1366 749 Pls
1367 765 Pls
1368 782 Pls
1370 799 Pls
1371 815 Pls
1373 832 Pls
1374 849 Pls
1375 866 Pls
1377 883 Pls
1378 900 Pls
1380 917 Pls
1381 933 Pls
1382 950 Pls
1384 967 Pls
1385 984 Pls
1387 1001 Pls
1388 1017 Pls
1389 1034 Pls
1391 1051 Pls
1392 1067 Pls
1394 1083 Pls
1395 1100 Pls
1396 1116 Pls
1398 1132 Pls
1399 1148 Pls
1401 1164 Pls
1402 1180 Pls
1403 1195 Pls
1405 1211 Pls
1406 1226 Pls
1408 1241 Pls
1409 1256 Pls
1411 1271 Pls
1412 1285 Pls
1413 1300 Pls
1415 1314 Pls
1416 1328 Pls
1418 1342 Pls
1419 1356 Pls
1420 1369 Pls
1422 1382 Pls
1423 1395 Pls
1425 1408 Pls
1426 1420 Pls
1427 1433 Pls
1429 1444 Pls
1430 1456 Pls
1432 1467 Pls
1433 1478 Pls
1434 1489 Pls
1436 1500 Pls
1437 1510 Pls
1439 1520 Pls
1440 1529 Pls
1441 1538 Pls
1443 1547 Pls
1444 1555 Pls
1446 1563 Pls
1447 1571 Pls
1448 1578 Pls
1450 1585 Pls
1451 1592 Pls
1453 1598 Pls
1454 1603 Pls
1455 1609 Pls
1457 1614 Pls
1458 1618 Pls
1460 1622 Pls
1461 1625 Pls
1462 1628 Pls
1464 1631 Pls
1465 1633 Pls
1467 1634 Pls
1468 1635 Pls
1469 1636 Pls
1471 1636 Pls
1472 1636 Pls
1474 1635 Pls
1475 1633 Pls
1476 1631 Pls
1478 1629 Pls
1479 1625 Pls
1481 1622 Pls
1482 1618 Pls
1483 1613 Pls
1485 1608 Pls
1486 1602 Pls
1488 1596 Pls
1489 1589 Pls
1491 1581 Pls
1492 1573 Pls
1493 1565 Pls
1495 1556 Pls
1496 1546 Pls
1498 1536 Pls
1499 1525 Pls
1500 1514 Pls
1502 1502 Pls
1503 1490 Pls
1505 1477 Pls
1506 1464 Pls
1507 1450 Pls
1509 1436 Pls
1510 1421 Pls
1512 1406 Pls
1513 1390 Pls
1514 1374 Pls
1516 1358 Pls
1517 1341 Pls
1519 1323 Pls
1520 1305 Pls
1521 1287 Pls
1523 1269 Pls
1524 1250 Pls
1526 1230 Pls
1527 1211 Pls
1528 1191 Pls
1530 1171 Pls
1531 1150 Pls
1533 1130 Pls
1534 1109 Pls
1535 1088 Pls
1537 1066 Pls
1538 1045 Pls
1540 1023 Pls
1541 1002 Pls
1542 980 Pls
1544 958 Pls
1545 936 Pls
1547 914 Pls
1548 892 Pls
1549 870 Pls
1551 849 Pls
1552 827 Pls
1554 805 Pls
1555 784 Pls
1556 762 Pls
1558 741 Pls
1559 720 Pls
1561 699 Pls
1562 679 Pls
1564 659 Pls
1565 639 Pls
1566 620 Pls
1568 601 Pls
1569 582 Pls
1571 564 Pls
1572 546 Pls
1573 528 Pls
1575 512 Pls
1576 495 Pls
1578 480 Pls
1579 464 Pls
1580 450 Pls
1582 436 Pls
1583 423 Pls
1585 410 Pls
1586 398 Pls
1587 387 Pls
1589 377 Pls
1590 367 Pls
1592 358 Pls
1593 350 Pls
1594 343 Pls
1596 336 Pls
1597 330 Pls
1599 326 Pls
1600 322 Pls
1601 319 Pls
1603 317 Pls
1604 315 Pls
1606 315 Pls
1607 316 Pls
1608 317 Pls
1610 320 Pls
1611 323 Pls
1613 328 Pls
1614 333 Pls
1615 339 Pls
1617 347 Pls
1618 355 Pls
1620 364 Pls
1621 374 Pls
1622 385 Pls
1624 397 Pls
1625 410 Pls
1627 424 Pls
1628 439 Pls
1629 455 Pls
1631 471 Pls
1632 489 Pls
1634 507 Pls
1635 527 Pls
1637 547 Pls
1638 568 Pls
1639 590 Pls
1641 613 Pls
1642 636 Pls
1644 660 Pls
1645 685 Pls
1646 711 Pls
1648 737 Pls
1649 764 Pls
1651 792 Pls
1652 820 Pls
1653 849 Pls
1655 879 Pls
1656 909 Pls
1658 939 Pls
1659 971 Pls
1660 1002 Pls
1662 1034 Pls
1663 1066 Pls
1665 1099 Pls
1666 1132 Pls
1667 1165 Pls
1669 1199 Pls
1670 1233 Pls
1672 1267 Pls
1673 1301 Pls
1674 1335 Pls
1676 1369 Pls
1677 1404 Pls
1679 1438 Pls
1680 1473 Pls
1681 1507 Pls
1683 1541 Pls
1684 1576 Pls
1686 1610 Pls
1687 1643 Pls
1688 1677 Pls
1690 1710 Pls
1691 1743 Pls
1693 1776 Pls
1694 1809 Pls
1695 1841 Pls
1697 1872 Pls
1698 1903 Pls
1700 1934 Pls
1701 1964 Pls
1702 1993 Pls
1704 2022 Pls
1705 2051 Pls
1707 2079 Pls
1708 2106 Pls
1710 2132 Pls
1711 2158 Pls
1712 2183 Pls
1714 2207 Pls
1715 2230 Pls
1717 2253 Pls
1718 2274 Pls
1719 2295 Pls
1721 2315 Pls
1722 2334 Pls
1724 2353 Pls
1725 2370 Pls
1726 2386 Pls
1728 2402 Pls
1729 2416 Pls
1731 2430 Pls
1732 2442 Pls
1733 2454 Pls
1735 2465 Pls
1736 2474 Pls
1738 2483 Pls
1739 2490 Pls
1740 2497 Pls
1742 2502 Pls
1743 2507 Pls
1745 2510 Pls
1746 2513 Pls
1747 2515 Pls
1749 2515 Pls
1750 2515 Pls
1752 2513 Pls
1753 2511 Pls
1754 2507 Pls
1756 2503 Pls
1757 2497 Pls
1759 2491 Pls
1760 2484 Pls
1761 2476 Pls
1763 2467 Pls
1764 2457 Pls
1766 2446 Pls
1767 2434 Pls
1768 2422 Pls
1770 2409 Pls
1771 2395 Pls
1773 2380 Pls
1774 2364 Pls
1775 2348 Pls
1777 2331 Pls
1778 2313 Pls
1780 2295 Pls
1781 2276 Pls
1783 2256 Pls
1784 2236 Pls
1785 2215 Pls
1787 2194 Pls
1788 2172 Pls
1790 2150 Pls
1791 2127 Pls
1792 2104 Pls
1794 2080 Pls
1795 2056 Pls
1797 2032 Pls
1798 2007 Pls
1799 1982 Pls
1801 1957 Pls
1802 1932 Pls
1804 1906 Pls
1805 1880 Pls
1806 1854 Pls
1808 1828 Pls
1809 1802 Pls
1811 1776 Pls
1812 1750 Pls
1813 1723 Pls
1815 1697 Pls
1816 1671 Pls
1818 1644 Pls
1819 1618 Pls
1820 1592 Pls
1822 1566 Pls
1823 1540 Pls
1825 1515 Pls
1826 1489 Pls
1827 1464 Pls
1829 1439 Pls
1830 1414 Pls
1832 1390 Pls
1833 1365 Pls
1834 1342 Pls
1836 1318 Pls
1837 1295 Pls
1839 1272 Pls
1840 1249 Pls
1841 1227 Pls
1843 1205 Pls
1844 1183 Pls
1846 1162 Pls
1847 1141 Pls
1848 1121 Pls
1850 1101 Pls
1851 1082 Pls
1853 1063 Pls
1854 1044 Pls
1855 1026 Pls
1857 1009 Pls
1858 991 Pls
1860 975 Pls
1861 958 Pls
1863 942 Pls
1864 927 Pls
1865 912 Pls
1867 898 Pls
1868 884 Pls
1870 870 Pls
1871 857 Pls
1872 844 Pls
1874 832 Pls
1875 820 Pls
1877 809 Pls
1878 798 Pls
1879 787 Pls
1881 777 Pls
1882 767 Pls
1884 758 Pls
1885 749 Pls
1886 740 Pls
1888 732 Pls
1889 724 Pls
1891 716 Pls
1892 709 Pls
1893 702 Pls
1895 695 Pls
1896 689 Pls
1898 683 Pls
1899 677 Pls
1900 671 Pls
1902 665 Pls
1903 660 Pls
1905 655 Pls
1906 650 Pls
1907 646 Pls
1909 641 Pls
1910 637 Pls
1912 633 Pls
1913 629 Pls
1914 625 Pls
1916 621 Pls
1917 617 Pls
1919 613 Pls
1920 610 Pls
1921 606 Pls
1923 602 Pls
1924 599 Pls
1926 595 Pls
1927 592 Pls
1928 588 Pls
1930 585 Pls
1931 581 Pls
1933 578 Pls
1934 574 Pls
1936 571 Pls
1937 567 Pls
1938 563 Pls
1940 559 Pls
1941 555 Pls
1943 551 Pls
1944 547 Pls
1945 543 Pls
1947 539 Pls
1948 535 Pls
1950 530 Pls
1951 526 Pls
1952 521 Pls
1954 517 Pls
1955 512 Pls
1957 507 Pls
1958 502 Pls
1959 497 Pls
1961 492 Pls
1962 486 Pls
1964 481 Pls
1965 476 Pls
1966 470 Pls
1968 464 Pls
1969 459 Pls
1971 453 Pls
1972 447 Pls
1973 441 Pls
1975 435 Pls
1976 430 Pls
1978 424 Pls
1979 418 Pls
1980 412 Pls
1982 406 Pls
1983 400 Pls
1985 394 Pls
1986 388 Pls
1987 382 Pls
1989 376 Pls
1990 370 Pls
1992 364 Pls
1993 359 Pls
1994 353 Pls
1996 348 Pls
1997 343 Pls
1999 337 Pls
2000 332 Pls
2001 327 Pls
2003 323 Pls
2004 318 Pls
2006 314 Pls
2007 310 Pls
2009 306 Pls
2010 302 Pls
2011 299 Pls
2013 296 Pls
2014 293 Pls
2016 290 Pls
2017 288 Pls
2018 286 Pls
2020 284 Pls
2021 283 Pls
2023 282 Pls
2024 282 Pls
2025 281 Pls
2027 281 Pls
2028 282 Pls
2030 283 Pls
2031 284 Pls
2032 286 Pls
2034 288 Pls
2035 291 Pls
2037 294 Pls
2038 297 Pls
2039 301 Pls
2041 306 Pls
2042 311 Pls
2044 316 Pls
2045 322 Pls
2046 328 Pls
2048 335 Pls
2049 343 Pls
2051 351 Pls
2052 359 Pls
2053 368 Pls
2055 377 Pls
2056 387 Pls
2058 397 Pls
2059 408 Pls
2060 420 Pls
2062 432 Pls
2063 444 Pls
2065 457 Pls
2066 470 Pls
2067 484 Pls
2069 499 Pls
2070 513 Pls
2072 529 Pls
2073 545 Pls
2074 561 Pls
2076 578 Pls
2077 595 Pls
2079 613 Pls
2080 631 Pls
2082 649 Pls
2083 668 Pls
2084 688 Pls
2086 708 Pls
2087 728 Pls
2089 748 Pls
2090 769 Pls
2091 791 Pls
2093 812 Pls
2094 834 Pls
2096 857 Pls
2097 880 Pls
2098 902 Pls
2100 926 Pls
2101 949 Pls
2103 973 Pls
2104 997 Pls
2105 1021 Pls
2107 1046 Pls
2108 1070 Pls
2110 1095 Pls
2111 1120 Pls
2112 1145 Pls
2114 1171 Pls
2115 1196 Pls
2117 1222 Pls
2118 1247 Pls
2119 1273 Pls
2121 1299 Pls
2122 1325 Pls
2124 1351 Pls
2125 1376 Pls
2126 1402 Pls
2128 1428 Pls
2129 1454 Pls
2131 1480 Pls
2132 1505 Pls
2133 1531 Pls
2135 1557 Pls
2136 1582 Pls
2138 1607 Pls
2139 1632 Pls
2140 1657 Pls
2142 1682 Pls
2143 1707 Pls
2145 1731 Pls
2146 1755 Pls
2147 1779 Pls
2149 1803 Pls
2150 1827 Pls
2152 1850 Pls
2153 1873 Pls
2155 1896 Pls
2156 1918 Pls
2157 1940 Pls
2159 1962 Pls
2160 1983 Pls
2162 2004 Pls
2163 2025 Pls
2164 2046 Pls
2166 2066 Pls
2167 2085 Pls
2169 2105 Pls
2170 2124 Pls
2171 2142 Pls
2173 2160 Pls
2174 2178 Pls
2176 2195 Pls
2177 2212 Pls
2178 2228 Pls
2180 2244 Pls
2181 2260 Pls
2183 2275 Pls
2184 2290 Pls
2185 2304 Pls
2187 2318 Pls
2188 2331 Pls
2190 2344 Pls
2191 2357 Pls
2192 2369 Pls
2194 2380 Pls
2195 2391 Pls
2197 2402 Pls
2198 2412 Pls
2199 2422 Pls
2201 2431 Pls
2202 2440 Pls
2204 2448 Pls
2205 2456 Pls
2206 2463 Pls
2208 2470 Pls
2209 2477 Pls
2211 2483 Pls
2212 2489 Pls
2213 2494 Pls
2215 2499 Pls
2216 2504 Pls
2218 2508 Pls
2219 2511 Pls
2220 2514 Pls
2222 2517 Pls
2223 2520 Pls
2225 2522 Pls
2226 2523 Pls
2227 2525 Pls
2229 2526 Pls
2230 2526 Pls
2232 2526 Pls
2233 2526 Pls
2235 2526 Pls
2236 2525 Pls
2237 2524 Pls
2239 2522 Pls
2240 2521 Pls
2242 2519 Pls
2243 2516 Pls
2244 2514 Pls
2246 2511 Pls
2247 2508 Pls
2249 2504 Pls
2250 2500 Pls
2251 2496 Pls
2253 2492 Pls
2254 2488 Pls
2256 2483 Pls
2257 2478 Pls
2258 2473 Pls
2260 2468 Pls
2261 2463 Pls
2263 2457 Pls
2264 2451 Pls
2265 2445 Pls
2267 2439 Pls
2268 2433 Pls
2270 2426 Pls
2271 2420 Pls
2272 2413 Pls
2274 2406 Pls
2275 2399 Pls
2277 2392 Pls
2278 2385 Pls
2279 2378 Pls
2281 2371 Pls
2282 2363 Pls
2284 2356 Pls
2285 2348 Pls
2286 2341 Pls
2288 2333 Pls
2289 2325 Pls
2291 2318 Pls
2292 2310 Pls
2293 2302 Pls
2295 2294 Pls
2296 2286 Pls
2298 2279 Pls
2299 2271 Pls
2300 2263 Pls
2302 2255 Pls
2303 2247 Pls
2305 2239 Pls
2306 2232 Pls
2308 2224 Pls
2309 2216 Pls
2310 2208 Pls
2312 2201 Pls
2313 2193 Pls
2315 2185 Pls
2316 2178 Pls
2317 2170 Pls
2319 2163 Pls
2320 2156 Pls
2322 2148 Pls
2323 2141 Pls
2324 2134 Pls
2326 2126 Pls
2327 2119 Pls
2329 2112 Pls
2330 2105 Pls
2331 2099 Pls
2333 2092 Pls
2334 2085 Pls
2336 2078 Pls
2337 2072 Pls
2338 2065 Pls
2340 2059 Pls
2341 2052 Pls
2343 2046 Pls
2344 2040 Pls
2345 2034 Pls
2347 2028 Pls
2348 2022 Pls
2350 2016 Pls
2351 2010 Pls
2352 2005 Pls
2354 1999 Pls
2355 1994 Pls
2357 1988 Pls
2358 1983 Pls
2359 1978 Pls
2361 1972 Pls
2362 1967 Pls
2364 1962 Pls
2365 1957 Pls
2366 1952 Pls
2368 1947 Pls
2369 1943 Pls
2371 1938 Pls
2372 1933 Pls
2373 1929 Pls
2375 1924 Pls
2376 1920 Pls
2378 1916 Pls
2379 1911 Pls
2381 1907 Pls
2382 1903 Pls
2383 1899 Pls
2385 1895 Pls
2386 1891 Pls
2388 1887 Pls
2389 1883 Pls
2390 1879 Pls
2392 1875 Pls
2393 1871 Pls
2395 1868 Pls
2396 1864 Pls
2397 1860 Pls
2399 1856 Pls
2400 1853 Pls
2402 1849 Pls
2403 1845 Pls
2404 1842 Pls
2406 1838 Pls
2407 1835 Pls
2409 1831 Pls
2410 1827 Pls
2411 1824 Pls
2413 1820 Pls
2414 1817 Pls
2416 1813 Pls
2417 1809 Pls
2418 1806 Pls
2420 1802 Pls
2421 1798 Pls
2423 1795 Pls
2424 1791 Pls
2425 1787 Pls
2427 1783 Pls
2428 1779 Pls
2430 1775 Pls
2431 1771 Pls
2432 1767 Pls
2434 1763 Pls
2435 1759 Pls
2437 1755 Pls
2438 1751 Pls
2439 1746 Pls
2441 1742 Pls
2442 1738 Pls
2444 1733 Pls
2445 1728 Pls
2446 1724 Pls
2448 1719 Pls
2449 1714 Pls
2451 1709 Pls
2452 1704 Pls
2454 1699 Pls
2455 1694 Pls
2456 1689 Pls
2458 1683 Pls
2459 1678 Pls
2461 1672 Pls
2462 1667 Pls
2463 1661 Pls
2465 1655 Pls
2466 1649 Pls
2468 1643 Pls
2469 1636 Pls
2470 1630 Pls
2472 1624 Pls
2473 1617 Pls
2475 1610 Pls
2476 1604 Pls
2477 1597 Pls
2479 1590 Pls
2480 1582 Pls
2482 1575 Pls
2483 1568 Pls
2484 1560 Pls
2486 1552 Pls
2487 1545 Pls
2489 1537 Pls
2490 1529 Pls
2491 1520 Pls
2493 1512 Pls
2494 1504 Pls
2496 1495 Pls
2497 1487 Pls
2498 1478 Pls
2500 1469 Pls
2501 1460 Pls
2503 1451 Pls
2504 1442 Pls
2505 1432 Pls
2507 1423 Pls
2508 1413 Pls
2510 1403 Pls
2511 1394 Pls
2512 1384 Pls
2514 1374 Pls
2515 1363 Pls
2517 1353 Pls
2518 1343 Pls
2519 1332 Pls
2521 1322 Pls
2522 1311 Pls
2524 1301 Pls
2525 1290 Pls
2527 1279 Pls
2528 1268 Pls
2529 1257 Pls
2531 1246 Pls
2532 1234 Pls
2534 1223 Pls
2535 1212 Pls
2536 1200 Pls
2538 1189 Pls
2539 1177 Pls
2541 1166 Pls
2542 1154 Pls
2543 1142 Pls
2545 1131 Pls
2546 1119 Pls
2548 1107 Pls
2549 1095 Pls
2550 1083 Pls
2552 1071 Pls
2553 1059 Pls
2555 1047 Pls
2556 1035 Pls
2557 1023 Pls
2559 1011 Pls
2560 999 Pls
2562 987 Pls
2563 975 Pls
2564 963 Pls
2566 951 Pls
2567 939 Pls
2569 927 Pls
2570 915 Pls
2571 903 Pls
2573 892 Pls
2574 880 Pls
2576 868 Pls
2577 856 Pls
2578 844 Pls
2580 833 Pls
2581 821 Pls
2583 809 Pls
2584 798 Pls
2585 786 Pls
2587 775 Pls
2588 764 Pls
2590 752 Pls
2591 741 Pls
2592 730 Pls
2594 719 Pls
2595 708 Pls
2597 697 Pls
2598 686 Pls
2600 676 Pls
2601 665 Pls
2602 655 Pls
2604 644 Pls
2605 634 Pls
2607 624 Pls
2608 614 Pls
2609 604 Pls
2611 594 Pls
2612 584 Pls
2614 575 Pls
2615 565 Pls
2616 556 Pls
2618 547 Pls
2619 538 Pls
2621 529 Pls
2622 520 Pls
2623 511 Pls
2625 503 Pls
2626 494 Pls
2628 486 Pls
2629 478 Pls
2630 470 Pls
2632 462 Pls
2633 455 Pls
2635 447 Pls
2636 440 Pls
2637 432 Pls
2639 425 Pls
2640 418 Pls
2642 412 Pls
2643 405 Pls
2644 399 Pls
2646 392 Pls
2647 386 Pls
2649 380 Pls
2650 375 Pls
2651 369 Pls
2653 364 Pls
2654 358 Pls
2656 353 Pls
2657 348 Pls
2658 344 Pls
2660 339 Pls
2661 335 Pls
2663 330 Pls
2664 326 Pls
2665 322 Pls
2667 319 Pls
2668 315 Pls
2670 312 Pls
2671 309 Pls
2672 305 Pls
2674 303 Pls
2675 300 Pls
2677 297 Pls
2678 295 Pls
2680 293 Pls
2681 291 Pls
2682 289 Pls
2684 287 Pls
2685 286 Pls
2687 285 Pls
2688 284 Pls
2689 283 Pls
2691 282 Pls
2692 281 Pls
2694 281 Pls
2695 281 Pls
2696 280 Pls
2698 281 Pls
2699 281 Pls
2701 281 Pls
2702 282 Pls
2703 283 Pls
2705 283 Pls
2706 285 Pls
2708 286 Pls
2709 287 Pls
2710 289 Pls
2712 291 Pls
2713 292 Pls
2715 295 Pls
2716 297 Pls
2717 299 Pls
2719 302 Pls
2720 304 Pls
2722 307 Pls
2723 310 Pls
2724 313 Pls
2726 317 Pls
2727 320 Pls
2729 324 Pls
2730 327 Pls
2731 331 Pls
2733 335 Pls
2734 340 Pls
2736 344 Pls
2737 348 Pls
2738 353 Pls
2740 357 Pls
2741 362 Pls
2743 367 Pls
2744 372 Pls
2745 377 Pls
2747 383 Pls
2748 388 Pls
2750 394 Pls
2751 399 Pls
2753 405 Pls
2754 411 Pls
2755 417 Pls
2757 423 Pls
2758 429 Pls
2760 435 Pls
2761 441 Pls
2762 448 Pls
2764 454 Pls
2765 461 Pls
2767 467 Pls
2768 474 Pls
2769 481 Pls
2771 488 Pls
2772 494 Pls
2774 501 Pls
2775 508 Pls
2776 515 Pls
2778 522 Pls
2779 529 Pls
2781 537 Pls
2782 544 Pls
2783 551 Pls
2785 558 Pls
2786 565 Pls
2788 572 Pls
2789 580 Pls
2790 587 Pls
2792 594 Pls
2793 601 Pls
2795 609 Pls
2796 616 Pls
2797 623 Pls
2799 630 Pls
2800 637 Pls
2802 644 Pls
2803 651 Pls
2804 658 Pls
2806 665 Pls
2807 672 Pls
2809 679 Pls
2810 686 Pls
2811 693 Pls
2813 699 Pls
2814 706 Pls
2816 713 Pls
2817 719 Pls
2818 726 Pls
2820 732 Pls
2821 738 Pls
2823 744 Pls
2824 750 Pls
2826 756 Pls
2827 762 Pls
2828 768 Pls
2830 773 Pls
2831 779 Pls
2833 784 Pls
2834 790 Pls
2835 795 Pls
2837 800 Pls
2838 805 Pls
2840 810 Pls
2841 814 Pls
2842 819 Pls
2844 823 Pls
2845 827 Pls
2847 831 Pls
2848 835 Pls
2849 839 Pls
2851 843 Pls
2852 846 Pls
2854 850 Pls
2855 853 Pls
2856 856 Pls
2858 859 Pls
2859 862 Pls
2861 864 Pls
2862 867 Pls
2863 869 Pls
2865 871 Pls
2866 873 Pls
2868 875 Pls
2869 877 Pls
2870 879 Pls
2872 880 Pls
2873 881 Pls
2875 882 Pls
2876 883 Pls
2877 884 Pls
2879 885 Pls
2880 885 Pls
2882 886 Pls
2883 886 Pls
2884 886 Pls
2886 886 Pls
2887 886 Pls
2889 885 Pls
2890 885 Pls
2891 884 Pls
2893 883 Pls
2894 882 Pls
2896 881 Pls
2897 880 Pls
2899 879 Pls
2900 878 Pls
2901 876 Pls
2903 875 Pls
2904 873 Pls
2906 871 Pls
2907 869 Pls
2908 867 Pls
2910 865 Pls
2911 863 Pls
2913 860 Pls
2914 858 Pls
2915 855 Pls
2917 853 Pls
2918 850 Pls
2920 847 Pls
2921 844 Pls
2922 841 Pls
2924 838 Pls
2925 835 Pls
2927 832 Pls
2928 829 Pls
2929 826 Pls
2931 823 Pls
2932 819 Pls
2934 816 Pls
2935 813 Pls
2936 809 Pls
2938 806 Pls
2939 802 Pls
2941 799 Pls
2942 795 Pls
2943 792 Pls
2945 788 Pls
2946 784 Pls
2948 781 Pls
2949 777 Pls
2950 773 Pls
2952 770 Pls
2953 766 Pls
2955 762 Pls
2956 759 Pls
2957 755 Pls
2959 751 Pls
2960 748 Pls
2962 744 Pls
2963 740 Pls
2964 737 Pls
2966 733 Pls
2967 729 Pls
2969 726 Pls
2970 722 Pls
2972 718 Pls
2973 715 Pls
2974 711 Pls
2976 708 Pls
2977 704 Pls
2979 701 Pls
2980 697 Pls
2981 694 Pls
2983 691 Pls
2984 687 Pls
2986 684 Pls
2987 681 Pls
2988 677 Pls
2990 674 Pls
2991 671 Pls
2993 668 Pls
2994 664 Pls
2995 661 Pls
2997 658 Pls
2998 655 Pls
3000 652 Pls
3001 649 Pls
3002 646 Pls
3004 643 Pls
3005 640 Pls
3007 637 Pls
3008 634 Pls
3009 631 Pls
3011 628 Pls
3012 625 Pls
3014 622 Pls
3015 620 Pls
3016 617 Pls
3018 614 Pls
3019 611 Pls
3021 608 Pls
3022 606 Pls
3023 603 Pls
3025 600 Pls
3026 598 Pls
3028 595 Pls
3029 592 Pls
3030 589 Pls
3032 587 Pls
3033 584 Pls
3035 581 Pls
3036 579 Pls
3037 576 Pls
3039 574 Pls
3040 571 Pls
3042 568 Pls
3043 566 Pls
3044 563 Pls
3046 560 Pls
3047 558 Pls
3049 555 Pls
3050 553 Pls
3052 550 Pls
3053 547 Pls
3054 545 Pls
3056 542 Pls
3057 539 Pls
3059 537 Pls
3060 534 Pls
3061 532 Pls
3063 529 Pls
3064 526 Pls
3066 524 Pls
3067 521 Pls
3068 518 Pls
3070 516 Pls
3071 513 Pls
3073 510 Pls
3074 508 Pls
3075 505 Pls
3077 503 Pls
3078 500 Pls
3080 497 Pls
3081 495 Pls
3082 492 Pls
3084 490 Pls
3085 487 Pls
3087 484 Pls
3088 482 Pls
3089 479 Pls
3091 477 Pls
3092 474 Pls
3094 472 Pls
3095 469 Pls
3096 467 Pls
3098 464 Pls
3099 462 Pls
3101 460 Pls
3102 457 Pls
3103 455 Pls
3105 453 Pls
3106 450 Pls
3108 448 Pls
3109 446 Pls
3110 444 Pls
3112 441 Pls
3113 439 Pls
3115 437 Pls
3116 435 Pls
3117 433 Pls
3119 431 Pls
3120 429 Pls
3122 428 Pls
3123 426 Pls
3125 424 Pls
3126 422 Pls
3127 421 Pls
3129 419 Pls
3130 418 Pls
3132 416 Pls
3133 415 Pls
3134 414 Pls
3136 412 Pls
3137 411 Pls
3139 410 Pls
3140 409 Pls
3141 408 Pls
3143 407 Pls
3144 407 Pls
3146 406 Pls
3147 405 Pls
3148 405 Pls
3150 404 Pls
3151 404 Pls
3153 404 Pls
3154 403 Pls
3155 403 Pls
3157 403 Pls
3158 403 Pls
3160 404 Pls
3161 404 Pls
3162 404 Pls
3164 405 Pls
3165 405 Pls
3167 406 Pls
3168 407 Pls
3169 408 Pls
3171 409 Pls
3172 410 Pls
3174 411 Pls
3175 412 Pls
3176 413 Pls
3178 415 Pls
3179 417 Pls
3181 418 Pls
3182 420 Pls
3183 422 Pls
3185 424 Pls
3186 426 Pls
3188 429 Pls
3189 431 Pls
3190 434 Pls
3192 436 Pls
3193 439 Pls
3195 442 Pls
3196 445 Pls
3198 448 Pls
3199 451 Pls
3200 455 Pls
3202 458 Pls
3203 462 Pls
3205 466 Pls
3206 469 Pls
3207 473 Pls
3209 478 Pls
3210 482 Pls
3212 486 Pls
3213 491 Pls
3214 495 Pls
3216 500 Pls
3217 505 Pls
3219 510 Pls
3220 515 Pls
3221 521 Pls
3223 526 Pls
3224 532 Pls
3226 538 Pls
3227 544 Pls
3228 550 Pls
3230 556 Pls
3231 562 Pls
3233 569 Pls
3234 575 Pls
3235 582 Pls
3237 589 Pls
3238 596 Pls
3240 603 Pls
3241 611 Pls
3242 618 Pls
3244 626 Pls
3245 634 Pls
3247 642 Pls
3248 650 Pls
3249 658 Pls
3251 667 Pls
3252 675 Pls
3254 684 Pls
3255 693 Pls
3256 702 Pls
3258 711 Pls
3259 720 Pls
3261 730 Pls
3262 740 Pls
3263 749 Pls
3265 759 Pls
3266 770 Pls
3268 780 Pls
3269 790 Pls
3271 801 Pls
3272 812 Pls
3273 823 Pls
3275 834 Pls
3276 845 Pls
3278 856 Pls
3279 867 Pls
3280 879 Pls
3282 891 Pls
3283 903 Pls
3285 915 Pls
3286 927 Pls
3287 939 Pls
3289 951 Pls
3290 964 Pls
3292 976 Pls
3293 989 Pls
3294 1002 Pls
3296 1015 Pls
3297 1028 Pls
3299 1041 Pls
3300 1054 Pls
3301 1067 Pls
3303 1080 Pls
3304 1094 Pls
3306 1107 Pls
3307 1121 Pls
3308 1134 Pls
3310 1148 Pls
3311 1161 Pls
3313 1175 Pls
3314 1189 Pls
3315 1202 Pls
3317 1216 Pls
3318 1230 Pls
3320 1243 Pls
3321 1257 Pls
3322 1271 Pls
3324 1284 Pls
3325 1298 Pls
3327 1311 Pls
3328 1325 Pls
3329 1338 Pls
3331 1351 Pls
3332 1364 Pls
3334 1377 Pls
3335 1390 Pls
3336 1403 Pls
3338 1416 Pls
3339 1428 Pls
3341 1440 Pls
3342 1453 Pls
3344 1465 Pls
3345 1476 Pls
3346 1488 Pls
3348 1499 Pls
3349 1510 Pls
3351 1521 Pls
3352 1532 Pls
3353 1542 Pls
3355 1552 Pls
3356 1562 Pls
3358 1571 Pls
3359 1580 Pls
3360 1589 Pls
3362 1598 Pls
3363 1606 Pls
3365 1614 Pls
3366 1621 Pls
3367 1628 Pls
3369 1634 Pls
3370 1641 Pls
3372 1646 Pls
3373 1652 Pls
3374 1657 Pls
3376 1661 Pls
3377 1665 Pls
3379 1669 Pls
3380 1672 Pls
3381 1674 Pls
3383 1676 Pls
3384 1678 Pls
3386 1679 Pls
3387 1680 Pls
3388 1680 Pls
3390 1679 Pls
3391 1678 Pls
3393 1677 Pls
3394 1675 Pls
3395 1672 Pls
3397 1669 Pls
3398 1665 Pls
3400 1661 Pls
3401 1656 Pls
3402 1650 Pls
3404 1644 Pls
3405 1637 Pls
3407 1630 Pls
3408 1623 Pls
3409 1614 Pls
3411 1605 Pls
3412 1596 Pls
3414 1586 Pls
3415 1575 Pls
3416 1564 Pls
3418 1552 Pls
3419 1540 Pls
3421 1527 Pls
3422 1514 Pls
3424 1500 Pls
3425 1486 Pls
3426 1471 Pls
3428 1455 Pls
3429 1440 Pls
3431 1423 Pls
3432 1406 Pls
3433 1389 Pls
3435 1371 Pls
3436 1353 Pls
3438 1335 Pls
3439 1316 Pls
3440 1296 Pls
3442 1277 Pls
3443 1256 Pls
3445 1236 Pls
3446 1215 Pls
3447 1194 Pls
3449 1173 Pls
3450 1151 Pls
3452 1130 Pls
3453 1107 Pls
3454 1085 Pls
3456 1063 Pls
3457 1040 Pls
3459 1018 Pls
3460 995 Pls
3461 972 Pls
3463 949 Pls
3464 926 Pls
3466 903 Pls
3467 880 Pls
3468 857 Pls
3470 834 Pls
3471 811 Pls
3473 789 Pls
3474 766 Pls
3475 744 Pls
3477 722 Pls
3478 700 Pls
3480 678 Pls
3481 657 Pls
3482 636 Pls
3484 615 Pls
3485 595 Pls
3487 575 Pls
3488 555 Pls
3489 536 Pls
3491 518 Pls
3492 500 Pls
3494 482 Pls
3495 465 Pls
3497 449 Pls
3498 433 Pls
3499 418 Pls
3501 403 Pls
3502 389 Pls
3504 376 Pls
3505 364 Pls
3506 352 Pls
3508 341 Pls
3509 331 Pls
3511 322 Pls
3512 314 Pls
3513 306 Pls
3515 300 Pls
3516 294 Pls
3518 289 Pls
3519 286 Pls
3520 283 Pls
3522 281 Pls
3523 280 Pls
3525 280 Pls
3526 281 Pls
3527 284 Pls
3529 287 Pls
3530 291 Pls
3532 297 Pls
3533 303 Pls
3534 311 Pls
3536 320 Pls
3537 329 Pls
3539 340 Pls
3540 352 Pls
3541 366 Pls
3543 380 Pls
3544 395 Pls
3546 412 Pls
3547 429 Pls
3548 448 Pls
3550 468 Pls
3551 489 Pls
3553 511 Pls
3554 534 Pls
3555 559 Pls
3557 584 Pls
3558 610 Pls
3560 638 Pls
3561 667 Pls
3562 696 Pls
3564 727 Pls
3565 758 Pls
3567 791 Pls
3568 825 Pls
3570 859 Pls
3571 895 Pls
3572 931 Pls
3574 968 Pls
3575 1007 Pls
3577 1046 Pls
3578 1085 Pls
3579 1126 Pls
3581 1168 Pls
3582 1210 Pls
3584 1253 Pls
3585 1296 Pls
3586 1340 Pls
3588 1385 Pls
3589 1431 Pls
3591 1477 Pls
3592 1523 Pls
3593 1571 Pls
3595 1618 Pls
3596 1666 Pls
3598 1714 Pls
3599 1763 Pls
3600 1812 Pls
3602 1862 Pls
3603 1911 Pls
3605 1961 Pls
3606 2011 Pls
3607 2061 Pls
3609 2112 Pls
3610 2162 Pls
3612 2213 Pls
3613 2263 Pls
3614 2313 Pls
3616 2364 Pls
3617 2414 Pls
3619 2464 Pls
3620 2514 Pls
3621 2563 Pls
3623 2612 Pls
3624 2661 Pls
3626 2710 Pls
3627 2758 Pls
3628 2806 Pls
3630 2853 Pls
3631 2900 Pls
3633 2947 Pls
3634 2993 Pls
3635 3038 Pls
3637 3082 Pls
3638 3126 Pls
3640 3169 Pls
3641 3212 Pls
3643 3254 Pls
3644 3294 Pls
3645 3335 Pls
3647 3374 Pls
3648 3412 Pls
3650 3450 Pls
3651 3486 Pls
3652 3522 Pls
3654 3556 Pls
3655 3590 Pls
3657 3622 Pls
3658 3654 Pls
3659 3684 Pls
3661 3713 Pls
3662 3741 Pls
3664 3768 Pls
3665 3794 Pls
3666 3819 Pls
3668 3842 Pls
3669 3864 Pls
3671 3885 Pls
3672 3905 Pls
3673 3924 Pls
3675 3941 Pls
3676 3957 Pls
3678 3972 Pls
3679 3985 Pls
3680 3998 Pls
3682 4008 Pls
3683 4018 Pls
3685 4027 Pls
3686 4034 Pls
3687 4039 Pls
3689 4044 Pls
3690 4047 Pls
3692 4049 Pls
3693 4050 Pls
3694 4049 Pls
3696 4047 Pls
3697 4044 Pls
3699 4040 Pls
3700 4034 Pls
3701 4027 Pls
3703 4019 Pls
3704 4010 Pls
3706 4000 Pls
3707 3988 Pls
3708 3976 Pls
3710 3962 Pls
3711 3947 Pls
3713 3931 Pls
3714 3914 Pls
3716 3895 Pls
3717 3876 Pls
3718 3856 Pls
3720 3835 Pls
3721 3812 Pls
3723 3789 Pls
3724 3765 Pls
3725 3740 Pls
3727 3714 Pls
3728 3688 Pls
3730 3660 Pls
3731 3632 Pls
3732 3603 Pls
3734 3573 Pls
3735 3542 Pls
3737 3511 Pls
3738 3479 Pls
3739 3447 Pls
3741 3413 Pls
3742 3380 Pls
3744 3345 Pls
3745 3311 Pls
3746 3275 Pls
3748 3240 Pls
3749 3204 Pls
3751 3167 Pls
3752 3130 Pls
3753 3093 Pls
3755 3055 Pls
3756 3018 Pls
3758 2980 Pls
3759 2941 Pls
3760 2903 Pls
3762 2864 Pls
3763 2825 Pls
3765 2786 Pls
3766 2747 Pls
3767 2708 Pls
3769 2669 Pls
3770 2630 Pls
3772 2591 Pls
3773 2552 Pls
3774 2513 Pls
3776 2474 Pls
3777 2435 Pls
3779 2397 Pls
3780 2358 Pls
3781 2320 Pls
3783 2282 Pls
3784 2244 Pls
3786 2207 Pls
3787 2169 Pls
3789 2132 Pls
3790 2095 Pls
3791 2059 Pls
3793 2023 Pls
3794 1987 Pls
3796 1951 Pls
3797 1916 Pls
3798 1882 Pls
3800 1847 Pls
3801 1814 Pls
3803 1780 Pls
3804 1747 Pls
3805 1715 Pls
3807 1683 Pls
3808 1651 Pls
3810 1620 Pls
3811 1589 Pls
3812 1559 Pls
3814 1529 Pls
3815 1500 Pls
3817 1471 Pls
3818 1443 Pls
3819 1416 Pls
3821 1389 Pls
3822 1362 Pls
3824 1336 Pls
3825 1310 Pls
3826 1285 Pls
3828 1261 Pls
3829 1237 Pls
3831 1214 Pls
3832 1191 Pls
3833 1168 Pls
3835 1146 Pls
3836 1125 Pls
3838 1104 Pls
3839 1084 Pls
3840 1064 Pls
3842 1045 Pls
3843 1026 Pls
3845 1008 Pls
3846 990 Pls
3847 972 Pls
3849 956 Pls
3850 939 Pls
3852 923 Pls
3853 908 Pls
3854 893 Pls
3856 878 Pls
3857 864 Pls
3859 850 Pls
3860 837 Pls
3861 824 Pls
3863 812 Pls
3864 800 Pls
3866 788 Pls
3867 777 Pls
3869 766 Pls
3870 755 Pls
3871 745 Pls
3873 735 Pls
3874 726 Pls
3876 717 Pls
3877 708 Pls
3878 700 Pls
3880 691 Pls
3881 684 Pls
3883 676 Pls
3884 669 Pls
3885 662 Pls
3887 655 Pls
3888 649 Pls
3890 643 Pls
3891 637 Pls
3892 632 Pls
3894 626 Pls
3895 621 Pls
3897 617 Pls
3898 612 Pls
3899 608 Pls
3901 604 Pls
3902 600 Pls
3904 596 Pls
3905 593 Pls
3906 590 Pls
3908 587 Pls
3909 584 Pls
3911 582 Pls
3912 579 Pls
3913 577 Pls
3915 575 Pls
3916 574 Pls
3918 572 Pls
3919 571 Pls
3920 570 Pls
3922 569 Pls
3923 568 Pls
3925 567 Pls
3926 567 Pls
3927 567 Pls
3929 567 Pls
3930 567 Pls
3932 567 Pls
3933 568 Pls
3934 569 Pls
3936 570 Pls
3937 571 Pls
3939 572 Pls
3940 573 Pls
3942 575 Pls
3943 577 Pls
3944 579 Pls
3946 581 Pls
3947 584 Pls
3949 586 Pls
3950 589 Pls
3951 592 Pls
3953 595 Pls
3954 598 Pls
3956 602 Pls
3957 606 Pls
3958 610 Pls
3960 614 Pls
3961 618 Pls
3963 622 Pls
3964 627 Pls
3965 632 Pls
3967 637 Pls
3968 642 Pls
3970 647 Pls
3971 653 Pls
3972 658 Pls
3974 664 Pls
3975 670 Pls
3977 676 Pls
3978 683 Pls
3979 689 Pls
3981 696 Pls
3982 703 Pls
3984 709 Pls
3985 717 Pls
3986 724 Pls
3988 731 Pls
3989 738 Pls
3991 746 Pls
3992 754 Pls
3993 762 Pls
3995 769 Pls
3996 777 Pls
3998 786 Pls
3999 794 Pls
4000 802 Pls
4002 810 Pls
4003 819 Pls
4005 827 Pls
4006 836 Pls
4007 844 Pls
4009 853 Pls
4010 861 Pls
4012 870 Pls
4013 878 Pls
4015 887 Pls
4016 896 Pls
4017 904 Pls
4019 913 Pls
4020 921 Pls
4022 929 Pls
4023 938 Pls
4024 946 Pls
4026 954 Pls
4027 963 Pls
4029 971 Pls
4030 978 Pls
4031 986 Pls
4033 994 Pls
4034 1001 Pls
4036 1009 Pls
4037 1016 Pls
4038 1023 Pls
4040 1030 Pls
4041 1037 Pls
4043 1043 Pls
4044 1050 Pls
4045 1056 Pls
4047 1062 Pls
4048 1067 Pls
4050 1073 Pls
4051 1078 Pls
4052 1083 Pls
4054 1087 Pls
4055 1092 Pls
4057 1096 Pls
4058 1100 Pls
4059 1103 Pls
4061 1107 Pls
4062 1109 Pls
4064 1112 Pls
4065 1114 Pls
4066 1116 Pls
4068 1118 Pls
4069 1120 Pls
4071 1121 Pls
4072 1121 Pls
4073 1122 Pls
4075 1122 Pls
4076 1122 Pls
4078 1121 Pls
4079 1120 Pls
4080 1119 Pls
4082 1117 Pls
4083 1115 Pls
4085 1113 Pls
4086 1110 Pls
4088 1107 Pls
4089 1104 Pls
4090 1100 Pls
4092 1096 Pls
4093 1092 Pls
4095 1088 Pls
4096 1083 Pls
4097 1078 Pls
4099 1072 Pls
4100 1066 Pls
4102 1060 Pls
4103 1054 Pls
4104 1047 Pls
4106 1040 Pls
4107 1033 Pls
4109 1026 Pls
4110 1018 Pls
4111 1010 Pls
4113 1002 Pls
4114 994 Pls
4116 986 Pls
4117 977 Pls
4118 968 Pls
4120 959 Pls
4121 950 Pls
4123 940 Pls
4124 931 Pls
4125 921 Pls
4127 912 Pls
4128 902 Pls
4130 892 Pls
4131 882 Pls
4132 872 Pls
4134 862 Pls
4135 852 Pls
4137 842 Pls
4138 832 Pls
4139 822 Pls
4141 811 Pls
4142 801 Pls
4144 791 Pls
4145 781 Pls
4146 771 Pls
4148 762 Pls
4149 752 Pls
4151 742 Pls
4152 733 Pls
4153 723 Pls
4155 714 Pls
4156 705 Pls
4158 696 Pls
4159 687 Pls
4161 679 Pls
4162 670 Pls
4163 662 Pls
4165 654 Pls
4166 646 Pls
4168 639 Pls
4169 631 Pls
4170 624 Pls
4172 617 Pls
4173 611 Pls
4175 605 Pls
4176 599 Pls
4177 593 Pls
4179 587 Pls
4180 582 Pls
4182 577 Pls
4183 573 Pls
4184 568 Pls
4186 564 Pls
4187 561 Pls
4189 557 Pls
4190 554 Pls
4191 551 Pls
4193 549 Pls
4194 547 Pls
4196 545 Pls
4197 543 Pls
4198 542 Pls
4200 541 Pls
4201 540 Pls
4203 540 Pls
4204 539 Pls
4205 539 Pls
4207 540 Pls
4208 540 Pls
4210 541 Pls
4211 542 Pls
4212 544 Pls
4214 545 Pls
4215 547 Pls
4217 549 Pls
4218 552 Pls
4219 554 Pls
4221 557 Pls
4222 559 Pls
4224 562 Pls
4225 566 Pls
4226 569 Pls
4228 572 Pls
4229 576 Pls
4231 580 Pls
4232 583 Pls
4233 587 Pls
4235 591 Pls
4236 595 Pls
4238 599 Pls
4239 603 Pls
4241 608 Pls
4242 612 Pls
4243 616 Pls
4245 620 Pls
4246 624 Pls
4248 628 Pls
4249 632 Pls
4250 636 Pls
4252 640 Pls
4253 644 Pls
4255 648 Pls
4256 651 Pls
4257 655 Pls
4259 658 Pls
4260 661 Pls
4262 664 Pls
4263 667 Pls
4264 670 Pls
4266 673 Pls
4267 675 Pls
4269 677 Pls
4270 679 Pls
4271 681 Pls
4273 683 Pls
4274 684 Pls
4276 685 Pls
4277 686 Pls
4278 687 Pls
4280 687 Pls
4281 687 Pls
4283 687 Pls
4284 686 Pls
4285 686 Pls
4287 685 Pls
4288 683 Pls
4290 682 Pls
4291 680 Pls
4292 678 Pls
4294 676 Pls
4295 673 Pls
4297 670 Pls
4298 667 Pls
4299 664 Pls
4301 660 Pls
4302 656 Pls
4304 652 Pls
4305 648 Pls
4306 643 Pls
4308 638 Pls
4309 633 Pls
4311 628 Pls
4312 622 Pls
4314 616 Pls
4315 610 Pls
4316 604 Pls
4318 598 Pls
4319 591 Pls
4321 585 Pls
4322 578 Pls
4323 571 Pls
4325 564 Pls
4326 556 Pls
4328 549 Pls
4329 542 Pls
4330 534 Pls
4332 527 Pls
4333 519 Pls
4335 511 Pls
4336 504 Pls
4337 496 Pls
4339 488 Pls
4340 481 Pls
4342 473 Pls
4343 465 Pls
4344 458 Pls
4346 450 Pls
4347 443 Pls
4349 436 Pls
4350 428 Pls
4351 421 Pls
4353 414 Pls
4354 408 Pls
4356 401 Pls
4357 395 Pls
4358 388 Pls
4360 382 Pls
4361 376 Pls
4363 371 Pls
4364 365 Pls
4365 360 Pls
4367 356 Pls
4368 351 Pls
4370 347 Pls
4371 343 Pls
4372 339 Pls
4374 336 Pls
4375 333 Pls
4377 330 Pls
4378 327 Pls
4379 325 Pls
4381 324 Pls
4382 322 Pls
4384 321 Pls
4385 321 Pls
4387 320 Pls
4388 320 Pls
4389 321 Pls
4391 322 Pls
4392 323 Pls
4394 325 Pls
4395 326 Pls
4396 329 Pls
4398 332 Pls
4399 335 Pls
4401 338 Pls
4402 342 Pls
4403 346 Pls
4405 350 Pls
4406 355 Pls
4408 361 Pls
4409 366 Pls
4410 372 Pls
4412 378 Pls
4413 385 Pls
4415 391 Pls
4416 399 Pls
4417 406 Pls
4419 414 Pls
4420 422 Pls
4422 430 Pls
4423 438 Pls
4424 447 Pls
4426 456 Pls
4427 465 Pls
4429 474 Pls
4430 484 Pls
4431 493 Pls
4433 503 Pls
4434 513 Pls
4436 523 Pls
4437 533 Pls
4438 543 Pls
4440 554 Pls
4441 564 Pls
4443 574 Pls
4444 585 Pls
4445 595 Pls
4447 605 Pls
4448 616 Pls
4450 626 Pls
4451 636 Pls
4452 647 Pls
4454 657 Pls
4455 667 Pls
4457 676 Pls
4458 686 Pls
4460 696 Pls
4461 705 Pls
4462 714 Pls
4464 723 Pls
4465 732 Pls
4467 741 Pls
4468 749 Pls
4469 757 Pls
4471 765 Pls
4472 772 Pls
4474 779 Pls
4475 786 Pls
4476 793 Pls
4478 799 Pls
4479 805 Pls
4481 810 Pls
4482 816 Pls
4483 821 Pls
4485 825 Pls
4486 829 Pls
4488 833 Pls
4489 836 Pls
4490 839 Pls
4492 841 Pls
4493 843 Pls
4495 845 Pls
4496 846 Pls
4497 847 Pls
4499 848 Pls
4500 848 Pls
4502 847 Pls
4503 847 Pls
4504 845 Pls
4506 844 Pls
4507 842 Pls
4509 839 Pls
4510 837 Pls
4511 833 Pls
4513 830 Pls
4514 826 Pls
4516 821 Pls
4517 817 Pls
4518 812 Pls
4520 806 Pls
4521 801 Pls
4523 795 Pls
4524 788 Pls
4525 782 Pls
4527 775 Pls
4528 768 Pls
4530 760 Pls
4531 753 Pls
4533 745 Pls
4534 737 Pls
4535 728 Pls
4537 720 Pls
4538 711 Pls
4540 703 Pls
4541 694 Pls
4542 685 Pls
4544 676 Pls
4545 667 Pls
4547 657 Pls
4548 648 Pls
4549 639 Pls
4551 630 Pls
4552 620 Pls
4554 611 Pls
4555 602 Pls
4556 593 Pls
4558 584 Pls
4559 575 Pls
4561 567 Pls
4562 558 Pls
4563 550 Pls
4565 541 Pls
4566 533 Pls
4568 526 Pls
4569 518 Pls
4570 511 Pls
4572 504 Pls
4573 497 Pls
4575 491 Pls
4576 485 Pls
4577 479 Pls
4579 474 Pls
4580 469 Pls
4582 465 Pls
4583 461 Pls
4584 457 Pls
4586 454 Pls
4587 451 Pls
4589 449 Pls
4590 447 Pls
4591 445 Pls
4593 445 Pls
4594 444 Pls
4596 444 Pls
4597 445 Pls
4598 446 Pls
4600 448 Pls
4601 450 Pls
4603 453 Pls
4604 456 Pls
4605 460 Pls
4607 464 Pls
4608 469 Pls
4610 475 Pls
4611 481 Pls
4613 488 Pls
4614 495 Pls
4615 503 Pls
4617 511 Pls
4618 520 Pls
4620 529 Pls
4621 539 Pls
4622 549 Pls
4624 560 Pls
4625 572 Pls
4627 584 Pls
4628 597 Pls
4629 610 Pls
4631 623 Pls
4632 637 Pls
4634 652 Pls
4635 666 Pls
4636 682 Pls
4638 698 Pls
4639 714 Pls
4641 730 Pls
4642 747 Pls
4643 765 Pls
4645 782 Pls
4646 800 Pls
4648 819 Pls
4649 837 Pls
4650 856 Pls
4652 875 Pls
4653 895 Pls
4655 915 Pls
4656 935 Pls
4657 955 Pls
4659 975 Pls
4660 995 Pls
4662 1016 Pls
4663 1036 Pls
4664 1057 Pls
4666 1078 Pls
4667 1099 Pls
4669 1120 Pls
4670 1141 Pls
4671 1161 Pls
4673 1182 Pls
4674 1203 Pls
4676 1224 Pls
4677 1244 Pls
4678 1265 Pls
4680 1285 Pls
4681 1305 Pls
4683 1325 Pls
4684 1345 Pls
4686 1364 Pls
4687 1384 Pls
4688 1403 Pls
4690 1422 Pls
4691 1440 Pls
4693 1458 Pls
4694 1476 Pls
4695 1493 Pls
4697 1510 Pls
4698 1527 Pls
4700 1543 Pls
4701 1559 Pls
4702 1574 Pls
4704 1589 Pls
4705 1604 Pls
4707 1618 Pls
4708 1631 Pls
4709 1644 Pls
4711 1656 Pls
4712 1668 Pls
4714 1679 Pls
4715 1690 Pls
4716 1700 Pls
4718 1710 Pls
4719 1719 Pls
4721 1727 Pls
4722 1735 Pls
4723 1742 Pls
4725 1748 Pls
4726 1754 Pls
4728 1759 Pls
4729 1763 Pls
4730 1767 Pls
4732 1770 Pls
4733 1773 Pls
4735 1775 Pls
4736 1776 Pls
4737 1776 Pls
4739 1776 Pls
4740 1775 Pls
4742 1774 Pls
4743 1772 Pls
4744 1769 Pls
4746 1765 Pls
4747 1761 Pls
4749 1756 Pls
4750 1750 Pls
4751 1744 Pls
4753 1737 Pls
4754 1730 Pls
4756 1722 Pls
4757 1713 Pls
4759 1704 Pls
4760 1694 Pls
4761 1683 Pls
4763 1672 Pls
4764 1660 Pls
4766 1648 Pls
4767 1635 Pls
4768 1621 Pls
4770 1607 Pls
4771 1593 Pls
4773 1578 Pls
4774 1562 Pls
4775 1546 Pls
4777 1530 Pls
4778 1513 Pls
4780 1495 Pls
4781 1478 Pls
4782 1459 Pls
4784 1441 Pls
4785 1422 Pls
4787 1402 Pls
4788 1383 Pls
4789 1363 Pls
4791 1342 Pls
4792 1322 Pls
4794 1301 Pls
4795 1280 Pls
4796 1258 Pls
4798 1237 Pls
4799 1215 Pls
4801 1193 Pls
4802 1171 Pls
4803 1149 Pls
4805 1126 Pls
4806 1104 Pls
4808 1082 Pls
4809 1059 Pls
4810 1037 Pls
4812 1014 Pls
4813 992 Pls
4815 969 Pls
4816 947 Pls
4817 924 Pls
4819 902 Pls
4820 880 Pls
4822 858 Pls
4823 836 Pls
4824 815 Pls
4826 793 Pls
4827 772 Pls
4829 752 Pls
4830 731 Pls
4832 711 Pls
4833 691 Pls
4834 671 Pls
4836 652 Pls
4837 633 Pls
4839 614 Pls
4840 596 Pls
4841 579 Pls
4843 562 Pls
4844 545 Pls
4846 529 Pls
4847 513 Pls
4848 498 Pls
4850 483 Pls
4851 469 Pls
4853 456 Pls
4854 443 Pls
4855 431 Pls
4857 420 Pls
4858 409 Pls
4860 399 Pls
4861 389 Pls
4862 380 Pls
4864 372 Pls
4865 365 Pls
4867 358 Pls
4868 352 Pls
4869 347 Pls
4871 343 Pls
4872 339 Pls
4874 337 Pls
4875 335 Pls
4876 333 Pls
4878 333 Pls
4879 334 Pls
4881 335 Pls
4882 337 Pls
4883 340 Pls
4885 344 Pls
4886 349 Pls
4888 354 Pls
4889 361 Pls
4890 368 Pls
4892 376 Pls
4893 385 Pls
4895 395 Pls
4896 406 Pls
4897 418 Pls
4899 430 Pls
4900 443 Pls
4902 457 Pls
4903 472 Pls
4905 488 Pls
4906 505 Pls
4907 522 Pls
4909 540 Pls
4910 559 Pls
4912 579 Pls
4913 599 Pls
4914 621 Pls
4916 643 Pls
4917 665 Pls
4919 689 Pls
4920 713 Pls
4921 738 Pls
4923 763 Pls
4924 789 Pls
4926 816 Pls
4927 843 Pls
4928 871 Pls
4930 899 Pls
4931 928 Pls
4933 958 Pls
4934 988 Pls
4935 1018 Pls
4937 1049 Pls
4938 1080 Pls
4940 1111 Pls
4941 1143 Pls
4942 1176 Pls
4944 1208 Pls
4945 1241 Pls
4947 1274 Pls
4948 1307 Pls
4949 1340 Pls
4951 1373 Pls
4952 1407 Pls
4954 1441 Pls
4955 1474 Pls
4956 1508 Pls
4958 1541 Pls
4959 1575 Pls
4961 1608 Pls
4962 1641 Pls
4963 1675 Pls
4965 1707 Pls
4966 1740 Pls
4968 1772 Pls
4969 1804 Pls
4970 1836 Pls
4972 1867 Pls
4973 1898 Pls
4975 1929 Pls
4976 1959 Pls
4977 1988 Pls
4979 2017 Pls
4980 2045 Pls
4982 2073 Pls
4983 2100 Pls
4985 2126 Pls
4986 2152 Pls
4987 2177 Pls
4989 2201 Pls
4990 2224 Pls
4992 2247 Pls
4993 2268 Pls
4994 2289 Pls
4996 2309 Pls
4997 2328 Pls
4999 2346 Pls
5000 2363 Pls
5001 2379 Pls
5003 2394 Pls
5004 2407 Pls
5006 2420 Pls
5007 2432 Pls
5008 2443 Pls
5010 2452 Pls
5011 2461 Pls
5013 2468 Pls
5014 2474 Pls
5015 2479 Pls
5017 2483 Pls
5018 2485 Pls
5020 2487 Pls
5021 2487 Pls
5022 2486 Pls
5024 2484 Pls
5025 2480 Pls
5027 2476 Pls
5028 2470 Pls
5029 2463 Pls
5031 2455 Pls
5032 2445 Pls
5034 2435 Pls
5035 2423 Pls
5036 2410 Pls
5038 2396 Pls
5039 2381 Pls
5041 2365 Pls
5042 2348 Pls
5043 2329 Pls
5045 2310 Pls
5046 2289 Pls
5048 2268 Pls
5049 2246 Pls
5050 2222 Pls
5052 2198 Pls
5053 2173 Pls
5055 2147 Pls
5056 2120 Pls
5058 2092 Pls
5059 2064 Pls
5060 2034 Pls
5062 2004 Pls
5063 1974 Pls
5065 1943 Pls
5066 1911 Pls
5067 1878 Pls
5069 1846 Pls
5070 1812 Pls
5072 1778 Pls
5073 1744 Pls
5074 1710 Pls
5076 1675 Pls
5077 1640 Pls
5079 1605 Pls
5080 1569 Pls
5081 1534 Pls
5083 1498 Pls
5084 1463 Pls
5086 1427 Pls
5087 1391 Pls
5088 1356 Pls
5090 1321 Pls
5091 1286 Pls
5093 1251 Pls
5094 1216 Pls
5095 1182 Pls
5097 1148 Pls
5098 1115 Pls
5100 1082 Pls
5101 1050 Pls
5102 1018 Pls
5104 987 Pls
5105 957 Pls
5107 927 Pls
5108 898 Pls
5109 870 Pls
5111 842 Pls
5112 815 Pls
5114 790 Pls
5115 765 Pls
5116 741 Pls
5118 718 Pls
5119 696 Pls
5121 676 Pls
5122 656 Pls
5123 637 Pls
5125 620 Pls
5126 603 Pls
5128 588 Pls
5129 574 Pls
5131 561 Pls
5132 550 Pls
5133 540 Pls
5135 531 Pls
5136 523 Pls
5138 516 Pls
5139 511 Pls
5140 507 Pls
5142 505 Pls
5143 503 Pls
5145 503 Pls
5146 505 Pls
5147 507 Pls
5149 511 Pls
5150 517 Pls
5152 523 Pls
5153 531 Pls
5154 540 Pls
5156 550 Pls
5157 562 Pls
5159 574 Pls
5160 588 Pls
5161 603 Pls
5163 619 Pls
5164 637 Pls
5166 655 Pls
5167 675 Pls
5168 695 Pls
5170 717 Pls
5171 739 Pls
5173 763 Pls
5174 787 Pls
5175 812 Pls
5177 838 Pls
5178 865 Pls
5180 893 Pls
5181 921 Pls
5182 950 Pls
5184 980 Pls
5185 1010 Pls
5187 1040 Pls
5188 1072 Pls
5189 1103 Pls
5191 1135 Pls
5192 1168 Pls
5194 1200 Pls
5195 1233 Pls
5196 1266 Pls
5198 1299 Pls
5199 1333 Pls
5201 1366 Pls
5202 1399 Pls
5204 1433 Pls
5205 1466 Pls
5206 1499 Pls
5208 1532 Pls
5209 1564 Pls
5211 1596 Pls
5212 1628 Pls
5213 1660 Pls
5215 1691 Pls
5216 1721 Pls
5218 1751 Pls
5219 1781 Pls
5220 1809 Pls
5222 1838 Pls
5223 1865 Pls
5225 1892 Pls
5226 1917 Pls
5227 1942 Pls
5229 1967 Pls
5230 1990 Pls
5232 2012 Pls
5233 2033 Pls
5234 2054 Pls
5236 2073 Pls
5237 2091 Pls
5239 2108 Pls
5240 2124 Pls
5241 2139 Pls
5243 2153 Pls
5244 2165 Pls
5246 2176 Pls
5247 2186 Pls
5248 2195 Pls
5250 2203 Pls
5251 2209 Pls
5253 2214 Pls
5254 2218 Pls
5255 2221 Pls
5257 2222 Pls
5258 2222 Pls
5260 2221 Pls
5261 2218 Pls
5262 2214 Pls
5264 2209 Pls
5265 2203 Pls
5267 2195 Pls
5268 2186 Pls
5269 2176 Pls
5271 2165 Pls
5272 2152 Pls
5274 2139 Pls
5275 2124 Pls
5277 2108 Pls
5278 2091 Pls
5279 2073 Pls
5281 2054 Pls
5282 2034 Pls
5284 2013 Pls
5285 1990 Pls
5286 1967 Pls
5288 1944 Pls
5289 1919 Pls
5291 1893 Pls
5292 1867 Pls
5293 1840 Pls
5295 1812 Pls
5296 1783 Pls
5298 1754 Pls
5299 1724 Pls
5300 1694 Pls
5302 1663 Pls
5303 1632 Pls
5305 1600 Pls
5306 1568 Pls
5307 1536 Pls
5309 1503 Pls
5310 1470 Pls
5312 1437 Pls
5313 1404 Pls
5314 1371 Pls
5316 1337 Pls
5317 1304 Pls
5319 1270 Pls
5320 1237 Pls
5321 1204 Pls
5323 1170 Pls
5324 1137 Pls
5326 1105 Pls
5327 1072 Pls
5328 1040 Pls
5330 1008 Pls
5331 977 Pls
5333 946 Pls
5334 915 Pls
5335 885 Pls
5337 855 Pls
5338 826 Pls
5340 798 Pls
5341 770 Pls
5342 742 Pls
5344 716 Pls
5345 690 Pls
5347 665 Pls
5348 640 Pls
5350 616 Pls
5351 593 Pls
5352 571 Pls
5354 549 Pls
5355 529 Pls
5357 509 Pls
5358 490 Pls
5359 472 Pls
5361 454 Pls
5362 438 Pls
5364 422 Pls
5365 407 Pls
5366 393 Pls
5368 380 Pls
5369 368 Pls
5371 357 Pls
5372 346 Pls
5373 336 Pls
5375 328 Pls
5376 320 Pls
5378 312 Pls
5379 306 Pls
5380 300 Pls
5382 295 Pls
5383 291 Pls
5385 287 Pls
5386 285 Pls
5387 282 Pls
5389 281 Pls
5390 280 Pls
5392 280 Pls
5393 280 Pls
5394 281 Pls
5396 283 Pls
5397 285 Pls
5399 287 Pls
5400 290 Pls
5401 294 Pls
5403 298 Pls
5404 302 Pls
5406 306 Pls
5407 311 Pls
5408 316 Pls
5410 321 Pls
5411 327 Pls
5413 333 Pls
5414 339 Pls
5415 345 Pls
5417 351 Pls
5418 357 Pls
5420 363 Pls
5421 369 Pls
5422 376 Pls
5424 382 Pls
5425 388 Pls
5427 394 Pls
5428 400 Pls
5430 406 Pls
5431 411 Pls
5432 416 Pls
5434 422 Pls
5435 427 Pls
5437 431 Pls
5438 436 Pls
5439 440 Pls
5441 443 Pls
5442 447 Pls
5444 450 Pls
5445 453 Pls
5446 455 Pls
5448 457 Pls
5449 459 Pls
5451 460 Pls
5452 461 Pls
5453 461 Pls
5455 461 Pls
5456 461 Pls
5458 460 Pls
5459 459 Pls
5460 458 Pls
5462 456 Pls
5463 454 Pls
5465 451 Pls
5466 448 Pls
5467 445 Pls
5469 441 Pls
5470 437 Pls
5472 433 Pls
5473 428 Pls
5474 423 Pls
5476 418 Pls
5477 413 Pls
5479 408 Pls
5480 402 Pls
5481 396 Pls
5483 390 Pls
5484 384 Pls
5486 378 Pls
5487 372 Pls
5488 366 Pls
5490 359 Pls
5491 353 Pls
5493 347 Pls
5494 341 Pls
5495 336 Pls
5497 330 Pls
5498 325 Pls
5500 320 Pls
5501 315 Pls
5503 311 Pls
5504 307 Pls
5505 303 Pls
5507 300 Pls
5508 297 Pls
5510 295 Pls
5511 294 Pls
5512 293 Pls
5514 292 Pls
5515 293 Pls
5517 294 Pls
5518 296 Pls
5519 298 Pls
5521 301 Pls
5522 306 Pls
5524 311 Pls
5525 317 Pls
5526 324 Pls
5528 332 Pls
5529 341 Pls
5531 351 Pls
5532 362 Pls
5533 374 Pls
5535 387 Pls
5536 402 Pls
5538 417 Pls
5539 434 Pls
5540 452 Pls
5542 471 Pls
5543 491 Pls
5545 513 Pls
5546 535 Pls
5547 559 Pls
5549 585 Pls
5550 611 Pls
5552 639 Pls
5553 668 Pls
5554 699 Pls
5556 731 Pls
5557 764 Pls
5559 798 Pls
5560 834 Pls
5561 870 Pls
5563 908 Pls
5564 948 Pls
5566 988 Pls
5567 1030 Pls
5568 1073 Pls
5570 1117 Pls
5571 1162 Pls
5573 1209 Pls
5574 1256 Pls
5576 1305 Pls
5577 1354 Pls
5578 1405 Pls
5580 1456 Pls
5581 1509 Pls
5583 1562 Pls
5584 1617 Pls
5585 1672 Pls
5587 1728 Pls
5588 1785 Pls
5590 1842 Pls
5591 1900 Pls
5592 1959 Pls
5594 2018 Pls
5595 2078 Pls
5597 2138 Pls
5598 2199 Pls
5599 2260 Pls
5601 2321 Pls
5602 2383 Pls
5604 2444 Pls
5605 2506 Pls
5606 2569 Pls
5608 2631 Pls
5609 2693 Pls
5611 2755 Pls
5612 2817 Pls
5613 2879 Pls
5615 2940 Pls
5616 3001 Pls
5618 3062 Pls
5619 3123 Pls
5620 3183 Pls
5622 3242 Pls
5623 3301 Pls
5625 3359 Pls
5626 3417 Pls
5627 3474 Pls
5629 3530 Pls
5630 3585 Pls
5632 3639 Pls
5633 3693 Pls
5634 3745 Pls
5636 3796 Pls
5637 3847 Pls
5639 3896 Pls
5640 3944 Pls
5641 3990 Pls
5643 4035 Pls
5644 4079 Pls
5646 4122 Pls
5647 4163 Pls
5649 4203 Pls
5650 4241 Pls
5651 4278 Pls
5653 4313 Pls
5654 4347 Pls
5656 4379 Pls
5657 4409 Pls
5658 4438 Pls
5660 4465 Pls
5661 4490 Pls
5663 4514 Pls
5664 4536 Pls
5665 4556 Pls
5667 4574 Pls
5668 4590 Pls
5670 4605 Pls
5671 4618 Pls
5672 4629 Pls
5674 4638 Pls
5675 4646 Pls
5677 4651 Pls
5678 4655 Pls
5679 4657 Pls
5681 4657 Pls
5682 4655 Pls
5684 4651 Pls
5685 4646 Pls
5686 4639 Pls
5688 4630 Pls
5689 4619 Pls
5691 4607 Pls
5692 4592 Pls
5693 4577 Pls
5695 4559 Pls
5696 4540 Pls
5698 4519 Pls
5699 4497 Pls
5700 4473 Pls
5702 4447 Pls
5703 4420 Pls
5705 4392 Pls
5706 4362 Pls
5707 4330 Pls
5709 4298 Pls
5710 4264 Pls
5712 4228 Pls
5713 4192 Pls
5714 4154 Pls
5716 4115 Pls
5717 4075 Pls
5719 4033 Pls
5720 3991 Pls
5722 3948 Pls
5723 3904 Pls
5724 3859 Pls
5726 3813 Pls
5727 3766 Pls
5729 3718 Pls
5730 3670 Pls
5731 3621 Pls
5733 3571 Pls
5734 3521 Pls
5736 3471 Pls
5737 3419 Pls
5738 3368 Pls
5740 3316 Pls
5741 3263 Pls
5743 3211 Pls
5744 3158 Pls
5745 3104 Pls
5747 3051 Pls
5748 2998 Pls
5750 2944 Pls
5751 2891 Pls
5752 2837 Pls
5754 2784 Pls
5755 2730 Pls
5757 2677 Pls
5758 2624 Pls
5759 2571 Pls
5761 2518 Pls
5762 2466 Pls
5764 2414 Pls
5765 2362 Pls
5766 2311 Pls
5768 2260 Pls
5769 2210 Pls
5771 2160 Pls
5772 2111 Pls
5773 2062 Pls
5775 2014 Pls
5776 1967 Pls
5778 1920 Pls
5779 1873 Pls
5780 1828 Pls
5782 1783 Pls
5783 1739 Pls
5785 1696 Pls
5786 1653 Pls
5787 1612 Pls
5789 1571 Pls
5790 1531 Pls
5792 1492 Pls
5793 1454 Pls
5794 1416 Pls
5796 1380 Pls
5797 1344 Pls
5799 1309 Pls
5800 1276 Pls
5802 1243 Pls
5803 1211 Pls
5804 1180 Pls
5806 1150 Pls
5807 1122 Pls
5809 1094 Pls
5810 1067 Pls
5811 1041 Pls
5813 1016 Pls
5814 992 Pls
5816 969 Pls
5817 947 Pls
5818 925 Pls
5820 905 Pls
5821 886 Pls
5823 868 Pls
5824 851 Pls
5825 835 Pls
5827 820 Pls
5828 805 Pls
5830 792 Pls
5831 779 Pls
5832 768 Pls
5834 757 Pls
5835 748 Pls
5837 739 Pls
5838 731 Pls
5839 724 Pls
5841 718 Pls
5842 713 Pls
5844 709 Pls
5845 705 Pls
5846 703 Pls
5848 701 Pls
5849 700 Pls
5851 700 Pls
5852 700 Pls
5853 702 Pls
5855 704 Pls
5856 707 Pls
5858 710 Pls
5859 715 Pls
5860 720 Pls
5862 726 Pls
5863 732 Pls
5865 739 Pls
5866 747 Pls
5867 755 Pls
5869 765 Pls
5870 774 Pls
5872 784 Pls
5873 795 Pls
5875 807 Pls
5876 819 Pls
5877 831 Pls
5879 844 Pls
5880 858 Pls
5882 872 Pls
5883 887 Pls
5884 902 Pls
5886 917 Pls
5887 933 Pls
5889 950 Pls
5890 966 Pls
5891 984 Pls
5893 1001 Pls
5894 1019 Pls
5896 1037 Pls
5897 1056 Pls
5898 1075 Pls
5900 1094 Pls
5901 1113 Pls
5903 1133 Pls
5904 1153 Pls
5905 1173 Pls
5907 1193 Pls
5908 1214 Pls
5910 1235 Pls
5911 1256 Pls
5912 1277 Pls
5914 1298 Pls
5915 1319 Pls
5917 1340 Pls
5918 1362 Pls
5919 1383 Pls
5921 1404 Pls
5922 1426 Pls
5924 1447 Pls
5925 1468 Pls
5926 1490 Pls
5928 1511 Pls
5929 1532 Pls
5931 1553 Pls
5932 1574 Pls
5933 1594 Pls
5935 1615 Pls
5936 1635 Pls
5938 1655 Pls
5939 1675 Pls
5940 1695 Pls
5942 1714 Pls
5943 1733 Pls
5945 1751 Pls
5946 1769 Pls
5948 1787 Pls
5949 1805 Pls
5950 1822 Pls
5952 1838 Pls
5953 1854 Pls
5955 1870 Pls
5956 1885 Pls
5957 1900 Pls
5959 1914 Pls
5960 1927 Pls
5962 1940 Pls
5963 1953 Pls
5964 1964 Pls
5966 1975 Pls
5967 1986 Pls
5969 1995 Pls
5970 2004 Pls
5971 2013 Pls
5973 2020 Pls
5974 2027 Pls
5976 2033 Pls
5977 2038 Pls
5978 2043 Pls
5980 2046 Pls
5981 2049 Pls
5983 2051 Pls
5984 2052 Pls
5985 2053 Pls
5987 2052 Pls
5988 2051 Pls
5990 2049 Pls
5991 2046 Pls
5992 2042 Pls
5994 2037 Pls
5995 2031 Pls
5997 2024 Pls
5998 2017 Pls
5999 2008 Pls
6001 1999 Pls
6002 1989 Pls
6004 1977 Pls
6005 1965 Pls
6006 1952 Pls
6008 1939 Pls
6009 1924 Pls
6011 1908 Pls
6012 1892 Pls
6013 1875 Pls
6015 1857 Pls
6016 1838 Pls
6018 1818 Pls
6019 1798 Pls
6021 1777 Pls
6022 1755 Pls
6023 1732 Pls
6025 1709 Pls
6026 1685 Pls
6028 1660 Pls
6029 1635 Pls
6030 1609 Pls
6032 1582 Pls
6033 1555 Pls
6035 1528 Pls
6036 1500 Pls
6037 1471 Pls
6039 1442 Pls
6040 1413 Pls
6042 1383 Pls
6043 1353 Pls
6044 1323 Pls
6046 1293 Pls
6047 1262 Pls
6049 1231 Pls
6050 1200 Pls
6051 1169 Pls
6053 1138 Pls
6054 1107 Pls
6056 1075 Pls
6057 1044 Pls
6058 1013 Pls
6060 983 Pls
6061 952 Pls
6063 922 Pls
6064 892 Pls
6065 862 Pls
6067 833 Pls
6068 804 Pls
6070 776 Pls
6071 748 Pls
6072 720 Pls
6074 694 Pls
6075 668 Pls
6077 642 Pls
6078 618 Pls
6079 594 Pls
6081 571 Pls
6082 549 Pls
6084 528 Pls
6085 507 Pls
6086 488 Pls
6088 470 Pls
6089 453 Pls
6091 437 Pls
6092 422 Pls
6094 408 Pls
6095 395 Pls
6096 384 Pls
6098 374 Pls
6099 365 Pls
6101 358 Pls
6102 352 Pls
6103 347 Pls
6105 344 Pls
6106 342 Pls
6108 342 Pls
6109 343 Pls
6110 345 Pls
6112 349 Pls
6113 355 Pls
6115 362 Pls
6116 371 Pls
6117 381 Pls
6119 393 Pls
6120 406 Pls
6122 421 Pls
6123 438 Pls
6124 456 Pls
6126 475 Pls
6127 496 Pls
6129 519 Pls
6130 544 Pls
6131 569 Pls
6133 597 Pls
6134 626 Pls
6136 656 Pls
6137 688 Pls
6138 721 Pls
6140 756 Pls
6141 792 Pls
6143 830 Pls
6144 869 Pls
6145 909 Pls
6147 951 Pls
6148 994 Pls
6150 1038 Pls
6151 1083 Pls
6152 1129 Pls
6154 1177 Pls
6155 1226 Pls
6157 1275 Pls
6158 1326 Pls
6159 1378 Pls
6161 1430 Pls
6162 1484 Pls
6164 1538 Pls
6165 1593 Pls
6166 1649 Pls
6168 1705 Pls
6169 1762 Pls
6171 1820 Pls
6172 1878 Pls
6174 1936 Pls
6175 1995 Pls
6176 2055 Pls
6178 2114 Pls
6179 2174 Pls
6181 2234 Pls
6182 2294 Pls
6183 2354 Pls
6185 2414 Pls
6186 2473 Pls
6188 2533 Pls
6189 2593 Pls
6190 2652 Pls
6192 2711 Pls
6193 2770 Pls
6195 2828 Pls
6196 2885 Pls
6197 2943 Pls
6199 2999 Pls
6200 3055 Pls
6202 3110 Pls
6203 3164 Pls
6204 3218 Pls
6206 3271 Pls
6207 3322 Pls
6209 3373 Pls
6210 3423 Pls
6211 3471 Pls
6213 3519 Pls
6214 3565 Pls
6216 3610 Pls
6217 3654 Pls
6218 3697 Pls
6220 3738 Pls
6221 3778 Pls
6223 3816 Pls
6224 3853 Pls
6225 3888 Pls
6227 3922 Pls
6228 3955 Pls
6230 3985 Pls
6231 4015 Pls
6232 4042 Pls
6234 4068 Pls
6235 4092 Pls
6237 4115 Pls
6238 4135 Pls
6239 4154 Pls
6241 4172 Pls
6242 4187 Pls
6244 4201 Pls
6245 4213 Pls
6247 4223 Pls
6248 4231 Pls
6249 4238 Pls
6251 4243 Pls
6252 4246 Pls
6254 4247 Pls
6255 4246 Pls
6256 4244 Pls
6258 4240 Pls
6259 4234 Pls
6261 4227 Pls
6262 4217 Pls
6263 4206 Pls
6265 4194 Pls
6266 4179 Pls
6268 4163 Pls
6269 4146 Pls
6270 4127 Pls
6272 4106 Pls
6273 4084 Pls
6275 4060 Pls
6276 4034 Pls
6277 4008 Pls
6279 3979 Pls
6280 3950 Pls
6282 3919 Pls
6283 3887 Pls
6284 3853 Pls
6286 3818 Pls
6287 3783 Pls
6289 3745 Pls
6290 3707 Pls
6291 3668 Pls
6293 3628 Pls
6294 3586 Pls
6296 3544 Pls
6297 3501 Pls
6298 3457 Pls
6300 3412 Pls
6301 3367 Pls
6303 3320 Pls
6304 3274 Pls
6305 3226 Pls
6307 3178 Pls
6308 3129 Pls
6310 3080 Pls
6311 3030 Pls
6312 2980 Pls
6314 2930 Pls
6315 2880 Pls
6317 2829 Pls
6318 2778 Pls
6320 2726 Pls
6321 2675 Pls
6322 2623 Pls
6324 2572 Pls
6325 2520 Pls
6327 2469 Pls
6328 2418 Pls
6329 2366 Pls
6331 2315 Pls
6332 2264 Pls
6334 2214 Pls
6335 2164 Pls
6336 2113 Pls
6338 2064 Pls
6339 2014 Pls
6341 1966 Pls
6342 1917 Pls
6343 1869 Pls
6345 1822 Pls
6346 1775 Pls
6348 1728 Pls
6349 1683 Pls
6350 1637 Pls
6352 1593 Pls
6353 1549 Pls
6355 1506 Pls
6356 1463 Pls
6357 1421 Pls
6359 1380 Pls
6360 1340 Pls
6362 1300 Pls
6363 1261 Pls
6364 1223 Pls
6366 1186 Pls
6367 1150 Pls
6369 1114 Pls
6370 1079 Pls
6371 1045 Pls
6373 1012 Pls
6374 980 Pls
6376 948 Pls
6377 918 Pls
6378 888 Pls
6579 4738 Pls
% End plot #1
2.000 UL
LTb
LCb setrgbcolor
1.000 UL
LTB
LCb setrgbcolor
630 4871 N
630 280 L
6317 0 V
0 4591 V
-6317 0 V
Z stroke
1.000 UP
1.000 UL
LTb
LCb setrgbcolor
stroke
grestore
end
showpage
%%Trailer
%%DocumentFonts: Helvetica
