%!PS-Adobe-2.0 EPSF-2.0
%%Title: spectrumnew.eps
%%Creator: gnuplot 5.0 patchlevel 3
%%CreationDate: Wed Feb  8 14:17:49 2017
%%DocumentFonts: (atend)
%%BoundingBox: 50 50 410 302
%%EndComments
%%BeginProlog
/gnudict 256 dict def
gnudict begin
%
% The following true/false flags may be edited by hand if desired.
% The unit line width and grayscale image gamma correction may also be changed.
%
/Color true def
/Blacktext false def
/Solid false def
/Dashlength 1 def
/Landscape false def
/Level1 false def
/Level3 false def
/Rounded false def
/ClipToBoundingBox false def
/SuppressPDFMark false def
/TransparentPatterns false def
/gnulinewidth 5.000 def
/userlinewidth gnulinewidth def
/Gamma 1.0 def
/BackgroundColor {-1.000 -1.000 -1.000} def
%
/vshift -46 def
/dl1 {
  10.0 Dashlength userlinewidth gnulinewidth div mul mul mul
  Rounded { currentlinewidth 0.75 mul sub dup 0 le { pop 0.01 } if } if
} def
/dl2 {
  10.0 Dashlength userlinewidth gnulinewidth div mul mul mul
  Rounded { currentlinewidth 0.75 mul add } if
} def
/hpt_ 31.5 def
/vpt_ 31.5 def
/hpt hpt_ def
/vpt vpt_ def
/doclip {
  ClipToBoundingBox {
    newpath 50 50 moveto 410 50 lineto 410 302 lineto 50 302 lineto closepath
    clip
  } if
} def
%
% Gnuplot Prolog Version 5.1 (Oct 2015)
%
%/SuppressPDFMark true def
%
/M {moveto} bind def
/L {lineto} bind def
/R {rmoveto} bind def
/V {rlineto} bind def
/N {newpath moveto} bind def
/Z {closepath} bind def
/C {setrgbcolor} bind def
/f {rlineto fill} bind def
/g {setgray} bind def
/Gshow {show} def   % May be redefined later in the file to support UTF-8
/vpt2 vpt 2 mul def
/hpt2 hpt 2 mul def
/Lshow {currentpoint stroke M 0 vshift R 
	Blacktext {gsave 0 setgray textshow grestore} {textshow} ifelse} def
/Rshow {currentpoint stroke M dup stringwidth pop neg vshift R
	Blacktext {gsave 0 setgray textshow grestore} {textshow} ifelse} def
/Cshow {currentpoint stroke M dup stringwidth pop -2 div vshift R 
	Blacktext {gsave 0 setgray textshow grestore} {textshow} ifelse} def
/UP {dup vpt_ mul /vpt exch def hpt_ mul /hpt exch def
  /hpt2 hpt 2 mul def /vpt2 vpt 2 mul def} def
/DL {Color {setrgbcolor Solid {pop []} if 0 setdash}
 {pop pop pop 0 setgray Solid {pop []} if 0 setdash} ifelse} def
/BL {stroke userlinewidth 2 mul setlinewidth
	Rounded {1 setlinejoin 1 setlinecap} if} def
/AL {stroke userlinewidth 2 div setlinewidth
	Rounded {1 setlinejoin 1 setlinecap} if} def
/UL {dup gnulinewidth mul /userlinewidth exch def
	dup 1 lt {pop 1} if 10 mul /udl exch def} def
/PL {stroke userlinewidth setlinewidth
	Rounded {1 setlinejoin 1 setlinecap} if} def
3.8 setmiterlimit
% Classic Line colors (version 5.0)
/LCw {1 1 1} def
/LCb {0 0 0} def
/LCa {0 0 0} def
/LC0 {1 0 0} def
/LC1 {0 1 0} def
/LC2 {0 0 1} def
/LC3 {1 0 1} def
/LC4 {0 1 1} def
/LC5 {1 1 0} def
/LC6 {0 0 0} def
/LC7 {1 0.3 0} def
/LC8 {0.5 0.5 0.5} def
% Default dash patterns (version 5.0)
/LTB {BL [] LCb DL} def
/LTw {PL [] 1 setgray} def
/LTb {PL [] LCb DL} def
/LTa {AL [1 udl mul 2 udl mul] 0 setdash LCa setrgbcolor} def
/LT0 {PL [] LC0 DL} def
/LT1 {PL [2 dl1 3 dl2] LC1 DL} def
/LT2 {PL [1 dl1 1.5 dl2] LC2 DL} def
/LT3 {PL [6 dl1 2 dl2 1 dl1 2 dl2] LC3 DL} def
/LT4 {PL [1 dl1 2 dl2 6 dl1 2 dl2 1 dl1 2 dl2] LC4 DL} def
/LT5 {PL [4 dl1 2 dl2] LC5 DL} def
/LT6 {PL [1.5 dl1 1.5 dl2 1.5 dl1 1.5 dl2 1.5 dl1 6 dl2] LC6 DL} def
/LT7 {PL [3 dl1 3 dl2 1 dl1 3 dl2] LC7 DL} def
/LT8 {PL [2 dl1 2 dl2 2 dl1 6 dl2] LC8 DL} def
/SL {[] 0 setdash} def
/Pnt {stroke [] 0 setdash gsave 1 setlinecap M 0 0 V stroke grestore} def
/Dia {stroke [] 0 setdash 2 copy vpt add M
  hpt neg vpt neg V hpt vpt neg V
  hpt vpt V hpt neg vpt V closepath stroke
  Pnt} def
/Pls {stroke [] 0 setdash vpt sub M 0 vpt2 V
  currentpoint stroke M
  hpt neg vpt neg R hpt2 0 V stroke
 } def
/Box {stroke [] 0 setdash 2 copy exch hpt sub exch vpt add M
  0 vpt2 neg V hpt2 0 V 0 vpt2 V
  hpt2 neg 0 V closepath stroke
  Pnt} def
/Crs {stroke [] 0 setdash exch hpt sub exch vpt add M
  hpt2 vpt2 neg V currentpoint stroke M
  hpt2 neg 0 R hpt2 vpt2 V stroke} def
/TriU {stroke [] 0 setdash 2 copy vpt 1.12 mul add M
  hpt neg vpt -1.62 mul V
  hpt 2 mul 0 V
  hpt neg vpt 1.62 mul V closepath stroke
  Pnt} def
/Star {2 copy Pls Crs} def
/BoxF {stroke [] 0 setdash exch hpt sub exch vpt add M
  0 vpt2 neg V hpt2 0 V 0 vpt2 V
  hpt2 neg 0 V closepath fill} def
/TriUF {stroke [] 0 setdash vpt 1.12 mul add M
  hpt neg vpt -1.62 mul V
  hpt 2 mul 0 V
  hpt neg vpt 1.62 mul V closepath fill} def
/TriD {stroke [] 0 setdash 2 copy vpt 1.12 mul sub M
  hpt neg vpt 1.62 mul V
  hpt 2 mul 0 V
  hpt neg vpt -1.62 mul V closepath stroke
  Pnt} def
/TriDF {stroke [] 0 setdash vpt 1.12 mul sub M
  hpt neg vpt 1.62 mul V
  hpt 2 mul 0 V
  hpt neg vpt -1.62 mul V closepath fill} def
/DiaF {stroke [] 0 setdash vpt add M
  hpt neg vpt neg V hpt vpt neg V
  hpt vpt V hpt neg vpt V closepath fill} def
/Pent {stroke [] 0 setdash 2 copy gsave
  translate 0 hpt M 4 {72 rotate 0 hpt L} repeat
  closepath stroke grestore Pnt} def
/PentF {stroke [] 0 setdash gsave
  translate 0 hpt M 4 {72 rotate 0 hpt L} repeat
  closepath fill grestore} def
/Circle {stroke [] 0 setdash 2 copy
  hpt 0 360 arc stroke Pnt} def
/CircleF {stroke [] 0 setdash hpt 0 360 arc fill} def
/C0 {BL [] 0 setdash 2 copy moveto vpt 90 450 arc} bind def
/C1 {BL [] 0 setdash 2 copy moveto
	2 copy vpt 0 90 arc closepath fill
	vpt 0 360 arc closepath} bind def
/C2 {BL [] 0 setdash 2 copy moveto
	2 copy vpt 90 180 arc closepath fill
	vpt 0 360 arc closepath} bind def
/C3 {BL [] 0 setdash 2 copy moveto
	2 copy vpt 0 180 arc closepath fill
	vpt 0 360 arc closepath} bind def
/C4 {BL [] 0 setdash 2 copy moveto
	2 copy vpt 180 270 arc closepath fill
	vpt 0 360 arc closepath} bind def
/C5 {BL [] 0 setdash 2 copy moveto
	2 copy vpt 0 90 arc
	2 copy moveto
	2 copy vpt 180 270 arc closepath fill
	vpt 0 360 arc} bind def
/C6 {BL [] 0 setdash 2 copy moveto
	2 copy vpt 90 270 arc closepath fill
	vpt 0 360 arc closepath} bind def
/C7 {BL [] 0 setdash 2 copy moveto
	2 copy vpt 0 270 arc closepath fill
	vpt 0 360 arc closepath} bind def
/C8 {BL [] 0 setdash 2 copy moveto
	2 copy vpt 270 360 arc closepath fill
	vpt 0 360 arc closepath} bind def
/C9 {BL [] 0 setdash 2 copy moveto
	2 copy vpt 270 450 arc closepath fill
	vpt 0 360 arc closepath} bind def
/C10 {BL [] 0 setdash 2 copy 2 copy moveto vpt 270 360 arc closepath fill
	2 copy moveto
	2 copy vpt 90 180 arc closepath fill
	vpt 0 360 arc closepath} bind def
/C11 {BL [] 0 setdash 2 copy moveto
	2 copy vpt 0 180 arc closepath fill
	2 copy moveto
	2 copy vpt 270 360 arc closepath fill
	vpt 0 360 arc closepath} bind def
/C12 {BL [] 0 setdash 2 copy moveto
	2 copy vpt 180 360 arc closepath fill
	vpt 0 360 arc closepath} bind def
/C13 {BL [] 0 setdash 2 copy moveto
	2 copy vpt 0 90 arc closepath fill
	2 copy moveto
	2 copy vpt 180 360 arc closepath fill
	vpt 0 360 arc closepath} bind def
/C14 {BL [] 0 setdash 2 copy moveto
	2 copy vpt 90 360 arc closepath fill
	vpt 0 360 arc} bind def
/C15 {BL [] 0 setdash 2 copy vpt 0 360 arc closepath fill
	vpt 0 360 arc closepath} bind def
/Rec {newpath 4 2 roll moveto 1 index 0 rlineto 0 exch rlineto
	neg 0 rlineto closepath} bind def
/Square {dup Rec} bind def
/Bsquare {vpt sub exch vpt sub exch vpt2 Square} bind def
/S0 {BL [] 0 setdash 2 copy moveto 0 vpt rlineto BL Bsquare} bind def
/S1 {BL [] 0 setdash 2 copy vpt Square fill Bsquare} bind def
/S2 {BL [] 0 setdash 2 copy exch vpt sub exch vpt Square fill Bsquare} bind def
/S3 {BL [] 0 setdash 2 copy exch vpt sub exch vpt2 vpt Rec fill Bsquare} bind def
/S4 {BL [] 0 setdash 2 copy exch vpt sub exch vpt sub vpt Square fill Bsquare} bind def
/S5 {BL [] 0 setdash 2 copy 2 copy vpt Square fill
	exch vpt sub exch vpt sub vpt Square fill Bsquare} bind def
/S6 {BL [] 0 setdash 2 copy exch vpt sub exch vpt sub vpt vpt2 Rec fill Bsquare} bind def
/S7 {BL [] 0 setdash 2 copy exch vpt sub exch vpt sub vpt vpt2 Rec fill
	2 copy vpt Square fill Bsquare} bind def
/S8 {BL [] 0 setdash 2 copy vpt sub vpt Square fill Bsquare} bind def
/S9 {BL [] 0 setdash 2 copy vpt sub vpt vpt2 Rec fill Bsquare} bind def
/S10 {BL [] 0 setdash 2 copy vpt sub vpt Square fill 2 copy exch vpt sub exch vpt Square fill
	Bsquare} bind def
/S11 {BL [] 0 setdash 2 copy vpt sub vpt Square fill 2 copy exch vpt sub exch vpt2 vpt Rec fill
	Bsquare} bind def
/S12 {BL [] 0 setdash 2 copy exch vpt sub exch vpt sub vpt2 vpt Rec fill Bsquare} bind def
/S13 {BL [] 0 setdash 2 copy exch vpt sub exch vpt sub vpt2 vpt Rec fill
	2 copy vpt Square fill Bsquare} bind def
/S14 {BL [] 0 setdash 2 copy exch vpt sub exch vpt sub vpt2 vpt Rec fill
	2 copy exch vpt sub exch vpt Square fill Bsquare} bind def
/S15 {BL [] 0 setdash 2 copy Bsquare fill Bsquare} bind def
/D0 {gsave translate 45 rotate 0 0 S0 stroke grestore} bind def
/D1 {gsave translate 45 rotate 0 0 S1 stroke grestore} bind def
/D2 {gsave translate 45 rotate 0 0 S2 stroke grestore} bind def
/D3 {gsave translate 45 rotate 0 0 S3 stroke grestore} bind def
/D4 {gsave translate 45 rotate 0 0 S4 stroke grestore} bind def
/D5 {gsave translate 45 rotate 0 0 S5 stroke grestore} bind def
/D6 {gsave translate 45 rotate 0 0 S6 stroke grestore} bind def
/D7 {gsave translate 45 rotate 0 0 S7 stroke grestore} bind def
/D8 {gsave translate 45 rotate 0 0 S8 stroke grestore} bind def
/D9 {gsave translate 45 rotate 0 0 S9 stroke grestore} bind def
/D10 {gsave translate 45 rotate 0 0 S10 stroke grestore} bind def
/D11 {gsave translate 45 rotate 0 0 S11 stroke grestore} bind def
/D12 {gsave translate 45 rotate 0 0 S12 stroke grestore} bind def
/D13 {gsave translate 45 rotate 0 0 S13 stroke grestore} bind def
/D14 {gsave translate 45 rotate 0 0 S14 stroke grestore} bind def
/D15 {gsave translate 45 rotate 0 0 S15 stroke grestore} bind def
/DiaE {stroke [] 0 setdash vpt add M
  hpt neg vpt neg V hpt vpt neg V
  hpt vpt V hpt neg vpt V closepath stroke} def
/BoxE {stroke [] 0 setdash exch hpt sub exch vpt add M
  0 vpt2 neg V hpt2 0 V 0 vpt2 V
  hpt2 neg 0 V closepath stroke} def
/TriUE {stroke [] 0 setdash vpt 1.12 mul add M
  hpt neg vpt -1.62 mul V
  hpt 2 mul 0 V
  hpt neg vpt 1.62 mul V closepath stroke} def
/TriDE {stroke [] 0 setdash vpt 1.12 mul sub M
  hpt neg vpt 1.62 mul V
  hpt 2 mul 0 V
  hpt neg vpt -1.62 mul V closepath stroke} def
/PentE {stroke [] 0 setdash gsave
  translate 0 hpt M 4 {72 rotate 0 hpt L} repeat
  closepath stroke grestore} def
/CircE {stroke [] 0 setdash 
  hpt 0 360 arc stroke} def
/Opaque {gsave closepath 1 setgray fill grestore 0 setgray closepath} def
/DiaW {stroke [] 0 setdash vpt add M
  hpt neg vpt neg V hpt vpt neg V
  hpt vpt V hpt neg vpt V Opaque stroke} def
/BoxW {stroke [] 0 setdash exch hpt sub exch vpt add M
  0 vpt2 neg V hpt2 0 V 0 vpt2 V
  hpt2 neg 0 V Opaque stroke} def
/TriUW {stroke [] 0 setdash vpt 1.12 mul add M
  hpt neg vpt -1.62 mul V
  hpt 2 mul 0 V
  hpt neg vpt 1.62 mul V Opaque stroke} def
/TriDW {stroke [] 0 setdash vpt 1.12 mul sub M
  hpt neg vpt 1.62 mul V
  hpt 2 mul 0 V
  hpt neg vpt -1.62 mul V Opaque stroke} def
/PentW {stroke [] 0 setdash gsave
  translate 0 hpt M 4 {72 rotate 0 hpt L} repeat
  Opaque stroke grestore} def
/CircW {stroke [] 0 setdash 
  hpt 0 360 arc Opaque stroke} def
/BoxFill {gsave Rec 1 setgray fill grestore} def
/Density {
  /Fillden exch def
  currentrgbcolor
  /ColB exch def /ColG exch def /ColR exch def
  /ColR ColR Fillden mul Fillden sub 1 add def
  /ColG ColG Fillden mul Fillden sub 1 add def
  /ColB ColB Fillden mul Fillden sub 1 add def
  ColR ColG ColB setrgbcolor} def
/BoxColFill {gsave Rec PolyFill} def
/PolyFill {gsave Density fill grestore grestore} def
/h {rlineto rlineto rlineto gsave closepath fill grestore} bind def
%
% PostScript Level 1 Pattern Fill routine for rectangles
% Usage: x y w h s a XX PatternFill
%	x,y = lower left corner of box to be filled
%	w,h = width and height of box
%	  a = angle in degrees between lines and x-axis
%	 XX = 0/1 for no/yes cross-hatch
%
/PatternFill {gsave /PFa [ 9 2 roll ] def
  PFa 0 get PFa 2 get 2 div add PFa 1 get PFa 3 get 2 div add translate
  PFa 2 get -2 div PFa 3 get -2 div PFa 2 get PFa 3 get Rec
  TransparentPatterns {} {gsave 1 setgray fill grestore} ifelse
  clip
  currentlinewidth 0.5 mul setlinewidth
  /PFs PFa 2 get dup mul PFa 3 get dup mul add sqrt def
  0 0 M PFa 5 get rotate PFs -2 div dup translate
  0 1 PFs PFa 4 get div 1 add floor cvi
	{PFa 4 get mul 0 M 0 PFs V} for
  0 PFa 6 get ne {
	0 1 PFs PFa 4 get div 1 add floor cvi
	{PFa 4 get mul 0 2 1 roll M PFs 0 V} for
 } if
  stroke grestore} def
%
/languagelevel where
 {pop languagelevel} {1} ifelse
dup 2 lt
	{/InterpretLevel1 true def
	 /InterpretLevel3 false def}
	{/InterpretLevel1 Level1 def
	 2 gt
	    {/InterpretLevel3 Level3 def}
	    {/InterpretLevel3 false def}
	 ifelse }
 ifelse
%
% PostScript level 2 pattern fill definitions
%
/Level2PatternFill {
/Tile8x8 {/PaintType 2 /PatternType 1 /TilingType 1 /BBox [0 0 8 8] /XStep 8 /YStep 8}
	bind def
/KeepColor {currentrgbcolor [/Pattern /DeviceRGB] setcolorspace} bind def
<< Tile8x8
 /PaintProc {0.5 setlinewidth pop 0 0 M 8 8 L 0 8 M 8 0 L stroke} 
>> matrix makepattern
/Pat1 exch def
<< Tile8x8
 /PaintProc {0.5 setlinewidth pop 0 0 M 8 8 L 0 8 M 8 0 L stroke
	0 4 M 4 8 L 8 4 L 4 0 L 0 4 L stroke}
>> matrix makepattern
/Pat2 exch def
<< Tile8x8
 /PaintProc {0.5 setlinewidth pop 0 0 M 0 8 L
	8 8 L 8 0 L 0 0 L fill}
>> matrix makepattern
/Pat3 exch def
<< Tile8x8
 /PaintProc {0.5 setlinewidth pop -4 8 M 8 -4 L
	0 12 M 12 0 L stroke}
>> matrix makepattern
/Pat4 exch def
<< Tile8x8
 /PaintProc {0.5 setlinewidth pop -4 0 M 8 12 L
	0 -4 M 12 8 L stroke}
>> matrix makepattern
/Pat5 exch def
<< Tile8x8
 /PaintProc {0.5 setlinewidth pop -2 8 M 4 -4 L
	0 12 M 8 -4 L 4 12 M 10 0 L stroke}
>> matrix makepattern
/Pat6 exch def
<< Tile8x8
 /PaintProc {0.5 setlinewidth pop -2 0 M 4 12 L
	0 -4 M 8 12 L 4 -4 M 10 8 L stroke}
>> matrix makepattern
/Pat7 exch def
<< Tile8x8
 /PaintProc {0.5 setlinewidth pop 8 -2 M -4 4 L
	12 0 M -4 8 L 12 4 M 0 10 L stroke}
>> matrix makepattern
/Pat8 exch def
<< Tile8x8
 /PaintProc {0.5 setlinewidth pop 0 -2 M 12 4 L
	-4 0 M 12 8 L -4 4 M 8 10 L stroke}
>> matrix makepattern
/Pat9 exch def
/Pattern1 {PatternBgnd KeepColor Pat1 setpattern} bind def
/Pattern2 {PatternBgnd KeepColor Pat2 setpattern} bind def
/Pattern3 {PatternBgnd KeepColor Pat3 setpattern} bind def
/Pattern4 {PatternBgnd KeepColor Landscape {Pat5} {Pat4} ifelse setpattern} bind def
/Pattern5 {PatternBgnd KeepColor Landscape {Pat4} {Pat5} ifelse setpattern} bind def
/Pattern6 {PatternBgnd KeepColor Landscape {Pat9} {Pat6} ifelse setpattern} bind def
/Pattern7 {PatternBgnd KeepColor Landscape {Pat8} {Pat7} ifelse setpattern} bind def
} def
%
%
%End of PostScript Level 2 code
%
/PatternBgnd {
  TransparentPatterns {} {gsave 1 setgray fill grestore} ifelse
} def
%
% Substitute for Level 2 pattern fill codes with
% grayscale if Level 2 support is not selected.
%
/Level1PatternFill {
/Pattern1 {0.250 Density} bind def
/Pattern2 {0.500 Density} bind def
/Pattern3 {0.750 Density} bind def
/Pattern4 {0.125 Density} bind def
/Pattern5 {0.375 Density} bind def
/Pattern6 {0.625 Density} bind def
/Pattern7 {0.875 Density} bind def
} def
%
% Now test for support of Level 2 code
%
Level1 {Level1PatternFill} {Level2PatternFill} ifelse
%
/Symbol-Oblique /Symbol findfont [1 0 .167 1 0 0] makefont
dup length dict begin {1 index /FID eq {pop pop} {def} ifelse} forall
currentdict end definefont pop
%
/MFshow {
   { dup 5 get 3 ge
     { 5 get 3 eq {gsave} {grestore} ifelse }
     {dup dup 0 get findfont exch 1 get scalefont setfont
     [ currentpoint ] exch dup 2 get 0 exch R dup 5 get 2 ne {dup dup 6
     get exch 4 get {textshow} {stringwidth pop 0 R} ifelse }if dup 5 get 0 eq
     {dup 3 get {2 get neg 0 exch R pop} {pop aload pop M} ifelse} {dup 5
     get 1 eq {dup 2 get exch dup 3 get exch 6 get stringwidth pop -2 div
     dup 0 R} {dup 6 get stringwidth pop -2 div 0 R 6 get
     textshow 2 index {aload pop M neg 3 -1 roll neg R pop pop} {pop pop pop
     pop aload pop M} ifelse }ifelse }ifelse }
     ifelse }
   forall} def
/Gswidth {dup type /stringtype eq {stringwidth} {pop (n) stringwidth} ifelse} def
/MFwidth {0 exch { dup 5 get 3 ge { 5 get 3 eq { 0 } { pop } ifelse }
 {dup 3 get{dup dup 0 get findfont exch 1 get scalefont setfont
     6 get Gswidth pop add} {pop} ifelse} ifelse} forall} def
/MLshow { currentpoint stroke M
  0 exch R
  Blacktext {gsave 0 setgray MFshow grestore} {MFshow} ifelse } bind def
/MRshow { currentpoint stroke M
  exch dup MFwidth neg 3 -1 roll R
  Blacktext {gsave 0 setgray MFshow grestore} {MFshow} ifelse } bind def
/MCshow { currentpoint stroke M
  exch dup MFwidth -2 div 3 -1 roll R
  Blacktext {gsave 0 setgray MFshow grestore} {MFshow} ifelse } bind def
/XYsave    { [( ) 1 2 true false 3 ()] } bind def
/XYrestore { [( ) 1 2 true false 4 ()] } bind def
Level1 SuppressPDFMark or 
{} {
/SDict 10 dict def
systemdict /pdfmark known not {
  userdict /pdfmark systemdict /cleartomark get put
} if
SDict begin [
  /Title (spectrumnew.eps)
  /Subject (gnuplot plot)
  /Creator (gnuplot 5.0 patchlevel 3)
  /Author (asahi)
%  /Producer (gnuplot)
%  /Keywords ()
  /CreationDate (Wed Feb  8 14:17:49 2017)
  /DOCINFO pdfmark
end
} ifelse
%
% Support for boxed text - Ethan A Merritt May 2005
%
/InitTextBox { userdict /TBy2 3 -1 roll put userdict /TBx2 3 -1 roll put
           userdict /TBy1 3 -1 roll put userdict /TBx1 3 -1 roll put
	   /Boxing true def } def
/ExtendTextBox { Boxing
    { gsave dup false charpath pathbbox
      dup TBy2 gt {userdict /TBy2 3 -1 roll put} {pop} ifelse
      dup TBx2 gt {userdict /TBx2 3 -1 roll put} {pop} ifelse
      dup TBy1 lt {userdict /TBy1 3 -1 roll put} {pop} ifelse
      dup TBx1 lt {userdict /TBx1 3 -1 roll put} {pop} ifelse
      grestore } if } def
/PopTextBox { newpath TBx1 TBxmargin sub TBy1 TBymargin sub M
               TBx1 TBxmargin sub TBy2 TBymargin add L
	       TBx2 TBxmargin add TBy2 TBymargin add L
	       TBx2 TBxmargin add TBy1 TBymargin sub L closepath } def
/DrawTextBox { PopTextBox stroke /Boxing false def} def
/FillTextBox { gsave PopTextBox 1 1 1 setrgbcolor fill grestore /Boxing false def} def
0 0 0 0 InitTextBox
/TBxmargin 20 def
/TBymargin 20 def
/Boxing false def
/textshow { ExtendTextBox Gshow } def
%
% redundant definitions for compatibility with prologue.ps older than 5.0.2
/LTB {BL [] LCb DL} def
/LTb {PL [] LCb DL} def
end
%%EndProlog
%%Page: 1 1
gnudict begin
gsave
doclip
50 50 translate
0.050 0.050 scale
0 setgray
newpath
(Helvetica) findfont 140 scalefont setfont
BackgroundColor 0 lt 3 1 roll 0 lt exch 0 lt or or not {BackgroundColor C 1.000 0 0 7200.00 5040.00 BoxColFill} if
1.000 UL
LTb
LCb setrgbcolor
854 448 M
63 0 V
6030 0 R
-63 0 V
stroke
770 448 M
[ [(Helvetica) 140.0 0.0 true true 0 ( 0)]
] -46.7 MRshow
1.000 UL
LTb
LCb setrgbcolor
854 1001 M
63 0 V
6030 0 R
-63 0 V
stroke
770 1001 M
[ [(Helvetica) 140.0 0.0 true true 0 ( 10000)]
] -46.7 MRshow
1.000 UL
LTb
LCb setrgbcolor
854 1554 M
63 0 V
6030 0 R
-63 0 V
stroke
770 1554 M
[ [(Helvetica) 140.0 0.0 true true 0 ( 20000)]
] -46.7 MRshow
1.000 UL
LTb
LCb setrgbcolor
854 2107 M
63 0 V
6030 0 R
-63 0 V
stroke
770 2107 M
[ [(Helvetica) 140.0 0.0 true true 0 ( 30000)]
] -46.7 MRshow
1.000 UL
LTb
LCb setrgbcolor
854 2660 M
63 0 V
6030 0 R
-63 0 V
stroke
770 2660 M
[ [(Helvetica) 140.0 0.0 true true 0 ( 40000)]
] -46.7 MRshow
1.000 UL
LTb
LCb setrgbcolor
854 3212 M
63 0 V
6030 0 R
-63 0 V
stroke
770 3212 M
[ [(Helvetica) 140.0 0.0 true true 0 ( 50000)]
] -46.7 MRshow
1.000 UL
LTb
LCb setrgbcolor
854 3765 M
63 0 V
6030 0 R
-63 0 V
stroke
770 3765 M
[ [(Helvetica) 140.0 0.0 true true 0 ( 60000)]
] -46.7 MRshow
1.000 UL
LTb
LCb setrgbcolor
854 4318 M
63 0 V
6030 0 R
-63 0 V
stroke
770 4318 M
[ [(Helvetica) 140.0 0.0 true true 0 ( 70000)]
] -46.7 MRshow
1.000 UL
LTb
LCb setrgbcolor
854 4871 M
63 0 V
6030 0 R
-63 0 V
stroke
770 4871 M
[ [(Helvetica) 140.0 0.0 true true 0 ( 80000)]
] -46.7 MRshow
1.000 UL
LTb
LCb setrgbcolor
854 448 M
0 63 V
0 4360 R
0 -63 V
stroke
854 308 M
[ [(Helvetica) 140.0 0.0 true true 0 (-80)]
] -46.7 MCshow
1.000 UL
LTb
LCb setrgbcolor
1616 448 M
0 63 V
0 4360 R
0 -63 V
stroke
1616 308 M
[ [(Helvetica) 140.0 0.0 true true 0 (-60)]
] -46.7 MCshow
1.000 UL
LTb
LCb setrgbcolor
2377 448 M
0 63 V
0 4360 R
0 -63 V
stroke
2377 308 M
[ [(Helvetica) 140.0 0.0 true true 0 (-40)]
] -46.7 MCshow
1.000 UL
LTb
LCb setrgbcolor
3139 448 M
0 63 V
0 4360 R
0 -63 V
stroke
3139 308 M
[ [(Helvetica) 140.0 0.0 true true 0 (-20)]
] -46.7 MCshow
1.000 UL
LTb
LCb setrgbcolor
3901 448 M
0 63 V
0 4360 R
0 -63 V
stroke
3901 308 M
[ [(Helvetica) 140.0 0.0 true true 0 ( 0)]
] -46.7 MCshow
1.000 UL
LTb
LCb setrgbcolor
4662 448 M
0 63 V
0 4360 R
0 -63 V
stroke
4662 308 M
[ [(Helvetica) 140.0 0.0 true true 0 ( 20)]
] -46.7 MCshow
1.000 UL
LTb
LCb setrgbcolor
5424 448 M
0 63 V
0 4360 R
0 -63 V
stroke
5424 308 M
[ [(Helvetica) 140.0 0.0 true true 0 ( 40)]
] -46.7 MCshow
1.000 UL
LTb
LCb setrgbcolor
6185 448 M
0 63 V
0 4360 R
0 -63 V
stroke
6185 308 M
[ [(Helvetica) 140.0 0.0 true true 0 ( 60)]
] -46.7 MCshow
1.000 UL
LTb
LCb setrgbcolor
6947 448 M
0 63 V
0 4360 R
0 -63 V
stroke
6947 308 M
[ [(Helvetica) 140.0 0.0 true true 0 ( 80)]
] -46.7 MCshow
1.000 UL
LTb
LCb setrgbcolor
1.000 UL
LTB
LCb setrgbcolor
854 4871 N
854 448 L
6093 0 V
0 4423 V
-6093 0 V
Z stroke
1.000 UP
1.000 UL
LTb
LCb setrgbcolor
LCb setrgbcolor
112 2659 M
currentpoint gsave translate -270 rotate 0 0 moveto
[ [(Helvetica) 140.0 0.0 true true 0 (Power Spectrum)]
] -46.7 MCshow
grestore
LTb
LCb setrgbcolor
3900 98 M
[ [(Helvetica) 140.0 0.0 true true 0 (frequency [Hz])]
] -46.7 MCshow
LTb
% Begin plot #1
1.000 UL
LTb
0.58 0.00 0.83 C 1418 518 M
1 83 V
1 -81 V
2 -15 V
1 -17 V
1 -29 V
1 225 V
1 -230 V
2 199 V
1 -131 V
1 -69 V
1 13 V
2 119 V
1 -120 V
1 42 V
1 129 V
1 -161 V
2 -11 V
1 460 V
1 -439 V
1 -7 V
1 65 V
2 -78 V
1 100 V
1 -86 V
1 47 V
2 5 V
1 73 V
1 6 V
1 -160 V
1 156 V
2 -157 V
1 68 V
1 39 V
1 -13 V
1 24 V
2 107 V
1 -25 V
1 -75 V
1 -44 V
1 -72 V
2 59 V
1 46 V
1 -108 V
1 26 V
2 51 V
1 -44 V
1 6 V
1 -42 V
1 46 V
2 -41 V
1 -4 V
1 0 V
1 113 V
1 -103 V
2 -12 V
1 246 V
1 -224 V
1 36 V
2 74 V
1 371 V
1 -389 V
1 -107 V
1 160 V
2 -103 V
1 7 V
1 -7 V
1 334 V
1 -385 V
2 267 V
1 -260 V
1 49 V
1 136 V
1 -207 V
2 171 V
1 -171 V
1 97 V
1 -12 V
2 25 V
1 164 V
1 -188 V
1 69 V
1 -155 V
2 6 V
1 51 V
1 10 V
1 -41 V
1 -25 V
2 25 V
1 -5 V
1 86 V
1 -7 V
2 -73 V
1 24 V
1 86 V
1 -108 V
1 0 V
2 107 V
1 50 V
1 -184 V
1 78 V
1 -34 V
2 319 V
1 -293 V
1 -14 V
stroke 1544 507 M
1 -7 V
1 -2 V
2 116 V
1 -93 V
1 138 V
1 -207 V
2 103 V
1 -41 V
1 -41 V
1 58 V
1 -76 V
2 44 V
1 35 V
1 -63 V
1 237 V
1 -250 V
2 49 V
1 40 V
1 -43 V
1 -37 V
2 117 V
1 -63 V
1 -13 V
1 37 V
1 182 V
2 -217 V
1 72 V
1 -64 V
1 -11 V
1 165 V
2 -13 V
1 -189 V
1 8 V
1 -20 V
1 4 V
2 119 V
1 -60 V
1 -46 V
1 105 V
2 -89 V
1 132 V
1 70 V
1 -171 V
1 23 V
2 -29 V
1 -58 V
1 4 V
1 60 V
1 -40 V
2 148 V
1 -149 V
1 18 V
1 151 V
2 -171 V
1 3 V
1 -27 V
1 65 V
1 -68 V
2 15 V
1 24 V
1 -39 V
1 21 V
1 2 V
2 167 V
1 -169 V
1 69 V
1 163 V
1 -228 V
2 -18 V
1 167 V
1 -112 V
1 -64 V
2 121 V
1 -111 V
1 88 V
1 41 V
1 4 V
2 -110 V
1 147 V
1 -162 V
1 211 V
1 -158 V
2 12 V
1 -66 V
1 13 V
1 187 V
2 -116 V
1 -92 V
1 193 V
1 -175 V
1 85 V
2 -113 V
1 84 V
1 15 V
1 -91 V
1 1 V
2 250 V
1 -251 V
1 143 V
1 -118 V
1 50 V
2 -14 V
1 -61 V
1 75 V
stroke 1670 532 M
1 -24 V
2 -49 V
1 20 V
1 275 V
1 -241 V
1 59 V
2 9 V
1 -90 V
1 -31 V
1 -12 V
1 5 V
2 19 V
1 -2 V
1 18 V
1 -8 V
2 -4 V
1 93 V
1 -109 V
1 89 V
1 -101 V
2 100 V
1 28 V
1 -114 V
1 196 V
1 -181 V
2 55 V
1 -81 V
1 55 V
1 60 V
1 -75 V
2 -42 V
1 100 V
1 -79 V
1 -3 V
2 15 V
1 -22 V
1 55 V
1 86 V
1 -129 V
2 249 V
1 -100 V
1 -135 V
1 -36 V
1 56 V
2 -28 V
1 202 V
1 -163 V
1 186 V
2 -249 V
1 50 V
1 -3 V
1 28 V
1 -15 V
2 -52 V
1 42 V
1 -44 V
1 44 V
1 -29 V
2 3 V
1 2 V
1 18 V
1 2 V
1 -14 V
2 53 V
1 -77 V
1 41 V
1 112 V
2 -86 V
1 -29 V
1 163 V
1 -170 V
1 59 V
2 163 V
1 -103 V
1 -112 V
1 -37 V
1 355 V
2 -111 V
1 -247 V
1 68 V
1 -68 V
2 61 V
1 27 V
1 -10 V
1 7 V
1 -90 V
2 83 V
1 -52 V
1 12 V
1 -43 V
1 46 V
2 -43 V
1 108 V
1 -118 V
1 52 V
1 -52 V
2 54 V
1 -19 V
1 61 V
1 -72 V
2 192 V
1 -204 V
1 46 V
1 -28 V
stroke 1796 478 M
1 31 V
2 205 V
1 -265 V
1 12 V
1 260 V
1 -252 V
2 -20 V
1 38 V
1 23 V
1 73 V
2 -93 V
1 -41 V
1 104 V
1 -57 V
1 38 V
2 -68 V
1 2 V
1 17 V
1 -14 V
1 47 V
2 -15 V
1 -13 V
1 -36 V
1 4 V
1 42 V
2 -49 V
1 20 V
1 51 V
1 -64 V
2 -3 V
1 93 V
1 -87 V
1 5 V
1 48 V
2 -63 V
1 228 V
1 -217 V
1 39 V
1 60 V
2 -100 V
1 -2 V
1 2 V
1 15 V
2 50 V
1 3 V
1 12 V
1 70 V
1 -156 V
2 -3 V
1 59 V
1 61 V
1 -32 V
1 51 V
2 -104 V
1 29 V
1 -57 V
1 -7 V
1 1 V
2 3 V
1 80 V
1 102 V
1 -151 V
2 -13 V
1 -12 V
1 19 V
1 -19 V
1 279 V
2 -207 V
1 -38 V
1 -11 V
1 1 V
1 1 V
2 110 V
1 0 V
1 -19 V
1 -60 V
2 -46 V
1 70 V
1 -77 V
1 56 V
1 76 V
2 97 V
1 -232 V
1 55 V
1 -61 V
1 4 V
2 5 V
1 -3 V
1 153 V
1 -106 V
1 -49 V
2 2 V
1 22 V
1 -23 V
1 44 V
2 144 V
1 -118 V
1 -20 V
1 -44 V
1 10 V
2 9 V
1 105 V
1 -45 V
1 -14 V
stroke 1922 532 M
1 -76 V
2 71 V
1 -72 V
1 89 V
1 -44 V
2 -25 V
1 3 V
1 22 V
1 174 V
1 -105 V
2 -44 V
1 189 V
1 -123 V
1 -139 V
1 324 V
2 -313 V
1 -13 V
1 72 V
1 -24 V
1 -20 V
2 84 V
1 -36 V
1 -55 V
1 96 V
2 -44 V
1 33 V
1 62 V
1 -98 V
1 12 V
2 71 V
1 86 V
1 -69 V
1 -80 V
1 -78 V
2 347 V
1 -72 V
1 -178 V
1 113 V
2 -63 V
1 11 V
1 -170 V
1 11 V
1 61 V
2 104 V
1 -158 V
1 82 V
1 29 V
1 -81 V
2 -43 V
1 192 V
1 -166 V
1 -17 V
1 14 V
2 48 V
1 -39 V
1 -9 V
1 -7 V
2 45 V
1 65 V
1 48 V
1 -170 V
1 -4 V
2 22 V
1 123 V
1 -142 V
1 404 V
1 -398 V
2 84 V
1 -16 V
1 -61 V
1 -10 V
2 29 V
1 -28 V
1 145 V
1 -79 V
1 -71 V
2 70 V
1 131 V
1 -204 V
1 83 V
1 41 V
2 14 V
1 -137 V
1 116 V
1 -45 V
1 18 V
2 -39 V
1 -47 V
1 54 V
1 -23 V
2 10 V
1 -33 V
1 24 V
1 -39 V
1 91 V
2 85 V
1 -113 V
1 -25 V
1 17 V
1 -44 V
2 164 V
1 -162 V
1 76 V
1 -52 V
stroke 2048 488 M
2 -28 V
1 33 V
1 35 V
1 -53 V
1 10 V
2 50 V
1 -86 V
1 82 V
1 -77 V
1 4 V
2 -10 V
1 35 V
1 87 V
1 -104 V
1 9 V
2 -2 V
1 145 V
1 -146 V
1 36 V
2 -44 V
1 -5 V
1 98 V
1 -97 V
1 1 V
2 57 V
1 -30 V
1 -8 V
1 220 V
1 -212 V
2 9 V
1 -22 V
1 3 V
1 -20 V
2 24 V
1 23 V
1 62 V
1 -96 V
1 33 V
2 -16 V
1 72 V
1 -97 V
1 37 V
1 4 V
2 -30 V
1 44 V
1 -61 V
1 17 V
1 130 V
2 -110 V
1 65 V
1 -15 V
1 -71 V
2 -17 V
1 11 V
1 124 V
1 -116 V
1 6 V
2 335 V
1 -346 V
1 15 V
1 -5 V
1 62 V
2 -52 V
1 -8 V
1 14 V
1 -47 V
2 29 V
1 31 V
1 167 V
1 -141 V
1 64 V
2 -129 V
1 17 V
1 -23 V
1 67 V
1 -82 V
2 18 V
1 98 V
1 -71 V
1 -43 V
1 25 V
2 13 V
1 -40 V
1 53 V
1 -14 V
2 9 V
1 9 V
1 -56 V
1 34 V
1 -22 V
2 133 V
1 -12 V
1 -94 V
1 -39 V
1 28 V
2 -27 V
1 50 V
1 74 V
1 -72 V
2 -54 V
1 26 V
1 20 V
1 -36 V
1 -2 V
stroke 2174 457 M
2 153 V
1 -139 V
1 56 V
1 12 V
1 -85 V
2 167 V
1 -123 V
1 41 V
1 -11 V
1 -69 V
2 25 V
1 -7 V
1 91 V
1 -89 V
2 10 V
1 -9 V
1 106 V
1 -125 V
1 172 V
2 29 V
1 -197 V
1 -10 V
1 60 V
1 -44 V
2 -17 V
1 339 V
1 -339 V
1 207 V
2 -203 V
1 46 V
1 319 V
1 -341 V
1 -19 V
2 2 V
1 -3 V
1 40 V
1 -27 V
1 40 V
2 5 V
1 -66 V
1 120 V
1 -71 V
2 14 V
1 -64 V
1 26 V
1 -23 V
1 76 V
2 18 V
1 -59 V
1 7 V
1 -18 V
1 15 V
2 -14 V
1 113 V
1 -22 V
1 -23 V
1 -94 V
2 42 V
1 75 V
1 -124 V
1 37 V
2 -32 V
1 40 V
1 -25 V
1 257 V
1 -160 V
2 -93 V
1 107 V
1 -74 V
1 40 V
1 -42 V
2 -32 V
1 69 V
1 -82 V
1 -2 V
2 4 V
1 139 V
1 -77 V
1 49 V
1 411 V
2 -496 V
1 54 V
1 15 V
1 -92 V
1 -8 V
2 116 V
1 38 V
1 -155 V
1 19 V
1 63 V
2 -61 V
1 -21 V
1 111 V
1 -87 V
2 47 V
1 -27 V
1 -1 V
1 37 V
1 54 V
2 -24 V
1 -101 V
1 188 V
1 -21 V
1 -181 V
stroke 2300 449 M
2 57 V
1 -19 V
1 75 V
1 88 V
2 -175 V
1 -8 V
1 0 V
1 37 V
1 37 V
2 -31 V
1 100 V
1 -138 V
1 -13 V
1 -2 V
2 20 V
1 11 V
1 66 V
1 -95 V
1 238 V
2 -239 V
1 0 V
1 140 V
1 -124 V
2 60 V
1 -67 V
1 582 V
1 -598 V
1 50 V
2 19 V
1 155 V
1 -221 V
1 88 V
1 -81 V
2 80 V
1 108 V
1 -59 V
1 -128 V
2 2 V
1 143 V
1 100 V
1 -208 V
1 135 V
2 -181 V
1 79 V
1 -71 V
1 102 V
1 -69 V
2 94 V
1 -85 V
1 -32 V
1 83 V
1 -19 V
2 -80 V
1 66 V
1 -56 V
1 61 V
2 28 V
1 18 V
1 -102 V
1 56 V
1 -3 V
2 -7 V
1 -59 V
1 120 V
1 87 V
1 -126 V
2 -29 V
1 47 V
1 -56 V
1 -47 V
2 3 V
1 81 V
1 -5 V
1 19 V
1 70 V
2 -149 V
1 -13 V
1 51 V
1 23 V
1 -78 V
2 214 V
1 0 V
1 -152 V
1 -68 V
1 59 V
2 -27 V
1 9 V
1 142 V
1 -171 V
2 41 V
1 0 V
1 -30 V
1 88 V
1 -4 V
2 -67 V
1 -17 V
1 -13 V
1 141 V
1 -66 V
2 24 V
1 82 V
1 -85 V
1 -85 V
2 -22 V
stroke 2427 448 M
1 131 V
1 130 V
1 -241 V
1 55 V
2 163 V
1 -193 V
1 28 V
1 -21 V
1 10 V
2 -57 V
1 6 V
1 32 V
1 77 V
1 98 V
2 -128 V
1 15 V
1 -95 V
1 47 V
2 2 V
1 -39 V
1 11 V
1 20 V
1 -45 V
2 2 V
1 43 V
1 -42 V
1 46 V
1 -53 V
2 32 V
1 72 V
1 -102 V
1 67 V
2 -56 V
1 -10 V
1 57 V
1 -46 V
1 55 V
2 -34 V
1 -1 V
1 -21 V
1 23 V
1 171 V
2 -142 V
1 -40 V
1 159 V
1 -140 V
1 124 V
2 -48 V
1 -75 V
1 -16 V
1 220 V
2 -246 V
1 2 V
1 41 V
1 324 V
1 -135 V
2 -110 V
1 -51 V
1 -14 V
1 -12 V
1 81 V
2 -113 V
1 -2 V
1 -2 V
1 4 V
2 92 V
1 -69 V
1 79 V
1 -43 V
1 -55 V
2 -7 V
1 123 V
1 -122 V
1 -14 V
1 171 V
2 -54 V
1 -106 V
1 195 V
1 -120 V
1 24 V
2 150 V
1 -222 V
1 117 V
1 -73 V
2 -17 V
1 -34 V
1 18 V
1 20 V
1 -50 V
2 -13 V
1 61 V
1 -64 V
1 28 V
1 -10 V
2 -12 V
1 98 V
1 -10 V
1 -54 V
2 -5 V
1 105 V
1 -98 V
1 -20 V
1 47 V
2 49 V
stroke 2553 571 M
1 12 V
1 27 V
1 -40 V
1 43 V
2 -162 V
1 129 V
1 91 V
1 -128 V
1 -84 V
2 7 V
1 -10 V
1 38 V
1 -42 V
2 259 V
1 -235 V
1 11 V
1 10 V
1 -27 V
2 96 V
1 -19 V
1 -38 V
1 112 V
1 9 V
2 -172 V
1 74 V
1 -8 V
1 -1 V
2 8 V
1 -8 V
1 -64 V
1 76 V
1 -56 V
2 9 V
1 57 V
1 55 V
1 -27 V
1 -60 V
2 91 V
1 -122 V
1 -22 V
1 285 V
1 -292 V
2 24 V
1 22 V
1 -45 V
1 36 V
2 -40 V
1 18 V
1 75 V
1 -10 V
1 -49 V
2 -32 V
1 255 V
1 -155 V
1 -32 V
1 -62 V
2 56 V
1 -38 V
1 65 V
1 -44 V
2 97 V
1 -134 V
1 22 V
1 151 V
1 -162 V
2 29 V
1 -23 V
1 436 V
1 -426 V
1 30 V
2 -40 V
1 -25 V
1 18 V
1 17 V
1 9 V
2 -47 V
1 34 V
1 -16 V
1 0 V
2 6 V
1 22 V
1 -37 V
1 92 V
1 44 V
2 -85 V
1 291 V
1 -228 V
1 -43 V
1 434 V
2 -482 V
1 21 V
1 -38 V
1 103 V
2 34 V
1 -67 V
1 98 V
1 -137 V
1 -25 V
2 65 V
1 39 V
1 50 V
1 -161 V
1 25 V
2 86 V
stroke 2679 574 M
1 40 V
1 -89 V
1 24 V
1 -20 V
2 -47 V
1 -13 V
1 19 V
1 -14 V
2 36 V
1 -21 V
1 19 V
1 -26 V
1 -1 V
2 -22 V
1 103 V
1 7 V
1 -63 V
1 -55 V
2 54 V
1 -19 V
1 67 V
1 -103 V
2 56 V
1 13 V
1 134 V
1 -172 V
1 200 V
2 -195 V
1 36 V
1 -36 V
1 -31 V
1 15 V
2 77 V
1 -40 V
1 -29 V
1 203 V
1 -174 V
2 -33 V
1 0 V
1 16 V
1 -16 V
2 28 V
1 -12 V
1 107 V
1 -118 V
1 71 V
2 -82 V
1 92 V
1 -86 V
1 3 V
1 -26 V
2 9 V
1 164 V
1 -169 V
1 15 V
2 150 V
1 -153 V
1 342 V
1 -329 V
1 20 V
2 13 V
1 -48 V
1 146 V
1 -130 V
1 123 V
2 -116 V
1 21 V
1 -49 V
1 -12 V
1 103 V
2 -38 V
1 -61 V
1 62 V
1 38 V
2 26 V
1 -105 V
1 166 V
1 -147 V
1 -4 V
2 -20 V
1 8 V
1 56 V
1 -43 V
1 22 V
2 -38 V
1 4 V
1 -8 V
1 -15 V
2 55 V
1 6 V
1 24 V
1 -30 V
1 -36 V
2 -14 V
1 114 V
1 -13 V
1 -20 V
1 -20 V
2 -45 V
1 168 V
1 -177 V
1 0 V
1 41 V
2 -32 V
stroke 2805 475 M
1 -18 V
1 19 V
1 181 V
2 -44 V
1 -145 V
1 111 V
1 -84 V
1 -28 V
2 22 V
1 -24 V
1 169 V
1 -159 V
1 -22 V
2 12 V
1 -10 V
1 68 V
1 31 V
2 -53 V
1 55 V
1 32 V
1 -85 V
1 -31 V
2 0 V
1 -12 V
1 21 V
1 283 V
1 -210 V
2 -63 V
1 -14 V
1 121 V
1 -85 V
1 -13 V
2 111 V
1 70 V
1 -209 V
1 11 V
2 210 V
1 -78 V
1 -164 V
1 23 V
1 -15 V
2 184 V
1 -158 V
1 0 V
1 146 V
1 -181 V
2 31 V
1 47 V
1 -19 V
1 -27 V
2 93 V
1 -74 V
1 -11 V
1 -40 V
1 41 V
2 -25 V
1 39 V
1 -32 V
1 34 V
1 159 V
2 -58 V
1 64 V
1 -157 V
1 -65 V
1 63 V
2 -37 V
1 4 V
1 127 V
1 -128 V
2 18 V
1 -48 V
1 82 V
1 -50 V
1 28 V
2 48 V
1 -108 V
1 81 V
1 -76 V
1 30 V
2 24 V
1 -11 V
1 -35 V
1 59 V
2 195 V
1 -149 V
1 86 V
1 -7 V
1 -173 V
2 6 V
1 -29 V
1 89 V
1 -53 V
1 55 V
2 -29 V
1 -36 V
1 37 V
1 -23 V
1 58 V
2 133 V
1 -187 V
1 -33 V
1 4 V
2 84 V
1 123 V
stroke 2931 672 M
1 -209 V
1 15 V
1 -30 V
2 27 V
1 67 V
1 165 V
1 -224 V
1 71 V
2 165 V
1 -223 V
1 -27 V
1 54 V
2 15 V
1 -4 V
1 -86 V
1 92 V
1 11 V
2 74 V
1 -173 V
1 30 V
1 28 V
1 -54 V
2 5 V
1 -8 V
1 41 V
1 89 V
1 -104 V
2 31 V
1 -53 V
1 -2 V
1 130 V
2 25 V
1 -58 V
1 48 V
1 -139 V
1 124 V
2 72 V
1 -174 V
1 60 V
1 -50 V
1 22 V
2 -38 V
1 60 V
1 -11 V
1 -68 V
2 39 V
1 -35 V
1 -10 V
1 7 V
1 -1 V
2 43 V
1 -27 V
1 72 V
1 -52 V
1 -45 V
2 5 V
1 81 V
1 -64 V
1 -9 V
1 15 V
2 102 V
1 -76 V
1 107 V
1 -157 V
2 34 V
1 -25 V
1 112 V
1 -54 V
1 78 V
2 -115 V
1 11 V
1 50 V
1 -56 V
1 27 V
2 3 V
1 -23 V
1 -38 V
1 31 V
2 -33 V
1 59 V
1 11 V
1 -24 V
1 -32 V
2 144 V
1 -45 V
1 -43 V
1 -15 V
1 -6 V
2 -21 V
1 305 V
1 -339 V
1 37 V
1 -27 V
2 30 V
1 -13 V
1 23 V
1 -38 V
2 145 V
1 -145 V
1 8 V
1 8 V
1 53 V
2 -22 V
1 -39 V
stroke 3057 469 M
1 147 V
1 -36 V
1 -95 V
2 30 V
1 86 V
1 -130 V
1 -14 V
2 141 V
1 -133 V
1 122 V
1 -67 V
1 64 V
2 -86 V
1 13 V
1 51 V
1 -80 V
1 382 V
2 -337 V
1 -35 V
1 7 V
1 29 V
2 -22 V
1 45 V
1 -39 V
1 141 V
1 -65 V
2 -137 V
1 108 V
1 -90 V
1 49 V
1 -39 V
2 -17 V
1 144 V
1 -55 V
1 -57 V
1 -3 V
2 70 V
1 -96 V
1 300 V
1 -185 V
2 -105 V
1 23 V
1 -35 V
1 30 V
1 134 V
2 -117 V
1 -45 V
1 -13 V
1 0 V
1 131 V
2 10 V
1 -78 V
1 -21 V
1 -13 V
2 -13 V
1 -3 V
1 38 V
1 -9 V
1 42 V
2 -36 V
1 108 V
1 6 V
1 -139 V
1 38 V
2 72 V
1 -125 V
1 1 V
1 3 V
1 -1 V
2 -6 V
1 38 V
1 -36 V
1 9 V
2 88 V
1 -96 V
1 101 V
1 27 V
1 -78 V
2 107 V
1 -88 V
1 -23 V
1 -31 V
1 10 V
2 -1 V
1 -8 V
1 9 V
1 70 V
2 50 V
1 -91 V
1 -47 V
1 54 V
1 -50 V
2 69 V
1 85 V
1 -157 V
1 306 V
1 -286 V
2 4 V
1 -9 V
1 16 V
1 2 V
1 -41 V
2 -5 V
1 61 V
stroke 3183 516 M
1 149 V
1 -3 V
2 54 V
1 -245 V
1 -16 V
1 1 V
1 6 V
2 23 V
1 58 V
1 34 V
1 -89 V
1 175 V
2 -190 V
1 21 V
1 -45 V
1 80 V
2 -55 V
1 1 V
1 10 V
1 13 V
1 -10 V
2 44 V
1 -81 V
1 22 V
1 24 V
1 -32 V
2 34 V
1 -26 V
1 58 V
1 -53 V
1 132 V
2 -123 V
1 33 V
1 -51 V
1 185 V
2 -178 V
1 151 V
1 -57 V
1 206 V
1 -302 V
2 45 V
1 186 V
1 -195 V
1 -60 V
1 86 V
2 1 V
1 -65 V
1 161 V
1 -131 V
2 1 V
1 -48 V
1 29 V
1 20 V
1 -55 V
2 57 V
1 313 V
1 -298 V
1 -69 V
1 78 V
2 -16 V
1 -53 V
1 64 V
1 29 V
1 -12 V
2 38 V
1 5 V
1 -48 V
1 -84 V
2 346 V
1 -310 V
1 -8 V
1 167 V
1 -194 V
2 9 V
1 -5 V
1 -1 V
1 113 V
1 35 V
2 -67 V
1 106 V
1 122 V
1 -181 V
2 -87 V
1 25 V
1 2 V
1 10 V
1 13 V
2 -98 V
1 98 V
1 12 V
1 28 V
1 -134 V
2 37 V
1 -29 V
1 17 V
1 -7 V
1 -15 V
2 35 V
1 -14 V
1 -24 V
1 -2 V
2 25 V
1 161 V
1 -115 V
stroke 3309 523 M
1 -30 V
1 4 V
2 38 V
1 -84 V
1 92 V
1 -2 V
1 -48 V
2 -17 V
1 -11 V
1 -14 V
1 123 V
2 38 V
1 -121 V
1 3 V
1 -41 V
1 31 V
2 205 V
1 -236 V
1 30 V
1 20 V
1 135 V
2 -181 V
1 65 V
1 -64 V
1 9 V
1 105 V
2 -73 V
1 20 V
1 -20 V
1 -28 V
2 50 V
1 130 V
1 -160 V
1 44 V
1 95 V
2 -29 V
1 -12 V
1 -84 V
1 7 V
1 -22 V
2 -41 V
1 36 V
1 29 V
1 143 V
2 -139 V
1 216 V
1 -284 V
1 48 V
1 10 V
2 -53 V
1 28 V
1 44 V
1 -73 V
1 204 V
2 -93 V
1 -90 V
1 -10 V
1 79 V
1 -41 V
2 -48 V
1 58 V
1 -25 V
1 50 V
2 63 V
1 -145 V
1 66 V
1 -69 V
1 131 V
2 7 V
1 -108 V
1 -16 V
1 6 V
1 -20 V
2 4 V
1 114 V
1 72 V
1 -136 V
2 -39 V
1 172 V
1 -171 V
1 20 V
1 -28 V
2 -9 V
1 6 V
1 502 V
1 -503 V
1 239 V
2 3830 V
1 -3989 V
1 -16 V
1 602 V
1 -618 V
2 -55 V
1 239 V
1 -165 V
1 46 V
2 -66 V
1 -43 V
1 252 V
1 -243 V
1 39 V
2 -5 V
1 -31 V
1 96 V
stroke 3435 569 M
1 -108 V
1 -8 V
2 7 V
1 14 V
1 22 V
1 -33 V
2 3 V
1 -14 V
1 90 V
1 43 V
1 9 V
2 -32 V
1 1 V
1 -58 V
1 19 V
1 -75 V
2 57 V
1 -55 V
1 26 V
1 -27 V
1 62 V
2 -26 V
1 47 V
1 -43 V
1 -17 V
2 117 V
1 -100 V
1 -31 V
1 -4 V
1 -2 V
2 16 V
1 48 V
1 -12 V
1 -47 V
1 44 V
2 -26 V
1 156 V
1 -169 V
1 195 V
2 12 V
1 -80 V
1 -119 V
1 -9 V
1 102 V
2 59 V
1 -151 V
1 -3 V
1 42 V
1 25 V
2 -12 V
1 -58 V
1 181 V
1 -71 V
1 -124 V
2 1 V
1 43 V
1 -39 V
1 221 V
2 -220 V
1 69 V
1 -22 V
1 -11 V
1 -46 V
2 26 V
1 85 V
1 -81 V
1 114 V
1 17 V
2 -155 V
1 48 V
1 72 V
1 -98 V
2 19 V
1 42 V
1 -80 V
1 23 V
1 -27 V
2 -2 V
1 76 V
1 -54 V
1 53 V
1 17 V
2 -74 V
1 98 V
1 -104 V
1 -2 V
1 42 V
2 -52 V
1 38 V
1 55 V
1 -58 V
2 -37 V
1 8 V
1 239 V
1 -199 V
1 -20 V
2 46 V
1 104 V
1 -66 V
1 29 V
1 -65 V
2 -16 V
1 -2 V
1 -7 V
stroke 3561 500 M
1 -25 V
2 10 V
1 27 V
1 -43 V
1 8 V
1 21 V
2 88 V
1 -85 V
1 -22 V
1 35 V
1 17 V
2 122 V
1 -199 V
1 1 V
1 156 V
1 -149 V
2 51 V
1 13 V
1 -34 V
1 120 V
2 -98 V
1 57 V
1 3 V
1 105 V
1 -230 V
2 74 V
1 -46 V
1 34 V
1 83 V
1 -120 V
2 29 V
1 -54 V
1 52 V
1 -51 V
2 45 V
1 -3 V
1 86 V
1 -74 V
1 10 V
2 50 V
1 -108 V
1 36 V
1 3 V
1 -31 V
2 29 V
1 408 V
1 -438 V
1 152 V
1 -127 V
2 -33 V
1 36 V
1 20 V
1 212 V
2 -252 V
1 -4 V
1 -10 V
1 68 V
1 -53 V
2 55 V
1 22 V
1 -69 V
1 163 V
1 -138 V
2 41 V
1 188 V
1 -252 V
1 -12 V
2 5 V
1 -10 V
1 59 V
1 -17 V
1 -41 V
2 124 V
1 142 V
1 -276 V
1 0 V
1 15 V
2 15 V
1 18 V
1 -34 V
1 -18 V
1 -2 V
2 60 V
1 -36 V
1 -26 V
1 46 V
2 -27 V
1 -8 V
1 5 V
1 14 V
1 104 V
2 56 V
1 -97 V
1 -14 V
1 -73 V
1 63 V
2 -69 V
1 39 V
1 42 V
1 9 V
2 47 V
1 53 V
1 -63 V
1 -32 V
stroke 3687 543 M
1 -51 V
2 -8 V
1 -32 V
1 23 V
1 -3 V
1 41 V
2 12 V
1 -76 V
1 37 V
1 227 V
1 -82 V
2 -183 V
1 194 V
1 -145 V
1 94 V
2 31 V
1 -161 V
1 102 V
1 -112 V
1 202 V
2 -97 V
1 -62 V
1 141 V
1 -70 V
1 -111 V
2 117 V
1 -59 V
1 -4 V
1 14 V
2 44 V
1 -106 V
1 65 V
1 10 V
1 -80 V
2 22 V
1 -28 V
1 12 V
1 137 V
1 -127 V
2 62 V
1 38 V
1 -94 V
1 25 V
1 -37 V
2 24 V
1 83 V
1 -111 V
1 0 V
2 -7 V
1 61 V
1 -20 V
1 257 V
1 -303 V
2 20 V
1 168 V
1 -144 V
1 55 V
1 175 V
2 -98 V
1 1 V
1 -165 V
1 29 V
2 8 V
1 -10 V
1 -37 V
1 99 V
1 -84 V
2 75 V
1 -34 V
1 -37 V
1 30 V
1 110 V
2 -147 V
1 49 V
1 61 V
1 -101 V
1 -11 V
2 40 V
1 255 V
1 -260 V
1 -32 V
2 187 V
1 -30 V
1 -142 V
1 -28 V
1 30 V
2 36 V
1 -14 V
1 -54 V
1 32 V
1 11 V
2 45 V
1 -71 V
1 13 V
1 -21 V
2 7 V
1 74 V
1 -55 V
1 -16 V
1 -19 V
2 45 V
1 -31 V
1 30 V
1 -42 V
stroke 3813 451 M
1 19 V
2 51 V
1 111 V
1 -17 V
1 19 V
1 -166 V
2 -12 V
1 175 V
1 -121 V
1 -19 V
2 -17 V
1 2 V
1 -7 V
1 187 V
1 -196 V
2 120 V
1 39 V
1 -84 V
1 23 V
1 -87 V
2 143 V
1 -69 V
1 -49 V
1 1 V
2 -45 V
1 131 V
1 -115 V
1 61 V
1 -9 V
2 107 V
1 -37 V
1 -96 V
1 48 V
1 29 V
2 -104 V
1 109 V
1 215 V
1 -304 V
1 -22 V
2 -14 V
1 254 V
1 -247 V
1 104 V
2 98 V
1 -140 V
1 -72 V
1 99 V
1 87 V
2 -158 V
1 27 V
1 -13 V
1 -8 V
1 30 V
2 -40 V
1 240 V
1 -237 V
1 89 V
2 -103 V
1 17 V
1 10 V
1 -29 V
1 107 V
2 60 V
1 -132 V
1 -16 V
1 149 V
1 -123 V
2 -20 V
1 174 V
1 -103 V
1 -16 V
2 -90 V
1 90 V
1 16 V
1 103 V
1 -174 V
2 20 V
1 123 V
1 -149 V
1 16 V
1 132 V
2 -60 V
1 -107 V
1 29 V
1 -10 V
1 -17 V
2 103 V
1 -89 V
1 237 V
1 -240 V
2 40 V
1 -30 V
1 8 V
1 13 V
1 -27 V
2 158 V
1 -87 V
1 -99 V
1 72 V
1 140 V
2 -98 V
1 -104 V
1 247 V
1 -254 V
stroke 3939 451 M
2 14 V
1 22 V
1 304 V
1 -215 V
1 -109 V
2 104 V
1 -29 V
1 -48 V
1 96 V
1 37 V
2 -107 V
1 9 V
1 -61 V
1 115 V
1 -131 V
2 45 V
1 -1 V
1 49 V
1 69 V
2 -143 V
1 87 V
1 -23 V
1 84 V
1 -39 V
2 -120 V
1 196 V
1 -187 V
1 7 V
1 -2 V
2 17 V
1 19 V
1 121 V
1 -175 V
2 12 V
1 166 V
1 -19 V
1 17 V
1 -111 V
2 -51 V
1 -19 V
1 42 V
1 -30 V
1 31 V
2 -45 V
1 19 V
1 16 V
1 55 V
1 -74 V
2 -7 V
1 21 V
1 -13 V
1 71 V
2 -45 V
1 -11 V
1 -32 V
1 54 V
1 14 V
2 -36 V
1 -30 V
1 28 V
1 142 V
1 30 V
2 -187 V
1 32 V
1 260 V
1 -255 V
2 -40 V
1 11 V
1 101 V
1 -61 V
1 -49 V
2 147 V
1 -110 V
1 -30 V
1 37 V
1 34 V
2 -75 V
1 84 V
1 -99 V
1 37 V
1 10 V
2 -8 V
1 -29 V
1 165 V
1 -1 V
2 98 V
1 -175 V
1 -55 V
1 144 V
1 -168 V
2 -20 V
1 303 V
1 -257 V
1 20 V
1 -61 V
2 7 V
1 0 V
1 111 V
1 -83 V
2 -24 V
1 37 V
1 -25 V
1 94 V
1 -38 V
stroke 4065 533 M
2 -62 V
1 127 V
1 -137 V
1 -12 V
1 28 V
2 -22 V
1 80 V
1 -10 V
1 -65 V
1 106 V
2 -44 V
1 -14 V
1 4 V
1 59 V
2 -117 V
1 111 V
1 70 V
1 -141 V
1 62 V
2 97 V
1 -202 V
1 112 V
1 -102 V
1 161 V
2 -31 V
1 -94 V
1 145 V
1 -194 V
2 183 V
1 82 V
1 -227 V
1 -37 V
1 76 V
2 -12 V
1 -41 V
1 3 V
1 -23 V
1 32 V
2 8 V
1 51 V
1 32 V
1 63 V
1 -53 V
2 -47 V
1 -9 V
1 -42 V
1 -39 V
2 69 V
1 -63 V
1 73 V
1 14 V
1 97 V
2 -56 V
1 -104 V
1 -14 V
1 -5 V
1 8 V
2 27 V
1 -46 V
1 26 V
1 36 V
2 -60 V
1 2 V
1 18 V
1 34 V
1 -18 V
2 -15 V
1 -15 V
1 0 V
1 276 V
1 -142 V
2 -124 V
1 41 V
1 17 V
1 -59 V
1 10 V
2 -5 V
1 12 V
1 252 V
1 -188 V
2 -41 V
1 138 V
1 -163 V
1 69 V
1 -22 V
2 -55 V
1 53 V
1 -68 V
1 10 V
1 4 V
2 252 V
1 -212 V
1 -20 V
1 -36 V
2 33 V
1 127 V
1 -152 V
1 438 V
1 -408 V
2 -29 V
1 31 V
1 -3 V
1 -36 V
1 108 V
stroke 4191 564 M
2 -50 V
1 -10 V
1 74 V
1 -86 V
1 3 V
2 -45 V
1 51 V
1 -52 V
1 54 V
2 -29 V
1 120 V
1 -83 V
1 -34 V
1 46 V
2 -74 V
1 230 V
1 -105 V
1 -3 V
1 -57 V
2 98 V
1 -120 V
1 34 V
1 -13 V
2 -51 V
1 149 V
1 -156 V
1 -1 V
1 199 V
2 -122 V
1 -17 V
1 -35 V
1 22 V
1 85 V
2 -88 V
1 -21 V
1 -8 V
1 43 V
1 -27 V
2 -10 V
1 25 V
1 7 V
1 2 V
2 16 V
1 65 V
1 -29 V
1 66 V
1 -104 V
2 -46 V
1 20 V
1 199 V
1 -239 V
1 -8 V
2 37 V
1 58 V
1 -55 V
1 -38 V
2 52 V
1 -42 V
1 2 V
1 104 V
1 -98 V
2 74 V
1 -17 V
1 -53 V
1 54 V
1 -76 V
2 2 V
1 27 V
1 -23 V
1 80 V
1 -42 V
2 -19 V
1 98 V
1 -72 V
1 -48 V
2 155 V
1 -17 V
1 -114 V
1 81 V
1 -85 V
2 -26 V
1 46 V
1 11 V
1 22 V
1 -69 V
2 220 V
1 -221 V
1 39 V
1 -43 V
2 -1 V
1 124 V
1 71 V
1 -181 V
1 58 V
2 12 V
1 -25 V
1 -42 V
1 3 V
1 151 V
2 -59 V
1 -102 V
1 9 V
1 119 V
1 80 V
stroke 4317 670 M
2 -12 V
1 -195 V
1 169 V
1 -156 V
2 26 V
1 -44 V
1 47 V
1 12 V
1 -48 V
2 -16 V
1 2 V
1 4 V
1 31 V
1 100 V
2 -117 V
1 17 V
1 43 V
1 -47 V
2 26 V
1 -62 V
1 27 V
1 -26 V
1 55 V
2 -57 V
1 75 V
1 -19 V
1 58 V
1 -1 V
2 32 V
1 -9 V
1 -43 V
1 -90 V
1 14 V
2 -3 V
1 33 V
1 -22 V
1 -14 V
2 -7 V
1 8 V
1 108 V
1 -96 V
1 31 V
2 5 V
1 -39 V
1 243 V
1 -252 V
1 43 V
2 66 V
1 -46 V
1 165 V
1 -239 V
2 55 V
1 618 V
1 -602 V
1 16 V
1 3989 V
2 -3830 V
1 -239 V
1 503 V
1 -502 V
1 -6 V
2 9 V
1 28 V
1 -20 V
1 171 V
1 -172 V
2 39 V
1 136 V
1 -72 V
1 -114 V
2 -4 V
1 20 V
1 -6 V
1 16 V
1 108 V
2 -7 V
1 -131 V
1 69 V
1 -66 V
1 145 V
2 -63 V
1 -50 V
1 25 V
1 -58 V
2 48 V
1 41 V
1 -79 V
1 10 V
1 90 V
2 93 V
1 -204 V
1 73 V
1 -44 V
1 -28 V
2 53 V
1 -10 V
1 -48 V
1 284 V
1 -216 V
2 139 V
1 -143 V
1 -29 V
1 -36 V
2 41 V
stroke 4444 490 M
1 22 V
1 -7 V
1 84 V
1 12 V
2 29 V
1 -95 V
1 -44 V
1 160 V
1 -130 V
2 -50 V
1 28 V
1 20 V
1 -20 V
2 73 V
1 -105 V
1 -9 V
1 64 V
1 -65 V
2 181 V
1 -135 V
1 -20 V
1 -30 V
1 236 V
2 -205 V
1 -31 V
1 41 V
1 -3 V
1 121 V
2 -38 V
1 -123 V
1 14 V
1 11 V
2 17 V
1 48 V
1 2 V
1 -92 V
1 84 V
2 -38 V
1 -4 V
1 30 V
1 115 V
1 -161 V
2 -25 V
1 2 V
1 24 V
1 14 V
2 -35 V
1 15 V
1 7 V
1 -17 V
1 29 V
2 -37 V
1 134 V
1 -28 V
1 -12 V
1 -98 V
2 98 V
1 -13 V
1 -10 V
1 -2 V
1 -25 V
2 87 V
1 181 V
1 -122 V
1 -106 V
2 67 V
1 -35 V
1 -113 V
1 1 V
1 5 V
2 -9 V
1 194 V
1 -167 V
1 8 V
1 310 V
2 -346 V
1 84 V
1 48 V
1 -5 V
2 -38 V
1 12 V
1 -29 V
1 -64 V
1 53 V
2 16 V
1 -78 V
1 69 V
1 298 V
1 -313 V
2 -57 V
1 55 V
1 -20 V
1 -29 V
1 48 V
2 -1 V
1 131 V
1 -161 V
1 65 V
2 -1 V
1 -86 V
1 60 V
1 195 V
1 -186 V
2 -45 V
stroke 4570 474 M
1 302 V
1 -206 V
1 57 V
1 -151 V
2 178 V
1 -185 V
1 51 V
1 -33 V
2 123 V
1 -132 V
1 53 V
1 -58 V
1 26 V
2 -34 V
1 32 V
1 -24 V
1 -22 V
1 81 V
2 -44 V
1 10 V
1 -13 V
1 -10 V
1 -1 V
2 55 V
1 -80 V
1 45 V
1 -21 V
2 190 V
1 -175 V
1 89 V
1 -34 V
1 -58 V
2 -23 V
1 -6 V
1 -1 V
1 16 V
1 245 V
2 -54 V
1 3 V
1 -149 V
1 -61 V
2 5 V
1 41 V
1 -2 V
1 -16 V
1 9 V
2 -4 V
1 286 V
1 -306 V
1 157 V
1 -85 V
2 -69 V
1 50 V
1 -54 V
1 47 V
1 91 V
2 -50 V
1 -70 V
1 -9 V
1 8 V
2 1 V
1 -10 V
1 31 V
1 23 V
1 88 V
2 -107 V
1 78 V
1 -27 V
1 -101 V
1 96 V
2 -88 V
1 -9 V
1 36 V
1 -38 V
2 6 V
1 1 V
1 -3 V
1 -1 V
1 125 V
2 -72 V
1 -38 V
1 139 V
1 -6 V
1 -108 V
2 36 V
1 -42 V
1 9 V
1 -38 V
1 3 V
2 13 V
1 13 V
1 21 V
1 78 V
2 -10 V
1 -131 V
1 0 V
1 13 V
1 45 V
2 117 V
1 -134 V
1 -30 V
1 35 V
1 -23 V
2 105 V
stroke 4696 580 M
1 185 V
1 -300 V
1 96 V
2 -70 V
1 3 V
1 57 V
1 55 V
1 -144 V
2 17 V
1 39 V
1 -49 V
1 90 V
1 -108 V
2 137 V
1 65 V
1 -141 V
1 39 V
1 -45 V
2 22 V
1 -29 V
1 -7 V
1 35 V
2 337 V
1 -382 V
1 80 V
1 -51 V
1 -13 V
2 86 V
1 -64 V
1 67 V
1 -122 V
1 133 V
2 -141 V
1 14 V
1 130 V
1 -86 V
2 -30 V
1 95 V
1 36 V
1 -147 V
1 39 V
2 22 V
1 -53 V
1 -8 V
1 -8 V
1 145 V
2 -145 V
1 38 V
1 -23 V
1 13 V
2 -30 V
1 27 V
1 -37 V
1 339 V
1 -305 V
2 21 V
1 6 V
1 15 V
1 43 V
1 45 V
2 -144 V
1 32 V
1 24 V
1 -11 V
1 -59 V
2 33 V
1 -31 V
1 38 V
1 23 V
2 -3 V
1 -27 V
1 56 V
1 -50 V
1 -11 V
2 115 V
1 -78 V
1 54 V
1 -112 V
1 25 V
2 -34 V
1 157 V
1 -107 V
1 76 V
2 -102 V
1 -15 V
1 9 V
1 64 V
1 -81 V
2 -5 V
1 45 V
1 52 V
1 -72 V
1 27 V
2 -43 V
1 1 V
1 -7 V
1 10 V
1 35 V
2 -39 V
1 68 V
1 11 V
1 -60 V
2 38 V
1 -22 V
stroke 4822 493 M
1 50 V
1 -60 V
1 174 V
2 -72 V
1 -124 V
1 139 V
1 -48 V
1 58 V
2 -25 V
1 -130 V
1 2 V
1 53 V
2 -31 V
1 104 V
1 -89 V
1 -41 V
1 8 V
2 -5 V
1 54 V
1 -28 V
1 -30 V
1 173 V
2 -74 V
1 -11 V
1 -92 V
1 86 V
1 4 V
2 -15 V
1 -54 V
1 27 V
1 223 V
2 -165 V
1 -71 V
1 224 V
1 -165 V
1 -67 V
2 -27 V
1 30 V
1 -15 V
1 209 V
1 -123 V
2 -84 V
1 -4 V
1 33 V
1 187 V
2 -133 V
1 -58 V
1 23 V
1 -37 V
1 36 V
2 29 V
1 -55 V
1 53 V
1 -89 V
1 29 V
2 -6 V
1 173 V
1 7 V
1 -86 V
1 149 V
2 -195 V
1 -59 V
1 35 V
1 11 V
2 -24 V
1 -30 V
1 76 V
1 -81 V
1 108 V
2 -48 V
1 -28 V
1 50 V
1 -82 V
1 48 V
2 -18 V
1 128 V
1 -127 V
1 -4 V
2 37 V
1 -63 V
1 65 V
1 157 V
1 -64 V
2 58 V
1 -159 V
1 -34 V
1 32 V
1 -39 V
2 25 V
1 -41 V
1 40 V
1 11 V
1 74 V
2 -93 V
1 27 V
1 19 V
1 -47 V
2 -31 V
1 181 V
1 -146 V
1 0 V
1 158 V
2 -184 V
1 15 V
stroke 4948 474 M
1 -23 V
1 164 V
1 78 V
2 -210 V
1 -11 V
1 209 V
1 -70 V
2 -111 V
1 13 V
1 85 V
1 -121 V
1 14 V
2 63 V
1 210 V
1 -283 V
1 -21 V
1 12 V
2 0 V
1 31 V
1 85 V
1 -32 V
1 -55 V
2 53 V
1 -31 V
1 -68 V
1 10 V
2 -12 V
1 22 V
1 159 V
1 -169 V
1 24 V
2 -22 V
1 28 V
1 84 V
1 -111 V
1 145 V
2 44 V
1 -181 V
1 -19 V
1 18 V
2 32 V
1 -41 V
1 0 V
1 177 V
1 -168 V
2 45 V
1 20 V
1 20 V
1 13 V
1 -114 V
2 14 V
1 36 V
1 30 V
1 -24 V
1 -6 V
2 -55 V
1 15 V
1 8 V
1 -4 V
2 38 V
1 -22 V
1 43 V
1 -56 V
1 -8 V
2 20 V
1 4 V
1 147 V
1 -166 V
1 105 V
2 -26 V
1 -38 V
1 -62 V
1 61 V
2 38 V
1 -103 V
1 12 V
1 49 V
1 -21 V
2 116 V
1 -123 V
1 130 V
1 -146 V
1 48 V
2 -13 V
1 -20 V
1 329 V
1 -342 V
1 153 V
2 -150 V
1 -15 V
1 169 V
1 -164 V
2 -9 V
1 26 V
1 -3 V
1 86 V
1 -92 V
2 82 V
1 -71 V
1 118 V
1 -107 V
1 12 V
2 -28 V
1 16 V
stroke 5074 490 M
1 -16 V
1 0 V
2 33 V
1 174 V
1 -203 V
1 29 V
1 40 V
2 -77 V
1 -15 V
1 31 V
1 36 V
1 -36 V
2 195 V
1 -200 V
1 172 V
1 -134 V
1 -13 V
2 -56 V
1 103 V
1 -67 V
1 19 V
2 -54 V
1 55 V
1 63 V
1 -7 V
1 -103 V
2 22 V
1 1 V
1 26 V
1 -19 V
1 21 V
2 -36 V
1 14 V
1 -19 V
1 13 V
2 47 V
1 20 V
1 -24 V
1 89 V
1 -40 V
2 -86 V
1 -25 V
1 161 V
1 -50 V
1 -39 V
2 -65 V
1 25 V
1 137 V
1 -98 V
1 67 V
2 -34 V
1 -103 V
1 38 V
1 -21 V
2 482 V
1 -434 V
1 43 V
1 228 V
1 -291 V
2 85 V
1 -44 V
1 -92 V
1 37 V
1 -22 V
2 -6 V
1 0 V
1 16 V
1 -34 V
2 47 V
1 -9 V
1 -17 V
1 -18 V
1 25 V
2 40 V
1 -30 V
1 426 V
1 -436 V
1 23 V
2 -29 V
1 162 V
1 -151 V
1 -22 V
1 134 V
2 -97 V
1 44 V
1 -65 V
1 38 V
2 -56 V
1 62 V
1 32 V
1 155 V
1 -255 V
2 32 V
1 49 V
1 10 V
1 -75 V
1 -18 V
2 40 V
1 -36 V
1 45 V
1 -22 V
2 -24 V
1 292 V
1 -285 V
stroke 5200 460 M
1 22 V
1 122 V
2 -91 V
1 60 V
1 27 V
1 -55 V
1 -57 V
2 -9 V
1 56 V
1 -76 V
1 64 V
1 8 V
2 -8 V
1 1 V
1 8 V
1 -74 V
2 172 V
1 -9 V
1 -112 V
1 38 V
1 19 V
2 -96 V
1 27 V
1 -10 V
1 -11 V
1 235 V
2 -259 V
1 42 V
1 -38 V
1 10 V
2 -7 V
1 84 V
1 128 V
1 -91 V
1 -129 V
2 162 V
1 -43 V
1 40 V
1 -27 V
1 -12 V
2 -49 V
1 -47 V
1 20 V
1 98 V
1 -105 V
2 5 V
1 54 V
1 10 V
1 -98 V
2 12 V
1 10 V
1 -28 V
1 64 V
1 -61 V
2 13 V
1 50 V
1 -20 V
1 -18 V
1 34 V
2 17 V
1 73 V
1 -117 V
1 222 V
2 -150 V
1 -24 V
1 120 V
1 -195 V
1 106 V
2 54 V
1 -171 V
1 14 V
1 122 V
1 -123 V
2 7 V
1 55 V
1 43 V
1 -79 V
1 69 V
2 -92 V
1 -4 V
1 2 V
1 2 V
2 113 V
1 -81 V
1 12 V
1 14 V
1 51 V
2 110 V
1 135 V
1 -324 V
1 -41 V
1 -2 V
2 246 V
1 -220 V
1 16 V
1 75 V
2 48 V
1 -124 V
1 140 V
1 -159 V
1 40 V
2 142 V
1 -171 V
1 -23 V
stroke 5326 463 M
1 21 V
1 1 V
2 34 V
1 -55 V
1 46 V
1 -57 V
1 10 V
2 56 V
1 -67 V
1 102 V
1 -72 V
2 -32 V
1 53 V
1 -46 V
1 42 V
1 -43 V
2 -2 V
1 45 V
1 -20 V
1 -11 V
1 39 V
2 -2 V
1 -47 V
1 95 V
1 -15 V
2 128 V
1 -98 V
1 -77 V
1 -32 V
1 -6 V
2 57 V
1 -10 V
1 21 V
1 -28 V
1 193 V
2 -163 V
1 -55 V
1 241 V
1 -130 V
1 -131 V
2 22 V
1 85 V
1 85 V
1 -82 V
2 -24 V
1 66 V
1 -141 V
1 13 V
1 17 V
2 67 V
1 4 V
1 -88 V
1 30 V
1 0 V
2 -41 V
1 171 V
1 -142 V
1 -9 V
2 27 V
1 -59 V
1 68 V
1 152 V
1 0 V
2 -214 V
1 78 V
1 -23 V
1 -51 V
1 13 V
2 149 V
1 -70 V
1 -19 V
1 5 V
1 -81 V
2 -3 V
1 47 V
1 56 V
1 -47 V
2 29 V
1 126 V
1 -87 V
1 -120 V
1 59 V
2 7 V
1 3 V
1 -56 V
1 102 V
1 -18 V
2 -28 V
1 -61 V
1 56 V
1 -66 V
2 80 V
1 19 V
1 -83 V
1 32 V
1 85 V
2 -94 V
1 69 V
1 -102 V
1 71 V
1 -79 V
2 181 V
1 -135 V
1 208 V
stroke 5452 707 M
1 -100 V
1 -143 V
2 -2 V
1 128 V
1 59 V
1 -108 V
2 -80 V
1 81 V
1 -88 V
1 221 V
1 -155 V
2 -19 V
1 -50 V
1 598 V
1 -582 V
1 67 V
2 -60 V
1 124 V
1 -140 V
1 0 V
2 239 V
1 -238 V
1 95 V
1 -66 V
1 -11 V
2 -20 V
1 2 V
1 13 V
1 138 V
1 -100 V
2 31 V
1 -37 V
1 -37 V
1 0 V
1 8 V
2 175 V
1 -88 V
1 -75 V
1 19 V
2 -57 V
1 181 V
1 21 V
1 -188 V
1 101 V
2 24 V
1 -54 V
1 -37 V
1 1 V
1 27 V
2 -47 V
1 87 V
1 -111 V
1 21 V
2 61 V
1 -63 V
1 -19 V
1 155 V
1 -38 V
2 -116 V
1 8 V
1 92 V
1 -15 V
1 -54 V
2 496 V
1 -411 V
1 -49 V
1 77 V
1 -139 V
2 -4 V
1 2 V
1 82 V
1 -69 V
2 32 V
1 42 V
1 -40 V
1 74 V
1 -107 V
2 93 V
1 160 V
1 -257 V
1 25 V
1 -40 V
2 32 V
1 -37 V
1 124 V
1 -75 V
2 -42 V
1 94 V
1 23 V
1 22 V
1 -113 V
2 14 V
1 -15 V
1 18 V
1 -7 V
1 59 V
2 -18 V
1 -76 V
1 23 V
1 -26 V
1 64 V
2 -14 V
1 71 V
1 -120 V
stroke 5578 454 M
1 66 V
2 -5 V
1 -40 V
1 27 V
1 -40 V
1 3 V
2 -2 V
1 19 V
1 341 V
1 -319 V
1 -46 V
2 203 V
1 -207 V
1 339 V
1 -339 V
2 17 V
1 44 V
1 -60 V
1 10 V
1 197 V
2 -29 V
1 -172 V
1 125 V
1 -106 V
1 9 V
2 -10 V
1 89 V
1 -91 V
1 7 V
2 -25 V
1 69 V
1 11 V
1 -41 V
1 123 V
2 -167 V
1 85 V
1 -12 V
1 -56 V
1 139 V
2 -153 V
1 2 V
1 36 V
1 -20 V
1 -26 V
2 54 V
1 72 V
1 -74 V
1 -50 V
2 27 V
1 -28 V
1 39 V
1 94 V
1 12 V
2 -133 V
1 22 V
1 -34 V
1 56 V
1 -9 V
2 -9 V
1 14 V
1 -53 V
1 40 V
2 -13 V
1 -25 V
1 43 V
1 71 V
1 -98 V
2 -18 V
1 82 V
1 -67 V
1 23 V
1 -17 V
2 129 V
1 -64 V
1 141 V
1 -167 V
1 -31 V
2 -29 V
1 47 V
1 -14 V
1 8 V
2 52 V
1 -62 V
1 5 V
1 -15 V
1 346 V
2 -335 V
1 -6 V
1 116 V
1 -124 V
1 -11 V
2 17 V
1 71 V
1 15 V
1 -65 V
2 110 V
1 -130 V
1 -17 V
1 61 V
1 -44 V
2 30 V
1 -4 V
1 -37 V
1 97 V
stroke 5704 560 M
1 -72 V
2 16 V
1 -33 V
1 96 V
1 -62 V
1 -23 V
2 -24 V
1 20 V
1 -3 V
1 22 V
2 -9 V
1 212 V
1 -220 V
1 8 V
1 30 V
2 -57 V
1 -1 V
1 97 V
1 -98 V
1 5 V
2 44 V
1 -36 V
1 146 V
1 -145 V
2 2 V
1 -9 V
1 104 V
1 -87 V
1 -35 V
2 10 V
1 -4 V
1 77 V
1 -82 V
1 86 V
2 -50 V
1 -10 V
1 53 V
1 -35 V
1 -33 V
2 28 V
1 52 V
1 -76 V
1 162 V
2 -164 V
1 44 V
1 -17 V
1 25 V
1 113 V
2 -85 V
1 -91 V
1 39 V
1 -24 V
1 33 V
2 -10 V
1 23 V
1 -54 V
1 47 V
2 39 V
1 -18 V
1 45 V
1 -116 V
1 137 V
2 -14 V
1 -41 V
1 -83 V
1 204 V
1 -131 V
2 -70 V
1 71 V
1 79 V
1 -145 V
1 28 V
2 -29 V
1 10 V
1 61 V
1 16 V
2 -84 V
1 398 V
1 -404 V
1 142 V
1 -123 V
2 -22 V
1 4 V
1 170 V
1 -48 V
1 -65 V
2 -45 V
1 7 V
1 9 V
1 39 V
2 -48 V
1 -14 V
1 17 V
1 166 V
1 -192 V
2 43 V
1 81 V
1 -29 V
1 -82 V
1 158 V
2 -104 V
1 -61 V
1 -11 V
1 170 V
stroke 5830 620 M
1 -11 V
2 63 V
1 -113 V
1 178 V
1 72 V
2 -347 V
1 78 V
1 80 V
1 69 V
1 -86 V
2 -71 V
1 -12 V
1 98 V
1 -62 V
1 -33 V
2 44 V
1 -96 V
1 55 V
1 36 V
2 -84 V
1 20 V
1 24 V
1 -72 V
1 13 V
2 313 V
1 -324 V
1 139 V
1 123 V
1 -189 V
2 44 V
1 105 V
1 -174 V
1 -22 V
1 -3 V
2 25 V
1 44 V
1 -89 V
1 72 V
2 -71 V
1 76 V
1 14 V
1 45 V
1 -105 V
2 -9 V
1 -10 V
1 44 V
1 20 V
1 118 V
2 -144 V
1 -44 V
1 23 V
1 -22 V
2 -2 V
1 49 V
1 106 V
1 -153 V
1 3 V
2 -5 V
1 -4 V
1 61 V
1 -55 V
1 232 V
2 -97 V
1 -76 V
1 -56 V
1 77 V
1 -70 V
2 46 V
1 60 V
1 19 V
1 0 V
2 -110 V
1 -1 V
1 -1 V
1 11 V
1 38 V
2 207 V
1 -279 V
1 19 V
1 -19 V
1 12 V
2 13 V
1 151 V
1 -102 V
1 -80 V
2 -3 V
1 -1 V
1 7 V
1 57 V
1 -29 V
2 104 V
1 -51 V
1 32 V
1 -61 V
1 -59 V
2 3 V
1 156 V
1 -70 V
1 -12 V
1 -3 V
2 -50 V
1 -15 V
1 -2 V
1 2 V
stroke 5956 461 M
2 100 V
1 -60 V
1 -39 V
1 217 V
1 -228 V
2 63 V
1 -48 V
1 -5 V
1 87 V
1 -93 V
2 3 V
1 64 V
1 -51 V
1 -20 V
2 49 V
1 -42 V
1 -4 V
1 36 V
1 13 V
2 15 V
1 -47 V
1 14 V
1 -17 V
1 -2 V
2 68 V
1 -38 V
1 57 V
1 -104 V
1 41 V
2 93 V
1 -73 V
1 -23 V
1 -38 V
2 20 V
1 252 V
1 -260 V
1 -12 V
1 265 V
2 -205 V
1 -31 V
1 28 V
1 -46 V
1 204 V
2 -192 V
1 72 V
1 -61 V
1 19 V
2 -54 V
1 52 V
1 -52 V
1 118 V
1 -108 V
2 43 V
1 -46 V
1 43 V
1 -12 V
1 52 V
2 -83 V
1 90 V
1 -7 V
1 10 V
1 -27 V
2 -61 V
1 68 V
1 -68 V
1 247 V
2 111 V
1 -355 V
1 37 V
1 112 V
1 103 V
2 -163 V
1 -59 V
1 170 V
1 -163 V
1 29 V
2 86 V
1 -112 V
1 -41 V
1 77 V
2 -53 V
1 14 V
1 -2 V
1 -18 V
1 -2 V
2 -3 V
1 29 V
1 -44 V
1 44 V
1 -42 V
2 52 V
1 15 V
1 -28 V
1 3 V
1 -50 V
2 249 V
1 -186 V
1 163 V
1 -202 V
2 28 V
1 -56 V
1 36 V
1 135 V
1 100 V
stroke 6082 721 M
2 -249 V
1 129 V
1 -86 V
1 -55 V
1 22 V
2 -15 V
1 3 V
1 79 V
1 -100 V
2 42 V
1 75 V
1 -60 V
1 -55 V
1 81 V
2 -55 V
1 181 V
1 -196 V
1 114 V
1 -28 V
2 -100 V
1 101 V
1 -89 V
1 109 V
1 -93 V
2 4 V
1 8 V
1 -18 V
1 2 V
2 -19 V
1 -5 V
1 12 V
1 31 V
1 90 V
2 -9 V
1 -59 V
1 241 V
1 -275 V
1 -20 V
2 49 V
1 24 V
1 -75 V
1 61 V
2 14 V
1 -50 V
1 118 V
1 -143 V
1 251 V
2 -250 V
1 -1 V
1 91 V
1 -15 V
1 -84 V
2 113 V
1 -85 V
1 175 V
1 -193 V
1 92 V
2 116 V
1 -187 V
1 -13 V
1 66 V
2 -12 V
1 158 V
1 -211 V
1 162 V
1 -147 V
2 110 V
1 -4 V
1 -41 V
1 -88 V
1 111 V
2 -121 V
1 64 V
1 112 V
1 -167 V
2 18 V
1 228 V
1 -163 V
1 -69 V
1 169 V
2 -167 V
1 -2 V
1 -21 V
1 39 V
1 -24 V
2 -15 V
1 68 V
1 -65 V
1 27 V
1 -3 V
2 171 V
1 -151 V
1 -18 V
1 149 V
2 -148 V
1 40 V
1 -60 V
1 -4 V
1 58 V
2 29 V
1 -23 V
1 171 V
1 -70 V
1 -132 V
stroke 6208 491 M
2 89 V
1 -105 V
1 46 V
1 60 V
2 -119 V
1 -4 V
1 20 V
1 -8 V
1 189 V
2 13 V
1 -165 V
1 11 V
1 64 V
1 -72 V
2 217 V
1 -182 V
1 -37 V
1 13 V
1 63 V
2 -117 V
1 37 V
1 43 V
1 -40 V
2 -49 V
1 250 V
1 -237 V
1 63 V
1 -35 V
2 -44 V
1 76 V
1 -58 V
1 41 V
1 41 V
2 -103 V
1 207 V
1 -138 V
1 93 V
2 -116 V
1 2 V
1 7 V
1 14 V
1 293 V
2 -319 V
1 34 V
1 -78 V
1 184 V
1 -50 V
2 -107 V
1 0 V
1 108 V
1 -86 V
1 -24 V
2 73 V
1 7 V
1 -86 V
1 5 V
2 -25 V
1 25 V
1 41 V
1 -10 V
1 -51 V
2 -6 V
1 155 V
1 -69 V
1 188 V
1 -164 V
2 -25 V
1 12 V
1 -97 V
1 171 V
2 -171 V
1 207 V
1 -136 V
1 -49 V
1 260 V
2 -267 V
1 385 V
1 -334 V
1 7 V
1 -7 V
2 103 V
1 -160 V
1 107 V
1 389 V
1 -371 V
2 -74 V
1 -36 V
1 224 V
1 -246 V
2 12 V
1 103 V
1 -113 V
1 0 V
1 4 V
2 41 V
1 -46 V
1 42 V
1 -6 V
1 44 V
2 -51 V
1 -26 V
1 108 V
1 -46 V
2 -59 V
stroke 6335 458 M
1 72 V
1 44 V
1 75 V
1 25 V
2 -107 V
1 -24 V
1 13 V
1 -39 V
1 -68 V
2 157 V
1 -156 V
1 160 V
1 -6 V
1 -73 V
2 -5 V
1 -47 V
1 86 V
1 -100 V
2 78 V
1 -65 V
1 7 V
1 439 V
1 -460 V
2 11 V
1 161 V
1 -129 V
1 -42 V
1 120 V
2 -119 V
1 -13 V
1 69 V
1 131 V
2 -199 V
1 230 V
1 -225 V
1 29 V
1 17 V
2 15 V
1 81 V
% End plot #1
stroke
2.000 UL
LTb
LCb setrgbcolor
1.000 UL
LTB
LCb setrgbcolor
854 4871 N
854 448 L
6093 0 V
0 4423 V
-6093 0 V
Z stroke
1.000 UP
1.000 UL
LTb
LCb setrgbcolor
stroke
grestore
end
showpage
%%Trailer
%%DocumentFonts: Helvetica
