set terminal x11
set output
set xl "the position x of the window at a start point"
set yl "Frequency Amplitude"
plot "window.dat" u 2:5 w l title ""
set term postscript eps color
set out "window.eps"
replot
